2021-05-14 22:31:57,061 [ 1] INFO  Unity: LoadingManager start
2021-05-14 22:31:59,178 [ 1] INFO  Unity: DataManager > DataManager()
2021-05-14 22:32:07,510 [ 1] INFO  Unity: UserLoginRequest::user :321 psw:321
2021-05-14 22:32:07,511 [ 1] INFO  Unity: ConnectToServer() Start 
2021-05-14 22:32:07,514 [ 1] INFO  Unity: DoConnect
2021-05-14 22:32:07,515 [ 1] INFO  Unity: NetClient.DoConnect on 127.0.0.1:8000
2021-05-14 22:32:07,516 [ 1] INFO  Unity: Connect[0] to server 127.0.0.1:8000

2021-05-14 22:32:07,521 [ 1] INFO  Unity: LoadingMesager::OnGameServerConnect :0 reason:Success
2021-05-14 22:32:12,312 [ 1] INFO  Unity: OnUserLogin:Success [None]
2021-05-14 22:32:12,337 [ 1] INFO  Unity: LoadLevel: CharSelect
2021-05-14 22:32:12,480 [ 1] INFO  Unity: LevelLoadCompleted:1
2021-05-14 22:32:13,543 [ 1] INFO  Unity: Select Char:[12]爱爱[Wizard]
2021-05-14 22:32:14,135 [ 1] INFO  Unity: UserGameEnterRequest::characterIdx :0
2021-05-14 22:32:14,162 [ 1] INFO  Unity: OnGameEnterSuccess [进入游戏成功]
2021-05-14 22:32:14,162 [ 1] INFO  Unity: OnMapCharacterEnter:Map:1 Count:1
2021-05-14 22:32:14,164 [ 1] INFO  Unity: AddCharacter:12:爱爱 Map:1 Entity:(1:pos:(5000,4000,820),dir:(100,0,0),spd:0
2021-05-14 22:32:14,165 [ 1] INFO  Unity: 布林镇
2021-05-14 22:32:14,166 [ 1] INFO  Unity: LoadLevel: MainCity
2021-05-14 22:32:14,480 [ 1] INFO  Unity: LevelLoadCompleted:1
2021-05-14 22:32:23,134 [ 1] INFO  Unity: OnMapCharacterEnter:Map:1 Count:1
2021-05-14 22:32:23,134 [ 1] INFO  Unity: AddCharacter:3:的来啦 Map:1 Entity:(2:pos:(5000,4000,820),dir:(100,0,0),spd:0
2021-05-14 22:32:29,444 [ 1] INFO  Unity: OnMapCharacterLeave:CharID:3
2021-05-14 22:32:29,444 [ 1] INFO  Unity: RemoveCharacter3
2021-05-14 22:32:29,447 [ 1] INFO  Unity: Character_3_的来啦 OnDestroy :ID:2 POS:(5000, 4000, 820) DIR:(100, 0, 0) SPD:0 
2021-05-14 22:32:33,665 [ 1] INFO  Unity: OnMapCharacterEnter:Map:1 Count:1
2021-05-14 22:32:33,666 [ 1] INFO  Unity: AddCharacter:1:来啦 Map:1 Entity:(3:pos:(5000,4000,820),dir:(100,0,0),spd:0
2021-05-14 22:32:37,436 [ 1] INFO  Unity: OnEntityChanged::ID :3 POS:(5000, 4000, 820), DIR:(98, 21, 0),SPD:0
2021-05-14 22:32:37,436 [ 1] INFO  Unity: MapEntityUpdateResponse: Entity: {0}
{0}event:{1} entity:{2}
2021-05-14 22:32:37,525 [ 1] INFO  Unity: OnEntityChanged::ID :3 POS:(5000, 4000, 820), DIR:(98, 21, 0),SPD:0
2021-05-14 22:32:37,525 [ 1] INFO  Unity: MapEntityUpdateResponse: Entity: {0}
{0}event:{1} entity:{2}
2021-05-14 22:32:37,574 [ 1] INFO  Unity: OnEntityChanged::ID :3 POS:(5000, 4000, 820), DIR:(98, 21, 0),SPD:0
2021-05-14 22:32:37,574 [ 1] INFO  Unity: MapEntityUpdateResponse: Entity: {0}
{0}event:{1} entity:{2}
2021-05-14 22:32:37,615 [ 1] INFO  Unity: OnEntityChanged::ID :3 POS:(5000, 4000, 820), DIR:(98, 21, 0),SPD:0
2021-05-14 22:32:37,615 [ 1] INFO  Unity: MapEntityUpdateResponse: Entity: {0}
{0}event:{1} entity:{2}
2021-05-14 22:32:37,682 [ 1] INFO  Unity: OnEntityChanged::ID :3 POS:(5000, 4000, 820), DIR:(98, 21, 0),SPD:0
2021-05-14 22:32:37,682 [ 1] INFO  Unity: MapEntityUpdateResponse: Entity: {0}
{0}event:{1} entity:{2}
2021-05-14 22:32:37,733 [ 1] INFO  Unity: OnEntityChanged::ID :3 POS:(5000, 4000, 820), DIR:(98, 21, 0),SPD:0
2021-05-14 22:32:37,733 [ 1] INFO  Unity: MapEntityUpdateResponse: Entity: {0}
{0}event:{1} entity:{2}
2021-05-14 22:32:38,300 [ 1] INFO  Unity: OnEntityChanged::ID :3 POS:(5000, 4000, 820), DIR:(98, 21, 0),SPD:0
2021-05-14 22:32:38,300 [ 1] INFO  Unity: MapEntityUpdateResponse: Entity: {0}
{0}event:{1} entity:{2}
2021-05-14 22:32:38,908 [ 1] INFO  Unity: OnEntityChanged::ID :3 POS:(5000, 4000, 820), DIR:(98, 21, 0),SPD:0
2021-05-14 22:32:38,908 [ 1] INFO  Unity: MapEntityUpdateResponse: Entity: {0}
{0}event:{1} entity:{2}
2021-05-14 22:32:39,092 [ 1] INFO  Unity: OnEntityChanged::ID :3 POS:(5000, 4000, 820), DIR:(98, 21, 0),SPD:0
2021-05-14 22:32:39,092 [ 1] INFO  Unity: MapEntityUpdateResponse: Entity: {0}
{0}event:{1} entity:{2}
2021-05-14 22:32:39,133 [ 1] INFO  Unity: OnEntityChanged::ID :3 POS:(5000, 4000, 820), DIR:(98, 21, 0),SPD:0
2021-05-14 22:32:39,134 [ 1] INFO  Unity: MapEntityUpdateResponse: Entity: {0}
{0}event:{1} entity:{2}
2021-05-14 22:32:39,200 [ 1] INFO  Unity: OnEntityChanged::ID :3 POS:(5000, 4000, 820), DIR:(98, 21, 0),SPD:0
2021-05-14 22:32:39,200 [ 1] INFO  Unity: MapEntityUpdateResponse: Entity: {0}
{0}event:{1} entity:{2}
2021-05-14 22:32:39,250 [ 1] INFO  Unity: OnEntityChanged::ID :3 POS:(5000, 4000, 820), DIR:(98, 21, 0),SPD:0
2021-05-14 22:32:39,250 [ 1] INFO  Unity: MapEntityUpdateResponse: Entity: {0}
{0}event:{1} entity:{2}
2021-05-14 22:32:39,342 [ 1] INFO  Unity: OnEntityChanged::ID :3 POS:(5000, 4000, 820), DIR:(98, 21, 0),SPD:0
2021-05-14 22:32:39,342 [ 1] INFO  Unity: MapEntityUpdateResponse: Entity: {0}
{0}event:{1} entity:{2}
2021-05-14 22:32:39,451 [ 1] INFO  Unity: OnEntityChanged::ID :3 POS:(5000, 4000, 820), DIR:(98, 21, 0),SPD:0
2021-05-14 22:32:39,451 [ 1] INFO  Unity: MapEntityUpdateResponse: Entity: {0}
{0}event:{1} entity:{2}
2021-05-14 22:32:39,516 [ 1] INFO  Unity: OnEntityChanged::ID :3 POS:(5000, 4000, 820), DIR:(98, 21, 0),SPD:0
2021-05-14 22:32:39,516 [ 1] INFO  Unity: MapEntityUpdateResponse: Entity: {0}
{0}event:{1} entity:{2}
2021-05-14 22:32:39,576 [ 1] INFO  Unity: OnEntityChanged::ID :3 POS:(5000, 4000, 820), DIR:(98, 21, 0),SPD:0
2021-05-14 22:32:39,576 [ 1] INFO  Unity: MapEntityUpdateResponse: Entity: {0}
{0}event:{1} entity:{2}
2021-05-14 22:32:39,625 [ 1] INFO  Unity: OnEntityChanged::ID :3 POS:(5000, 4000, 820), DIR:(98, 21, 0),SPD:0
2021-05-14 22:32:39,625 [ 1] INFO  Unity: MapEntityUpdateResponse: Entity: {0}
{0}event:{1} entity:{2}
2021-05-14 22:32:39,682 [ 1] INFO  Unity: OnEntityChanged::ID :3 POS:(5000, 4000, 820), DIR:(98, 21, 0),SPD:0
2021-05-14 22:32:39,683 [ 1] INFO  Unity: MapEntityUpdateResponse: Entity: {0}
{0}event:{1} entity:{2}
2021-05-14 22:32:39,732 [ 1] INFO  Unity: OnEntityChanged::ID :3 POS:(5000, 4000, 820), DIR:(98, 21, 0),SPD:0
2021-05-14 22:32:39,732 [ 1] INFO  Unity: MapEntityUpdateResponse: Entity: {0}
{0}event:{1} entity:{2}
2021-05-14 22:32:39,791 [ 1] INFO  Unity: OnEntityChanged::ID :3 POS:(5000, 4000, 820), DIR:(98, 21, 0),SPD:0
2021-05-14 22:32:39,791 [ 1] INFO  Unity: MapEntityUpdateResponse: Entity: {0}
{0}event:{1} entity:{2}
2021-05-14 22:32:39,841 [ 1] INFO  Unity: OnEntityChanged::ID :3 POS:(5000, 4000, 820), DIR:(98, 21, 0),SPD:0
2021-05-14 22:32:39,842 [ 1] INFO  Unity: MapEntityUpdateResponse: Entity: {0}
{0}event:{1} entity:{2}
2021-05-14 22:32:40,149 [ 1] INFO  Unity: OnEntityChanged::ID :3 POS:(5000, 4000, 820), DIR:(98, 21, 0),SPD:0
2021-05-14 22:32:40,149 [ 1] INFO  Unity: MapEntityUpdateResponse: Entity: {0}
{0}event:{1} entity:{2}
2021-05-14 22:32:40,566 [ 1] INFO  Unity: OnEntityChanged::ID :3 POS:(5000, 4000, 820), DIR:(98, 21, 0),SPD:0
2021-05-14 22:32:40,566 [ 1] INFO  Unity: MapEntityUpdateResponse: Entity: {0}
{0}event:{1} entity:{2}
2021-05-14 22:32:40,624 [ 1] INFO  Unity: OnEntityChanged::ID :3 POS:(5000, 4000, 820), DIR:(98, 21, 0),SPD:0
2021-05-14 22:32:40,624 [ 1] INFO  Unity: MapEntityUpdateResponse: Entity: {0}
{0}event:{1} entity:{2}
2021-05-14 22:32:40,666 [ 1] INFO  Unity: OnEntityChanged::ID :3 POS:(5000, 4000, 820), DIR:(98, 21, 0),SPD:0
2021-05-14 22:32:40,666 [ 1] INFO  Unity: MapEntityUpdateResponse: Entity: {0}
{0}event:{1} entity:{2}
2021-05-14 22:32:40,700 [ 1] INFO  Unity: OnEntityChanged::ID :3 POS:(5000, 4000, 820), DIR:(98, 21, 0),SPD:0
2021-05-14 22:32:40,700 [ 1] INFO  Unity: MapEntityUpdateResponse: Entity: {0}
{0}event:{1} entity:{2}
2021-05-14 22:32:40,741 [ 1] INFO  Unity: OnEntityChanged::ID :3 POS:(5000, 4000, 820), DIR:(98, 21, 0),SPD:0
2021-05-14 22:32:40,741 [ 1] INFO  Unity: MapEntityUpdateResponse: Entity: {0}
{0}event:{1} entity:{2}
2021-05-14 22:32:40,774 [ 1] INFO  Unity: OnEntityChanged::ID :3 POS:(5000, 4000, 820), DIR:(98, 21, 0),SPD:0
2021-05-14 22:32:40,775 [ 1] INFO  Unity: MapEntityUpdateResponse: Entity: {0}
{0}event:{1} entity:{2}
2021-05-14 22:32:40,816 [ 1] INFO  Unity: OnEntityChanged::ID :3 POS:(5000, 4000, 820), DIR:(98, 21, 0),SPD:0
2021-05-14 22:32:40,816 [ 1] INFO  Unity: MapEntityUpdateResponse: Entity: {0}
{0}event:{1} entity:{2}
2021-05-14 22:32:40,858 [ 1] INFO  Unity: OnEntityChanged::ID :3 POS:(5000, 4000, 820), DIR:(98, 21, 0),SPD:0
2021-05-14 22:32:40,858 [ 1] INFO  Unity: MapEntityUpdateResponse: Entity: {0}
{0}event:{1} entity:{2}
2021-05-14 22:32:40,899 [ 1] INFO  Unity: OnEntityChanged::ID :3 POS:(5000, 4000, 820), DIR:(98, 21, 0),SPD:0
2021-05-14 22:32:40,899 [ 1] INFO  Unity: MapEntityUpdateResponse: Entity: {0}
{0}event:{1} entity:{2}
2021-05-14 22:32:41,058 [ 1] INFO  Unity: OnEntityChanged::ID :3 POS:(5000, 4000, 820), DIR:(98, 21, 0),SPD:0
2021-05-14 22:32:41,058 [ 1] INFO  Unity: MapEntityUpdateResponse: Entity: {0}
{0}event:{1} entity:{2}
2021-05-14 22:32:41,108 [ 1] INFO  Unity: OnEntityChanged::ID :3 POS:(5000, 4000, 820), DIR:(98, 21, 0),SPD:0
2021-05-14 22:32:41,108 [ 1] INFO  Unity: MapEntityUpdateResponse: Entity: {0}
{0}event:{1} entity:{2}
2021-05-14 22:32:41,158 [ 1] INFO  Unity: OnEntityChanged::ID :3 POS:(5000, 4000, 820), DIR:(98, 21, 0),SPD:0
2021-05-14 22:32:41,159 [ 1] INFO  Unity: MapEntityUpdateResponse: Entity: {0}
{0}event:{1} entity:{2}
2021-05-14 22:32:41,217 [ 1] INFO  Unity: OnEntityChanged::ID :3 POS:(5000, 4000, 820), DIR:(98, 21, 0),SPD:0
2021-05-14 22:32:41,217 [ 1] INFO  Unity: MapEntityUpdateResponse: Entity: {0}
{0}event:{1} entity:{2}
2021-05-14 22:32:41,291 [ 1] INFO  Unity: OnEntityChanged::ID :3 POS:(5000, 4000, 820), DIR:(98, 21, 0),SPD:0
2021-05-14 22:32:41,291 [ 1] INFO  Unity: MapEntityUpdateResponse: Entity: {0}
{0}event:{1} entity:{2}
2021-05-14 22:32:41,325 [ 1] INFO  Unity: OnEntityChanged::ID :3 POS:(5000, 4000, 820), DIR:(98, 21, 0),SPD:0
2021-05-14 22:32:41,325 [ 1] INFO  Unity: MapEntityUpdateResponse: Entity: {0}
{0}event:{1} entity:{2}
2021-05-14 22:32:41,367 [ 1] INFO  Unity: OnEntityChanged::ID :3 POS:(5000, 4000, 820), DIR:(98, 21, 0),SPD:0
2021-05-14 22:32:41,369 [ 1] INFO  Unity: MapEntityUpdateResponse: Entity: {0}
{0}event:{1} entity:{2}
2021-05-14 22:32:41,399 [ 1] INFO  Unity: OnEntityChanged::ID :3 POS:(5000, 4000, 820), DIR:(98, 21, 0),SPD:0
2021-05-14 22:32:41,399 [ 1] INFO  Unity: MapEntityUpdateResponse: Entity: {0}
{0}event:{1} entity:{2}
2021-05-14 22:32:41,441 [ 1] INFO  Unity: OnEntityChanged::ID :3 POS:(5000, 4000, 820), DIR:(98, 21, 0),SPD:0
2021-05-14 22:32:41,442 [ 1] INFO  Unity: MapEntityUpdateResponse: Entity: {0}
{0}event:{1} entity:{2}
2021-05-14 22:32:41,491 [ 1] INFO  Unity: OnEntityChanged::ID :3 POS:(5000, 4000, 820), DIR:(98, 21, 0),SPD:0
2021-05-14 22:32:41,491 [ 1] INFO  Unity: MapEntityUpdateResponse: Entity: {0}
{0}event:{1} entity:{2}
2021-05-14 22:32:41,533 [ 1] INFO  Unity: OnEntityChanged::ID :3 POS:(5000, 4000, 820), DIR:(98, 21, 0),SPD:0
2021-05-14 22:32:41,533 [ 1] INFO  Unity: MapEntityUpdateResponse: Entity: {0}
{0}event:{1} entity:{2}
2021-05-14 22:32:41,566 [ 1] INFO  Unity: OnEntityChanged::ID :3 POS:(5000, 4000, 820), DIR:(98, 21, 0),SPD:0
2021-05-14 22:32:41,566 [ 1] INFO  Unity: MapEntityUpdateResponse: Entity: {0}
{0}event:{1} entity:{2}
2021-05-14 22:32:41,608 [ 1] INFO  Unity: OnEntityChanged::ID :3 POS:(5000, 4000, 820), DIR:(98, 21, 0),SPD:0
2021-05-14 22:32:41,608 [ 1] INFO  Unity: MapEntityUpdateResponse: Entity: {0}
{0}event:{1} entity:{2}
2021-05-14 22:32:41,649 [ 1] INFO  Unity: OnEntityChanged::ID :3 POS:(5000, 4000, 820), DIR:(98, 21, 0),SPD:0
2021-05-14 22:32:41,649 [ 1] INFO  Unity: MapEntityUpdateResponse: Entity: {0}
{0}event:{1} entity:{2}
2021-05-14 22:32:41,691 [ 1] INFO  Unity: OnEntityChanged::ID :3 POS:(5000, 4000, 820), DIR:(98, 21, 0),SPD:0
2021-05-14 22:32:41,691 [ 1] INFO  Unity: MapEntityUpdateResponse: Entity: {0}
{0}event:{1} entity:{2}
2021-05-14 22:32:41,733 [ 1] INFO  Unity: OnEntityChanged::ID :3 POS:(5000, 4000, 820), DIR:(98, 21, 0),SPD:0
2021-05-14 22:32:41,733 [ 1] INFO  Unity: MapEntityUpdateResponse: Entity: {0}
{0}event:{1} entity:{2}
2021-05-14 22:32:42,066 [ 1] INFO  Unity: OnEntityChanged::ID :3 POS:(5000, 4000, 820), DIR:(98, 21, 0),SPD:0
2021-05-14 22:32:42,066 [ 1] INFO  Unity: MapEntityUpdateResponse: Entity: {0}
{0}event:{1} entity:{2}
2021-05-14 22:32:42,116 [ 1] INFO  Unity: OnEntityChanged::ID :3 POS:(5000, 4000, 820), DIR:(98, 21, 0),SPD:0
2021-05-14 22:32:42,116 [ 1] INFO  Unity: MapEntityUpdateResponse: Entity: {0}
{0}event:{1} entity:{2}
2021-05-14 22:32:42,165 [ 1] INFO  Unity: OnEntityChanged::ID :3 POS:(5000, 4000, 820), DIR:(98, 21, 0),SPD:0
2021-05-14 22:32:42,165 [ 1] INFO  Unity: MapEntityUpdateResponse: Entity: {0}
{0}event:{1} entity:{2}
2021-05-14 22:32:42,224 [ 1] INFO  Unity: OnEntityChanged::ID :3 POS:(5000, 4000, 820), DIR:(98, 21, 0),SPD:0
2021-05-14 22:32:42,224 [ 1] INFO  Unity: MapEntityUpdateResponse: Entity: {0}
{0}event:{1} entity:{2}
2021-05-14 22:32:42,274 [ 1] INFO  Unity: OnEntityChanged::ID :3 POS:(5000, 4000, 820), DIR:(98, 21, 0),SPD:0
2021-05-14 22:32:42,274 [ 1] INFO  Unity: MapEntityUpdateResponse: Entity: {0}
{0}event:{1} entity:{2}
2021-05-14 22:32:42,341 [ 1] INFO  Unity: OnEntityChanged::ID :3 POS:(5000, 4000, 820), DIR:(98, 21, 0),SPD:0
2021-05-14 22:32:42,341 [ 1] INFO  Unity: MapEntityUpdateResponse: Entity: {0}
{0}event:{1} entity:{2}
2021-05-14 22:32:42,391 [ 1] INFO  Unity: OnEntityChanged::ID :3 POS:(5000, 4000, 820), DIR:(98, 21, 0),SPD:0
2021-05-14 22:32:42,391 [ 1] INFO  Unity: MapEntityUpdateResponse: Entity: {0}
{0}event:{1} entity:{2}
2021-05-14 22:32:42,441 [ 1] INFO  Unity: OnEntityChanged::ID :3 POS:(5000, 4000, 820), DIR:(98, 21, 0),SPD:0
2021-05-14 22:32:42,441 [ 1] INFO  Unity: MapEntityUpdateResponse: Entity: {0}
{0}event:{1} entity:{2}
2021-05-14 22:32:42,499 [ 1] INFO  Unity: OnEntityChanged::ID :3 POS:(5000, 4000, 820), DIR:(98, 21, 0),SPD:0
2021-05-14 22:32:42,499 [ 1] INFO  Unity: MapEntityUpdateResponse: Entity: {0}
{0}event:{1} entity:{2}
2021-05-14 22:32:42,548 [ 1] INFO  Unity: OnEntityChanged::ID :3 POS:(5000, 4000, 820), DIR:(98, 21, 0),SPD:0
2021-05-14 22:32:42,548 [ 1] INFO  Unity: MapEntityUpdateResponse: Entity: {0}
{0}event:{1} entity:{2}
2021-05-14 22:32:42,599 [ 1] INFO  Unity: OnEntityChanged::ID :3 POS:(5000, 4000, 820), DIR:(98, 21, 0),SPD:0
2021-05-14 22:32:42,599 [ 1] INFO  Unity: MapEntityUpdateResponse: Entity: {0}
{0}event:{1} entity:{2}
2021-05-14 22:32:42,675 [ 1] INFO  Unity: OnEntityChanged::ID :3 POS:(5000, 4000, 820), DIR:(98, 21, 0),SPD:0
2021-05-14 22:32:42,675 [ 1] INFO  Unity: MapEntityUpdateResponse: Entity: {0}
{0}event:{1} entity:{2}
2021-05-14 22:32:42,874 [ 1] INFO  Unity: OnEntityChanged::ID :3 POS:(5000, 4000, 820), DIR:(98, 21, 0),SPD:0
2021-05-14 22:32:42,874 [ 1] INFO  Unity: MapEntityUpdateResponse: Entity: {0}
{0}event:{1} entity:{2}
2021-05-14 22:32:42,949 [ 1] INFO  Unity: OnEntityChanged::ID :3 POS:(5000, 4000, 820), DIR:(98, 21, 0),SPD:0
2021-05-14 22:32:42,949 [ 1] INFO  Unity: MapEntityUpdateResponse: Entity: {0}
{0}event:{1} entity:{2}
2021-05-14 22:32:43,008 [ 1] INFO  Unity: OnEntityChanged::ID :3 POS:(5000, 4000, 820), DIR:(98, 21, 0),SPD:0
2021-05-14 22:32:43,008 [ 1] INFO  Unity: MapEntityUpdateResponse: Entity: {0}
{0}event:{1} entity:{2}
2021-05-14 22:32:43,074 [ 1] INFO  Unity: OnEntityChanged::ID :3 POS:(5000, 4000, 820), DIR:(98, 21, 0),SPD:0
2021-05-14 22:32:43,074 [ 1] INFO  Unity: MapEntityUpdateResponse: Entity: {0}
{0}event:{1} entity:{2}
2021-05-14 22:32:43,133 [ 1] INFO  Unity: OnEntityChanged::ID :3 POS:(5000, 4000, 820), DIR:(98, 21, 0),SPD:0
2021-05-14 22:32:43,133 [ 1] INFO  Unity: MapEntityUpdateResponse: Entity: {0}
{0}event:{1} entity:{2}
2021-05-14 22:32:43,216 [ 1] INFO  Unity: OnEntityChanged::ID :3 POS:(5000, 4000, 820), DIR:(98, 21, 0),SPD:0
2021-05-14 22:32:43,216 [ 1] INFO  Unity: MapEntityUpdateResponse: Entity: {0}
{0}event:{1} entity:{2}
2021-05-14 22:32:43,291 [ 1] INFO  Unity: OnEntityChanged::ID :3 POS:(5000, 4000, 820), DIR:(98, 21, 0),SPD:0
2021-05-14 22:32:43,292 [ 1] INFO  Unity: MapEntityUpdateResponse: Entity: {0}
{0}event:{1} entity:{2}
2021-05-14 22:32:43,323 [ 1] INFO  Unity: OnEntityChanged::ID :3 POS:(5000, 4000, 820), DIR:(98, 21, 0),SPD:0
2021-05-14 22:32:43,324 [ 1] INFO  Unity: MapEntityUpdateResponse: Entity: {0}
{0}event:{1} entity:{2}
2021-05-14 22:32:43,359 [ 1] INFO  Unity: OnEntityChanged::ID :3 POS:(5000, 4000, 820), DIR:(98, 21, 0),SPD:0
2021-05-14 22:32:43,359 [ 1] INFO  Unity: MapEntityUpdateResponse: Entity: {0}
{0}event:{1} entity:{2}
2021-05-14 22:32:43,408 [ 1] INFO  Unity: OnEntityChanged::ID :3 POS:(5000, 4000, 820), DIR:(98, 21, 0),SPD:0
2021-05-14 22:32:43,408 [ 1] INFO  Unity: MapEntityUpdateResponse: Entity: {0}
{0}event:{1} entity:{2}
2021-05-14 22:32:43,441 [ 1] INFO  Unity: OnEntityChanged::ID :3 POS:(5000, 4000, 820), DIR:(98, 21, 0),SPD:0
2021-05-14 22:32:43,441 [ 1] INFO  Unity: MapEntityUpdateResponse: Entity: {0}
{0}event:{1} entity:{2}
2021-05-14 22:32:43,482 [ 1] INFO  Unity: OnEntityChanged::ID :3 POS:(5000, 4000, 820), DIR:(98, 21, 0),SPD:0
2021-05-14 22:32:43,482 [ 1] INFO  Unity: MapEntityUpdateResponse: Entity: {0}
{0}event:{1} entity:{2}
2021-05-14 22:32:43,532 [ 1] INFO  Unity: OnEntityChanged::ID :3 POS:(5000, 4000, 820), DIR:(98, 21, 0),SPD:0
2021-05-14 22:32:43,533 [ 1] INFO  Unity: MapEntityUpdateResponse: Entity: {0}
{0}event:{1} entity:{2}
2021-05-14 22:32:43,582 [ 1] INFO  Unity: OnEntityChanged::ID :3 POS:(5000, 4000, 820), DIR:(98, 21, 0),SPD:0
2021-05-14 22:32:43,582 [ 1] INFO  Unity: MapEntityUpdateResponse: Entity: {0}
{0}event:{1} entity:{2}
2021-05-14 22:32:43,616 [ 1] INFO  Unity: OnEntityChanged::ID :3 POS:(5000, 4000, 820), DIR:(98, 21, 0),SPD:0
2021-05-14 22:32:43,616 [ 1] INFO  Unity: MapEntityUpdateResponse: Entity: {0}
{0}event:{1} entity:{2}
2021-05-14 22:32:43,657 [ 1] INFO  Unity: OnEntityChanged::ID :3 POS:(5000, 4000, 820), DIR:(98, 21, 0),SPD:0
2021-05-14 22:32:43,657 [ 1] INFO  Unity: MapEntityUpdateResponse: Entity: {0}
{0}event:{1} entity:{2}
2021-05-14 22:32:43,699 [ 1] INFO  Unity: OnEntityChanged::ID :3 POS:(5000, 4000, 820), DIR:(98, 21, 0),SPD:0
2021-05-14 22:32:43,700 [ 1] INFO  Unity: MapEntityUpdateResponse: Entity: {0}
{0}event:{1} entity:{2}
2021-05-14 22:32:43,741 [ 1] INFO  Unity: OnEntityChanged::ID :3 POS:(5000, 4000, 820), DIR:(98, 21, 0),SPD:0
2021-05-14 22:32:43,741 [ 1] INFO  Unity: MapEntityUpdateResponse: Entity: {0}
{0}event:{1} entity:{2}
2021-05-14 22:32:43,825 [ 1] INFO  Unity: OnEntityChanged::ID :3 POS:(5000, 4000, 820), DIR:(98, 21, 0),SPD:0
2021-05-14 22:32:43,825 [ 1] INFO  Unity: MapEntityUpdateResponse: Entity: {0}
{0}event:{1} entity:{2}
2021-05-14 22:32:43,882 [ 1] INFO  Unity: OnEntityChanged::ID :3 POS:(5000, 4000, 820), DIR:(98, 21, 0),SPD:0
2021-05-14 22:32:43,882 [ 1] INFO  Unity: MapEntityUpdateResponse: Entity: {0}
{0}event:{1} entity:{2}
2021-05-14 22:32:43,941 [ 1] INFO  Unity: OnEntityChanged::ID :3 POS:(5000, 4000, 820), DIR:(98, 21, 0),SPD:0
2021-05-14 22:32:43,941 [ 1] INFO  Unity: MapEntityUpdateResponse: Entity: {0}
{0}event:{1} entity:{2}
2021-05-14 22:32:43,999 [ 1] INFO  Unity: OnEntityChanged::ID :3 POS:(5000, 4000, 820), DIR:(98, 21, 0),SPD:0
2021-05-14 22:32:43,999 [ 1] INFO  Unity: MapEntityUpdateResponse: Entity: {0}
{0}event:{1} entity:{2}
2021-05-14 22:32:44,033 [ 1] INFO  Unity: OnEntityChanged::ID :3 POS:(5000, 4000, 820), DIR:(98, 21, 0),SPD:0
2021-05-14 22:32:44,033 [ 1] INFO  Unity: MapEntityUpdateResponse: Entity: {0}
{0}event:{1} entity:{2}
2021-05-14 22:32:44,083 [ 1] INFO  Unity: OnEntityChanged::ID :3 POS:(5000, 4000, 820), DIR:(98, 21, 0),SPD:0
2021-05-14 22:32:44,083 [ 1] INFO  Unity: MapEntityUpdateResponse: Entity: {0}
{0}event:{1} entity:{2}
2021-05-14 22:32:44,124 [ 1] INFO  Unity: OnEntityChanged::ID :3 POS:(5000, 4000, 820), DIR:(98, 21, 0),SPD:0
2021-05-14 22:32:44,124 [ 1] INFO  Unity: MapEntityUpdateResponse: Entity: {0}
{0}event:{1} entity:{2}
2021-05-14 22:32:44,158 [ 1] INFO  Unity: OnEntityChanged::ID :3 POS:(5000, 4000, 820), DIR:(98, 21, 0),SPD:0
2021-05-14 22:32:44,158 [ 1] INFO  Unity: MapEntityUpdateResponse: Entity: {0}
{0}event:{1} entity:{2}
2021-05-14 22:32:44,200 [ 1] INFO  Unity: OnEntityChanged::ID :3 POS:(5000, 4000, 820), DIR:(98, 21, 0),SPD:0
2021-05-14 22:32:44,200 [ 1] INFO  Unity: MapEntityUpdateResponse: Entity: {0}
{0}event:{1} entity:{2}
2021-05-14 22:32:44,240 [ 1] INFO  Unity: OnEntityChanged::ID :3 POS:(5000, 4000, 820), DIR:(98, 21, 0),SPD:0
2021-05-14 22:32:44,241 [ 1] INFO  Unity: MapEntityUpdateResponse: Entity: {0}
{0}event:{1} entity:{2}
2021-05-14 22:32:44,283 [ 1] INFO  Unity: OnEntityChanged::ID :3 POS:(5000, 4000, 820), DIR:(98, 21, 0),SPD:0
2021-05-14 22:32:44,284 [ 1] INFO  Unity: MapEntityUpdateResponse: Entity: {0}
{0}event:{1} entity:{2}
2021-05-14 22:32:44,324 [ 1] INFO  Unity: OnEntityChanged::ID :3 POS:(5000, 4000, 820), DIR:(98, 21, 0),SPD:0
2021-05-14 22:32:44,324 [ 1] INFO  Unity: MapEntityUpdateResponse: Entity: {0}
{0}event:{1} entity:{2}
2021-05-14 22:32:44,367 [ 1] INFO  Unity: OnEntityChanged::ID :3 POS:(5000, 4000, 820), DIR:(98, 21, 0),SPD:0
2021-05-14 22:32:44,367 [ 1] INFO  Unity: MapEntityUpdateResponse: Entity: {0}
{0}event:{1} entity:{2}
2021-05-14 22:32:44,407 [ 1] INFO  Unity: OnEntityChanged::ID :3 POS:(5000, 4000, 820), DIR:(98, 21, 0),SPD:0
2021-05-14 22:32:44,408 [ 1] INFO  Unity: MapEntityUpdateResponse: Entity: {0}
{0}event:{1} entity:{2}
2021-05-14 22:32:44,450 [ 1] INFO  Unity: OnEntityChanged::ID :3 POS:(5000, 4000, 820), DIR:(98, 21, 0),SPD:0
2021-05-14 22:32:44,450 [ 1] INFO  Unity: MapEntityUpdateResponse: Entity: {0}
{0}event:{1} entity:{2}
2021-05-14 22:32:44,483 [ 1] INFO  Unity: OnEntityChanged::ID :3 POS:(5000, 4000, 820), DIR:(98, 21, 0),SPD:0
2021-05-14 22:32:44,484 [ 1] INFO  Unity: MapEntityUpdateResponse: Entity: {0}
{0}event:{1} entity:{2}
2021-05-14 22:32:44,524 [ 1] INFO  Unity: OnEntityChanged::ID :3 POS:(5000, 4000, 820), DIR:(98, 21, 0),SPD:0
2021-05-14 22:32:44,525 [ 1] INFO  Unity: MapEntityUpdateResponse: Entity: {0}
{0}event:{1} entity:{2}
2021-05-14 22:32:44,566 [ 1] INFO  Unity: OnEntityChanged::ID :3 POS:(5000, 4000, 820), DIR:(98, 21, 0),SPD:0
2021-05-14 22:32:44,566 [ 1] INFO  Unity: MapEntityUpdateResponse: Entity: {0}
{0}event:{1} entity:{2}
2021-05-14 22:32:44,607 [ 1] INFO  Unity: OnEntityChanged::ID :3 POS:(5000, 4000, 820), DIR:(98, 21, 0),SPD:0
2021-05-14 22:32:44,607 [ 1] INFO  Unity: MapEntityUpdateResponse: Entity: {0}
{0}event:{1} entity:{2}
2021-05-14 22:32:44,632 [ 1] INFO  Unity: OnEntityChanged::ID :3 POS:(5000, 4000, 820), DIR:(98, 21, 0),SPD:0
2021-05-14 22:32:44,632 [ 1] INFO  Unity: MapEntityUpdateResponse: Entity: {0}
{0}event:{1} entity:{2}
2021-05-14 22:32:44,732 [ 1] INFO  Unity: OnEntityChanged::ID :3 POS:(5000, 4000, 820), DIR:(98, 21, 0),SPD:0
2021-05-14 22:32:44,732 [ 1] INFO  Unity: MapEntityUpdateResponse: Entity: {0}
{0}event:{1} entity:{2}
2021-05-14 22:32:44,790 [ 1] INFO  Unity: OnEntityChanged::ID :3 POS:(5000, 4000, 820), DIR:(98, 21, 0),SPD:0
2021-05-14 22:32:44,790 [ 1] INFO  Unity: MapEntityUpdateResponse: Entity: {0}
{0}event:{1} entity:{2}
2021-05-14 22:32:44,841 [ 1] INFO  Unity: OnEntityChanged::ID :3 POS:(5000, 4000, 820), DIR:(98, 21, 0),SPD:0
2021-05-14 22:32:44,841 [ 1] INFO  Unity: MapEntityUpdateResponse: Entity: {0}
{0}event:{1} entity:{2}
2021-05-14 22:32:44,899 [ 1] INFO  Unity: OnEntityChanged::ID :3 POS:(5000, 4000, 820), DIR:(98, 21, 0),SPD:0
2021-05-14 22:32:44,899 [ 1] INFO  Unity: MapEntityUpdateResponse: Entity: {0}
{0}event:{1} entity:{2}
2021-05-14 22:32:44,949 [ 1] INFO  Unity: OnEntityChanged::ID :3 POS:(5000, 4000, 820), DIR:(98, 21, 0),SPD:0
2021-05-14 22:32:44,949 [ 1] INFO  Unity: MapEntityUpdateResponse: Entity: {0}
{0}event:{1} entity:{2}
2021-05-14 22:32:44,999 [ 1] INFO  Unity: OnEntityChanged::ID :3 POS:(5000, 4000, 820), DIR:(98, 21, 0),SPD:0
2021-05-14 22:32:44,999 [ 1] INFO  Unity: MapEntityUpdateResponse: Entity: {0}
{0}event:{1} entity:{2}
2021-05-14 22:32:45,065 [ 1] INFO  Unity: OnEntityChanged::ID :3 POS:(5000, 4000, 820), DIR:(98, 21, 0),SPD:0
2021-05-14 22:32:45,066 [ 1] INFO  Unity: MapEntityUpdateResponse: Entity: {0}
{0}event:{1} entity:{2}
2021-05-14 22:32:45,116 [ 1] INFO  Unity: OnEntityChanged::ID :3 POS:(5000, 4000, 820), DIR:(98, 21, 0),SPD:0
2021-05-14 22:32:45,116 [ 1] INFO  Unity: MapEntityUpdateResponse: Entity: {0}
{0}event:{1} entity:{2}
2021-05-14 22:32:45,149 [ 1] INFO  Unity: OnEntityChanged::ID :3 POS:(5000, 4000, 820), DIR:(98, 21, 0),SPD:0
2021-05-14 22:32:45,149 [ 1] INFO  Unity: MapEntityUpdateResponse: Entity: {0}
{0}event:{1} entity:{2}
2021-05-14 22:32:45,198 [ 1] INFO  Unity: OnEntityChanged::ID :3 POS:(5000, 4000, 820), DIR:(98, 21, 0),SPD:0
2021-05-14 22:32:45,199 [ 1] INFO  Unity: MapEntityUpdateResponse: Entity: {0}
{0}event:{1} entity:{2}
2021-05-14 22:32:45,249 [ 1] INFO  Unity: OnEntityChanged::ID :3 POS:(5000, 4000, 820), DIR:(98, 21, 0),SPD:0
2021-05-14 22:32:45,249 [ 1] INFO  Unity: MapEntityUpdateResponse: Entity: {0}
{0}event:{1} entity:{2}
2021-05-14 22:32:45,291 [ 1] INFO  Unity: OnEntityChanged::ID :3 POS:(5000, 4000, 820), DIR:(98, 21, 0),SPD:0
2021-05-14 22:32:45,291 [ 1] INFO  Unity: MapEntityUpdateResponse: Entity: {0}
{0}event:{1} entity:{2}
2021-05-14 22:33:23,788 [ 1] INFO  Unity: SetDirection:(98, 21, 0)
2021-05-14 22:33:23,789 [ 1] INFO  Unity: OnMapEntitySyncRequest::ID :1 POS:SkillBridge.Message.NVector3, DIR:SkillBridge.Message.NVector3,SPD:0
2021-05-14 22:33:23,839 [ 1] INFO  Unity: MoveForward
2021-05-14 22:33:23,839 [ 1] INFO  Unity: OnMapEntitySyncRequest::ID :1 POS:SkillBridge.Message.NVector3, DIR:SkillBridge.Message.NVector3,SPD:0
2021-05-14 22:33:23,889 [ 1] INFO  Unity: SetDirection:(91, 41, 0)
2021-05-14 22:33:23,889 [ 1] INFO  Unity: OnMapEntitySyncRequest::ID :1 POS:SkillBridge.Message.NVector3, DIR:SkillBridge.Message.NVector3,SPD:300
2021-05-14 22:33:23,997 [ 1] INFO  Unity: SetDirection:(81, 59, 0)
2021-05-14 22:33:23,997 [ 1] INFO  Unity: OnMapEntitySyncRequest::ID :1 POS:SkillBridge.Message.NVector3, DIR:SkillBridge.Message.NVector3,SPD:300
2021-05-14 22:33:24,089 [ 1] INFO  Unity: SetDirection:(67, 74, 0)
2021-05-14 22:33:24,089 [ 1] INFO  Unity: OnMapEntitySyncRequest::ID :1 POS:SkillBridge.Message.NVector3, DIR:SkillBridge.Message.NVector3,SPD:300
2021-05-14 22:33:24,206 [ 1] INFO  Unity: Stop
2021-05-14 22:33:24,206 [ 1] INFO  Unity: OnMapEntitySyncRequest::ID :1 POS:SkillBridge.Message.NVector3, DIR:SkillBridge.Message.NVector3,SPD:300
2021-05-14 22:33:24,430 [ 1] INFO  Unity: MoveBack
2021-05-14 22:33:24,431 [ 1] INFO  Unity: OnMapEntitySyncRequest::ID :1 POS:SkillBridge.Message.NVector3, DIR:SkillBridge.Message.NVector3,SPD:0
2021-05-14 22:33:24,564 [ 1] INFO  Unity: SetDirection:(81, 59, 0)
2021-05-14 22:33:24,564 [ 1] INFO  Unity: OnMapEntitySyncRequest::ID :1 POS:SkillBridge.Message.NVector3, DIR:SkillBridge.Message.NVector3,SPD:-300
2021-05-14 22:33:24,646 [ 1] INFO  Unity: SetDirection:(90, 44, 0)
2021-05-14 22:33:24,646 [ 1] INFO  Unity: OnMapEntitySyncRequest::ID :1 POS:SkillBridge.Message.NVector3, DIR:SkillBridge.Message.NVector3,SPD:-300
2021-05-14 22:33:24,731 [ 1] INFO  Unity: SetDirection:(96, 28, 0)
2021-05-14 22:33:24,731 [ 1] INFO  Unity: OnMapEntitySyncRequest::ID :1 POS:SkillBridge.Message.NVector3, DIR:SkillBridge.Message.NVector3,SPD:-300
2021-05-14 22:33:24,814 [ 1] INFO  Unity: SetDirection:(99, 10, 0)
2021-05-14 22:33:24,814 [ 1] INFO  Unity: OnMapEntitySyncRequest::ID :1 POS:SkillBridge.Message.NVector3, DIR:SkillBridge.Message.NVector3,SPD:-300
2021-05-14 22:33:24,912 [ 1] INFO  Unity: SetDirection:(99, -10, 0)
2021-05-14 22:33:24,912 [ 1] INFO  Unity: OnMapEntitySyncRequest::ID :1 POS:SkillBridge.Message.NVector3, DIR:SkillBridge.Message.NVector3,SPD:-300
2021-05-14 22:33:24,997 [ 1] INFO  Unity: SetDirection:(96, -28, 0)
2021-05-14 22:33:24,997 [ 1] INFO  Unity: OnMapEntitySyncRequest::ID :1 POS:SkillBridge.Message.NVector3, DIR:SkillBridge.Message.NVector3,SPD:-300
2021-05-14 22:33:25,095 [ 1] INFO  Unity: SetDirection:(88, -47, 0)
2021-05-14 22:33:25,095 [ 1] INFO  Unity: OnMapEntitySyncRequest::ID :1 POS:SkillBridge.Message.NVector3, DIR:SkillBridge.Message.NVector3,SPD:-300
2021-05-14 22:33:25,195 [ 1] INFO  Unity: SetDirection:(77, -64, 0)
2021-05-14 22:33:25,196 [ 1] INFO  Unity: OnMapEntitySyncRequest::ID :1 POS:SkillBridge.Message.NVector3, DIR:SkillBridge.Message.NVector3,SPD:-300
2021-05-14 22:33:25,280 [ 1] INFO  Unity: SetDirection:(64, -77, 0)
2021-05-14 22:33:25,280 [ 1] INFO  Unity: OnMapEntitySyncRequest::ID :1 POS:SkillBridge.Message.NVector3, DIR:SkillBridge.Message.NVector3,SPD:-300
2021-05-14 22:33:25,530 [ 1] INFO  Unity: Stop
2021-05-14 22:33:25,530 [ 1] INFO  Unity: OnMapEntitySyncRequest::ID :1 POS:SkillBridge.Message.NVector3, DIR:SkillBridge.Message.NVector3,SPD:-300
2021-05-14 22:33:25,646 [ 1] INFO  Unity: SetDirection:(77, -64, 0)
2021-05-14 22:33:25,647 [ 1] INFO  Unity: OnMapEntitySyncRequest::ID :1 POS:SkillBridge.Message.NVector3, DIR:SkillBridge.Message.NVector3,SPD:0
2021-05-14 22:36:38,660 [ 1] INFO  Unity: ProcessReceive exception:System.Net.Sockets.SocketException: 远程主机强迫关闭了一个现有的连接。

  at System.Net.Sockets.Socket.Receive (System.Byte[] buffer, Int32 offset, Int32 size, SocketFlags flags) [0x00000] in <filename unknown>:0 
  at Network.NetClient.ProcessRecv () [0x00000] in <filename unknown>:0 

2021-05-14 22:36:38,661 [ 1] WARN  Unity: CloseConnection(), errorCode: 1001

2021-05-14 22:36:38,665 [ 1] INFO  Unity: DoConnect
2021-05-14 22:36:38,665 [ 1] INFO  Unity: NetClient.DoConnect on 127.0.0.1:8000
2021-05-14 22:36:38,665 [ 1] INFO  Unity: Connect[0] to server 127.0.0.1:8000

2021-05-14 22:36:40,688 [ 1] WARN  Unity: CloseConnection(), errorCode: 1005

2021-05-14 22:36:40,690 [ 1] ERROR Unity: DoConnect SocketException:[10061,ConnectionRefused,10061]System.Net.Sockets.SocketException: 由于目标计算机积极拒绝，无法连接。

  at System.Net.Sockets.Socket.Connect (System.Net.EndPoint remoteEP, Boolean requireSocketPolicy) [0x00000] in <filename unknown>:0 
  at System.Net.Sockets.Socket+Worker.Connect () [0x00000] in <filename unknown>:0  

2021-05-14 22:36:40,709 [ 1] INFO  Unity: DoConnect
2021-05-14 22:36:40,709 [ 1] INFO  Unity: NetClient.DoConnect on 127.0.0.1:8000
2021-05-14 22:36:40,709 [ 1] INFO  Unity: Connect[1] to server 127.0.0.1:8000

2021-05-14 22:36:42,744 [ 1] WARN  Unity: CloseConnection(), errorCode: 1005

2021-05-14 22:36:42,744 [ 1] ERROR Unity: DoConnect SocketException:[10061,ConnectionRefused,10061]System.Net.Sockets.SocketException: 由于目标计算机积极拒绝，无法连接。

  at System.Net.Sockets.Socket.Connect (System.Net.EndPoint remoteEP, Boolean requireSocketPolicy) [0x00000] in <filename unknown>:0 
  at System.Net.Sockets.Socket+Worker.Connect () [0x00000] in <filename unknown>:0  

2021-05-14 22:36:42,754 [ 1] INFO  Unity: DoConnect
2021-05-14 22:36:42,754 [ 1] INFO  Unity: NetClient.DoConnect on 127.0.0.1:8000
2021-05-14 22:36:42,754 [ 1] INFO  Unity: Connect[2] to server 127.0.0.1:8000

2021-05-14 22:36:44,808 [ 1] INFO  Unity: LoadingMesager::OnGameServerConnect :0 reason:Success
2021-05-14 22:43:35,406 [ 1] INFO  Unity: ProcessReceive exception:System.Net.Sockets.SocketException: 远程主机强迫关闭了一个现有的连接。

  at System.Net.Sockets.Socket.Receive (System.Byte[] buffer, Int32 offset, Int32 size, SocketFlags flags) [0x00000] in <filename unknown>:0 
  at Network.NetClient.ProcessRecv () [0x00000] in <filename unknown>:0 

2021-05-14 22:43:35,406 [ 1] WARN  Unity: CloseConnection(), errorCode: 1001

2021-05-14 22:43:35,414 [ 1] INFO  Unity: DoConnect
2021-05-14 22:43:35,414 [ 1] INFO  Unity: NetClient.DoConnect on 127.0.0.1:8000
2021-05-14 22:43:35,414 [ 1] INFO  Unity: Connect[2] to server 127.0.0.1:8000

2021-05-14 22:43:37,449 [ 1] WARN  Unity: CloseConnection(), errorCode: 1005

2021-05-14 22:43:37,449 [ 1] ERROR Unity: DoConnect SocketException:[10061,ConnectionRefused,10061]System.Net.Sockets.SocketException: 由于目标计算机积极拒绝，无法连接。

  at System.Net.Sockets.Socket.Connect (System.Net.EndPoint remoteEP, Boolean requireSocketPolicy) [0x00000] in <filename unknown>:0 
  at System.Net.Sockets.Socket+Worker.Connect () [0x00000] in <filename unknown>:0  

2021-05-14 22:43:37,449 [ 1] INFO  Unity: LoadingMesager::OnGameServerConnect :1 reason:Cannot connect to server
2021-05-15 01:29:47,074 [ 1] INFO  Unity: Character_12_爱爱 OnDestroy :ID:1 POS:(4822, 4091, 820) DIR:(77, -64, 0) SPD:0 
2021-05-15 01:29:47,074 [ 1] INFO  Unity: Character_1_来啦 OnDestroy :ID:3 POS:(5000, 4000, 820) DIR:(98, 21, 0) SPD:0 
2021-05-15 01:29:47,075 [ 1] INFO  Unity: OnDestroy NetworkManager.
2021-05-15 01:29:47,075 [ 1] WARN  Unity: CloseConnection(), errorCode: 1007

