2021-05-14 21:03:22,947 [ 1] INFO  Unity: LoadingManager start
2021-05-14 21:03:25,547 [ 1] INFO  Unity: DataManager > DataManager()
2021-05-14 21:04:02,990 [ 1] INFO  Unity: UserLoginRequest::user :321 psw:321
2021-05-14 21:04:02,990 [ 1] INFO  Unity: ConnectToServer() Start 
2021-05-14 21:04:02,994 [ 1] INFO  Unity: DoConnect
2021-05-14 21:04:02,995 [ 1] INFO  Unity: NetClient.DoConnect on 127.0.0.1:8000
2021-05-14 21:04:02,997 [ 1] INFO  Unity: Connect[0] to server 127.0.0.1:8000

2021-05-14 21:04:03,002 [ 1] INFO  Unity: LoadingMesager::OnGameServerConnect :0 reason:Success
2021-05-14 21:04:06,407 [ 1] INFO  Unity: OnUserLogin:Success [None]
2021-05-14 21:04:06,431 [ 1] INFO  Unity: LoadLevel: CharSelect
2021-05-14 21:04:06,598 [ 1] INFO  Unity: LevelLoadCompleted:1
2021-05-14 21:04:15,319 [ 1] INFO  Unity: Select Char:[12]爱爱[Wizard]
2021-05-14 21:04:16,318 [ 1] INFO  Unity: UserGameEnterRequest::characterIdx :0
2021-05-14 21:04:16,337 [ 1] INFO  Unity: OnGameEnterSuccess [进入游戏成功]
2021-05-14 21:04:16,337 [ 1] INFO  Unity: OnMapCharacterEnter:Map:1 Count:2
2021-05-14 21:04:16,339 [ 1] INFO  Unity: AddCharacter:12:爱爱 Map:1 Entity:(2:pos:(5000,4000,820),dir:(100,0,0),spd:0
2021-05-14 21:04:16,341 [ 1] INFO  Unity: AddCharacter:3:的来啦 Map:1 Entity:(1:pos:(5000,4000,820),dir:(100,0,0),spd:0
2021-05-14 21:04:16,341 [ 1] INFO  Unity: 布林镇
2021-05-14 21:04:16,341 [ 1] INFO  Unity: LoadLevel: MainCity
2021-05-14 21:04:16,659 [ 1] INFO  Unity: LevelLoadCompleted:1
2021-05-14 21:04:18,850 [ 1] INFO  Unity: MoveBack
2021-05-14 21:04:18,851 [ 1] INFO  Unity: OnMapEntitySyncRequest::ID :2 POS:SkillBridge.Message.NVector3, DIR:SkillBridge.Message.NVector3,SPD:0
2021-05-14 21:04:19,017 [ 1] INFO  Unity: SetDirection:(98, 21, 0)
2021-05-14 21:04:19,018 [ 1] INFO  Unity: OnMapEntitySyncRequest::ID :2 POS:SkillBridge.Message.NVector3, DIR:SkillBridge.Message.NVector3,SPD:-300
2021-05-14 21:04:19,117 [ 1] INFO  Unity: SetDirection:(91, 41, 0)
2021-05-14 21:04:19,117 [ 1] INFO  Unity: OnMapEntitySyncRequest::ID :2 POS:SkillBridge.Message.NVector3, DIR:SkillBridge.Message.NVector3,SPD:-300
2021-05-14 21:04:19,218 [ 1] INFO  Unity: SetDirection:(81, 59, 0)
2021-05-14 21:04:19,218 [ 1] INFO  Unity: OnMapEntitySyncRequest::ID :2 POS:SkillBridge.Message.NVector3, DIR:SkillBridge.Message.NVector3,SPD:-300
2021-05-14 21:04:19,517 [ 1] INFO  Unity: Stop
2021-05-14 21:04:19,517 [ 1] INFO  Unity: OnMapEntitySyncRequest::ID :2 POS:SkillBridge.Message.NVector3, DIR:SkillBridge.Message.NVector3,SPD:-300
2021-05-14 21:04:56,548 [ 1] INFO  Unity: MoveForward
2021-05-14 21:04:56,548 [ 1] INFO  Unity: OnMapEntitySyncRequest::ID :2 POS:SkillBridge.Message.NVector3, DIR:SkillBridge.Message.NVector3,SPD:0
2021-05-14 21:04:56,698 [ 1] INFO  Unity: Stop
2021-05-14 21:04:56,698 [ 1] INFO  Unity: OnMapEntitySyncRequest::ID :2 POS:SkillBridge.Message.NVector3, DIR:SkillBridge.Message.NVector3,SPD:300
2021-05-14 21:04:57,781 [ 1] INFO  Unity: MoveForward
2021-05-14 21:04:57,781 [ 1] INFO  Unity: OnMapEntitySyncRequest::ID :2 POS:SkillBridge.Message.NVector3, DIR:SkillBridge.Message.NVector3,SPD:0
2021-05-14 21:04:58,047 [ 1] INFO  Unity: SetDirection:(67, 74, 0)
2021-05-14 21:04:58,047 [ 1] INFO  Unity: OnMapEntitySyncRequest::ID :2 POS:SkillBridge.Message.NVector3, DIR:SkillBridge.Message.NVector3,SPD:300
2021-05-14 21:04:58,131 [ 1] INFO  Unity: SetDirection:(53, 85, 0)
2021-05-14 21:04:58,131 [ 1] INFO  Unity: OnMapEntitySyncRequest::ID :2 POS:SkillBridge.Message.NVector3, DIR:SkillBridge.Message.NVector3,SPD:300
2021-05-14 21:04:58,231 [ 1] INFO  Unity: SetDirection:(34, 94, 0)
2021-05-14 21:04:58,231 [ 1] INFO  Unity: OnMapEntitySyncRequest::ID :2 POS:SkillBridge.Message.NVector3, DIR:SkillBridge.Message.NVector3,SPD:300
2021-05-14 21:04:58,331 [ 1] INFO  Unity: SetDirection:(14, 99, 0)
2021-05-14 21:04:58,331 [ 1] INFO  Unity: OnMapEntitySyncRequest::ID :2 POS:SkillBridge.Message.NVector3, DIR:SkillBridge.Message.NVector3,SPD:300
2021-05-14 21:04:58,965 [ 1] INFO  Unity: Stop
2021-05-14 21:04:58,965 [ 1] INFO  Unity: OnMapEntitySyncRequest::ID :2 POS:SkillBridge.Message.NVector3, DIR:SkillBridge.Message.NVector3,SPD:300
2021-05-14 21:04:59,014 [ 1] INFO  Unity: SetDirection:(34, 94, 0)
2021-05-14 21:04:59,014 [ 1] INFO  Unity: OnMapEntitySyncRequest::ID :2 POS:SkillBridge.Message.NVector3, DIR:SkillBridge.Message.NVector3,SPD:0
2021-05-14 21:04:59,097 [ 1] INFO  Unity: SetDirection:(50, 87, 0)
2021-05-14 21:04:59,097 [ 1] INFO  Unity: OnMapEntitySyncRequest::ID :2 POS:SkillBridge.Message.NVector3, DIR:SkillBridge.Message.NVector3,SPD:0
2021-05-14 21:04:59,164 [ 1] INFO  Unity: MoveForward
2021-05-14 21:04:59,164 [ 1] INFO  Unity: OnMapEntitySyncRequest::ID :2 POS:SkillBridge.Message.NVector3, DIR:SkillBridge.Message.NVector3,SPD:0
2021-05-14 21:04:59,180 [ 1] INFO  Unity: SetDirection:(64, 77, 0)
2021-05-14 21:04:59,180 [ 1] INFO  Unity: OnMapEntitySyncRequest::ID :2 POS:SkillBridge.Message.NVector3, DIR:SkillBridge.Message.NVector3,SPD:300
2021-05-14 21:04:59,297 [ 1] INFO  Unity: Stop
2021-05-14 21:04:59,297 [ 1] INFO  Unity: OnMapEntitySyncRequest::ID :2 POS:SkillBridge.Message.NVector3, DIR:SkillBridge.Message.NVector3,SPD:300
2021-05-14 21:04:59,864 [ 1] INFO  Unity: MoveForward
2021-05-14 21:04:59,864 [ 1] INFO  Unity: OnMapEntitySyncRequest::ID :2 POS:SkillBridge.Message.NVector3, DIR:SkillBridge.Message.NVector3,SPD:0
2021-05-14 21:04:59,914 [ 1] INFO  Unity: SetDirection:(77, 64, 0)
2021-05-14 21:04:59,914 [ 1] INFO  Unity: OnMapEntitySyncRequest::ID :2 POS:SkillBridge.Message.NVector3, DIR:SkillBridge.Message.NVector3,SPD:300
2021-05-14 21:05:00,015 [ 1] INFO  Unity: SetDirection:(88, 47, 0)
2021-05-14 21:05:00,015 [ 1] INFO  Unity: OnMapEntitySyncRequest::ID :2 POS:SkillBridge.Message.NVector3, DIR:SkillBridge.Message.NVector3,SPD:300
2021-05-14 21:05:00,105 [ 1] INFO  Unity: SetDirection:(95, 31, 0)
2021-05-14 21:05:00,106 [ 1] INFO  Unity: OnMapEntitySyncRequest::ID :2 POS:SkillBridge.Message.NVector3, DIR:SkillBridge.Message.NVector3,SPD:300
2021-05-14 21:05:00,256 [ 1] INFO  Unity: Stop
2021-05-14 21:05:00,256 [ 1] INFO  Unity: OnMapEntitySyncRequest::ID :2 POS:SkillBridge.Message.NVector3, DIR:SkillBridge.Message.NVector3,SPD:300
2021-05-14 21:05:00,556 [ 1] INFO  Unity: SetDirection:(99, 14, 0)
2021-05-14 21:05:00,556 [ 1] INFO  Unity: OnMapEntitySyncRequest::ID :2 POS:SkillBridge.Message.NVector3, DIR:SkillBridge.Message.NVector3,SPD:0
2021-05-14 21:05:00,639 [ 1] INFO  Unity: SetDirection:(100, -3, 0)
2021-05-14 21:05:00,639 [ 1] INFO  Unity: OnMapEntitySyncRequest::ID :2 POS:SkillBridge.Message.NVector3, DIR:SkillBridge.Message.NVector3,SPD:0
2021-05-14 21:05:00,722 [ 1] INFO  Unity: SetDirection:(98, -21, 0)
2021-05-14 21:05:00,722 [ 1] INFO  Unity: OnMapEntitySyncRequest::ID :2 POS:SkillBridge.Message.NVector3, DIR:SkillBridge.Message.NVector3,SPD:0
2021-05-14 21:05:00,822 [ 1] INFO  Unity: SetDirection:(91, -41, 0)
2021-05-14 21:05:00,822 [ 1] INFO  Unity: OnMapEntitySyncRequest::ID :2 POS:SkillBridge.Message.NVector3, DIR:SkillBridge.Message.NVector3,SPD:0
2021-05-14 21:05:00,922 [ 1] INFO  Unity: SetDirection:(81, -59, 0)
2021-05-14 21:05:00,922 [ 1] INFO  Unity: OnMapEntitySyncRequest::ID :2 POS:SkillBridge.Message.NVector3, DIR:SkillBridge.Message.NVector3,SPD:0
2021-05-14 21:05:01,022 [ 1] INFO  Unity: SetDirection:(67, -74, 0)
2021-05-14 21:05:01,022 [ 1] INFO  Unity: OnMapEntitySyncRequest::ID :2 POS:SkillBridge.Message.NVector3, DIR:SkillBridge.Message.NVector3,SPD:0
2021-05-14 21:05:01,105 [ 1] INFO  Unity: SetDirection:(53, -85, 0)
2021-05-14 21:05:01,106 [ 1] INFO  Unity: OnMapEntitySyncRequest::ID :2 POS:SkillBridge.Message.NVector3, DIR:SkillBridge.Message.NVector3,SPD:0
2021-05-14 21:05:01,206 [ 1] INFO  Unity: SetDirection:(34, -94, 0)
2021-05-14 21:05:01,206 [ 1] INFO  Unity: OnMapEntitySyncRequest::ID :2 POS:SkillBridge.Message.NVector3, DIR:SkillBridge.Message.NVector3,SPD:0
2021-05-14 21:05:01,272 [ 1] INFO  Unity: MoveForward
2021-05-14 21:05:01,273 [ 1] INFO  Unity: OnMapEntitySyncRequest::ID :2 POS:SkillBridge.Message.NVector3, DIR:SkillBridge.Message.NVector3,SPD:0
2021-05-14 21:05:01,306 [ 1] INFO  Unity: SetDirection:(14, -99, 0)
2021-05-14 21:05:01,306 [ 1] INFO  Unity: OnMapEntitySyncRequest::ID :2 POS:SkillBridge.Message.NVector3, DIR:SkillBridge.Message.NVector3,SPD:300
2021-05-14 21:05:01,456 [ 1] INFO  Unity: SetDirection:(-3, -100, 0)
2021-05-14 21:05:01,456 [ 1] INFO  Unity: OnMapEntitySyncRequest::ID :2 POS:SkillBridge.Message.NVector3, DIR:SkillBridge.Message.NVector3,SPD:300
2021-05-14 21:05:01,756 [ 1] INFO  Unity: Stop
2021-05-14 21:05:01,756 [ 1] INFO  Unity: OnMapEntitySyncRequest::ID :2 POS:SkillBridge.Message.NVector3, DIR:SkillBridge.Message.NVector3,SPD:300
2021-05-14 21:05:14,446 [ 1] INFO  Unity: MoveBack
2021-05-14 21:05:14,446 [ 1] INFO  Unity: OnMapEntitySyncRequest::ID :2 POS:SkillBridge.Message.NVector3, DIR:SkillBridge.Message.NVector3,SPD:0
2021-05-14 21:05:14,847 [ 1] INFO  Unity: SetDirection:(-21, -98, 0)
2021-05-14 21:05:14,847 [ 1] INFO  Unity: OnMapEntitySyncRequest::ID :2 POS:SkillBridge.Message.NVector3, DIR:SkillBridge.Message.NVector3,SPD:-300
2021-05-14 21:05:14,930 [ 1] INFO  Unity: Stop
2021-05-14 21:05:14,930 [ 1] INFO  Unity: OnMapEntitySyncRequest::ID :2 POS:SkillBridge.Message.NVector3, DIR:SkillBridge.Message.NVector3,SPD:-300
2021-05-14 21:05:14,947 [ 1] INFO  Unity: SetDirection:(-41, -91, 0)
2021-05-14 21:05:14,947 [ 1] INFO  Unity: OnMapEntitySyncRequest::ID :2 POS:SkillBridge.Message.NVector3, DIR:SkillBridge.Message.NVector3,SPD:0
2021-05-14 21:05:15,047 [ 1] INFO  Unity: SetDirection:(-59, -81, 0)
2021-05-14 21:05:15,047 [ 1] INFO  Unity: OnMapEntitySyncRequest::ID :2 POS:SkillBridge.Message.NVector3, DIR:SkillBridge.Message.NVector3,SPD:0
2021-05-14 21:05:15,147 [ 1] INFO  Unity: SetDirection:(-74, -67, 0)
2021-05-14 21:05:15,147 [ 1] INFO  Unity: OnMapEntitySyncRequest::ID :2 POS:SkillBridge.Message.NVector3, DIR:SkillBridge.Message.NVector3,SPD:0
2021-05-14 21:05:15,231 [ 1] INFO  Unity: SetDirection:(-85, -53, 0)
2021-05-14 21:05:15,231 [ 1] INFO  Unity: OnMapEntitySyncRequest::ID :2 POS:SkillBridge.Message.NVector3, DIR:SkillBridge.Message.NVector3,SPD:0
2021-05-14 21:05:15,280 [ 1] INFO  Unity: MoveForward
2021-05-14 21:05:15,280 [ 1] INFO  Unity: OnMapEntitySyncRequest::ID :2 POS:SkillBridge.Message.NVector3, DIR:SkillBridge.Message.NVector3,SPD:0
2021-05-14 21:05:15,580 [ 1] INFO  Unity: Stop
2021-05-14 21:05:15,580 [ 1] INFO  Unity: OnMapEntitySyncRequest::ID :2 POS:SkillBridge.Message.NVector3, DIR:SkillBridge.Message.NVector3,SPD:300
2021-05-14 21:05:15,630 [ 1] INFO  Unity: SetDirection:(-74, -67, 0)
2021-05-14 21:05:15,630 [ 1] INFO  Unity: OnMapEntitySyncRequest::ID :2 POS:SkillBridge.Message.NVector3, DIR:SkillBridge.Message.NVector3,SPD:0
2021-05-14 21:05:15,731 [ 1] INFO  Unity: SetDirection:(-59, -81, 0)
2021-05-14 21:05:15,731 [ 1] INFO  Unity: OnMapEntitySyncRequest::ID :2 POS:SkillBridge.Message.NVector3, DIR:SkillBridge.Message.NVector3,SPD:0
2021-05-14 21:05:17,537 [ 1] INFO  Unity: Character_12_爱爱 OnDestroy :ID:2 POS:(5069, 4303, 820) DIR:(-59, -81, 0) SPD:0 
2021-05-14 21:05:17,538 [ 1] INFO  Unity: Character_3_的来啦 OnDestroy :ID:1 POS:(5000, 4000, 820) DIR:(100, 0, 0) SPD:0 
2021-05-14 21:05:17,538 [ 1] INFO  Unity: OnDestroy NetworkManager.
2021-05-14 21:05:17,539 [ 1] WARN  Unity: CloseConnection(), errorCode: 1007

