2021-05-14 17:52:21,936 [ 1] INFO  Unity: LoadingManager start
2021-05-14 17:52:23,986 [ 1] INFO  Unity: DataManager > DataManager()
2021-05-14 17:52:29,816 [ 1] INFO  Unity: UserLoginRequest::user :321 psw:321
2021-05-14 17:52:29,816 [ 1] INFO  Unity: ConnectToServer() Start 
2021-05-14 17:52:29,820 [ 1] INFO  Unity: DoConnect
2021-05-14 17:52:29,823 [ 1] INFO  Unity: NetClient.DoConnect on 127.0.0.1:8000
2021-05-14 17:52:29,824 [ 1] INFO  Unity: Connect[0] to server 127.0.0.1:8000

2021-05-14 17:52:29,830 [ 1] INFO  Unity: LoadingMesager::OnGameServerConnect :0 reason:Success
2021-05-14 17:52:33,117 [ 1] INFO  Unity: UserLoginRequest::user :321 psw:321
2021-05-14 17:52:33,163 [ 1] INFO  Unity: OnUserLogin:Success [None]
2021-05-14 17:52:33,188 [ 1] INFO  Unity: LoadLevel: CharSelect
2021-05-14 17:52:33,320 [ 1] INFO  Unity: LevelLoadCompleted:1
2021-05-14 17:52:34,142 [ 1] INFO  Unity: Select Char:[12]爱爱[Wizard]
2021-05-14 17:52:34,676 [ 1] INFO  Unity: UserGameEnterRequest::characterIdx :0
2021-05-14 17:52:34,704 [ 1] INFO  Unity: OnGameEnterSuccess [进入游戏成功]
2021-05-14 17:52:34,704 [ 1] INFO  Unity: OnMapCharacterEnter:Map:1 Count:1
2021-05-14 17:52:34,706 [ 1] INFO  Unity: AddCharacter:12:爱爱 Map:1 Entity:(1:pos:(5000,4000,820),dir:(100,0,0),spd:0
2021-05-14 17:52:34,707 [ 1] INFO  Unity: 布林镇
2021-05-14 17:52:34,707 [ 1] INFO  Unity: LoadLevel: MainCity
2021-05-14 17:52:35,013 [ 1] INFO  Unity: LevelLoadCompleted:1
2021-05-14 17:52:35,968 [ 1] INFO  Unity: OnMapCharacterEnter:Map:1 Count:1
2021-05-14 17:52:35,968 [ 1] INFO  Unity: AddCharacter:3:的来啦 Map:1 Entity:(2:pos:(5000,4000,820),dir:(100,0,0),spd:0
2021-05-14 17:52:39,117 [ 1] INFO  Unity: MoveForward
2021-05-14 17:52:39,118 [ 1] INFO  Unity: OnMapEntitySyncRequest::ID :1 POS:SkillBridge.Message.NVector3, DIR:SkillBridge.Message.NVector3,SPD:0
2021-05-14 17:52:39,267 [ 1] INFO  Unity: Stop
2021-05-14 17:52:39,267 [ 1] INFO  Unity: OnMapEntitySyncRequest::ID :1 POS:SkillBridge.Message.NVector3, DIR:SkillBridge.Message.NVector3,SPD:300
2021-05-14 17:52:39,301 [ 1] INFO  Unity: SetDirection:(98, 21, 0)
2021-05-14 17:52:39,301 [ 1] INFO  Unity: OnMapEntitySyncRequest::ID :1 POS:SkillBridge.Message.NVector3, DIR:SkillBridge.Message.NVector3,SPD:0
2021-05-14 17:52:39,400 [ 1] INFO  Unity: SetDirection:(91, 41, 0)
2021-05-14 17:52:39,401 [ 1] INFO  Unity: OnMapEntitySyncRequest::ID :1 POS:SkillBridge.Message.NVector3, DIR:SkillBridge.Message.NVector3,SPD:0
2021-05-14 17:52:39,500 [ 1] INFO  Unity: SetDirection:(81, 59, 0)
2021-05-14 17:52:39,500 [ 1] INFO  Unity: OnMapEntitySyncRequest::ID :1 POS:SkillBridge.Message.NVector3, DIR:SkillBridge.Message.NVector3,SPD:0
2021-05-14 17:52:39,600 [ 1] INFO  Unity: SetDirection:(67, 74, 0)
2021-05-14 17:52:39,600 [ 1] INFO  Unity: OnMapEntitySyncRequest::ID :1 POS:SkillBridge.Message.NVector3, DIR:SkillBridge.Message.NVector3,SPD:0
2021-05-14 17:52:39,684 [ 1] INFO  Unity: SetDirection:(53, 85, 0)
2021-05-14 17:52:39,684 [ 1] INFO  Unity: OnMapEntitySyncRequest::ID :1 POS:SkillBridge.Message.NVector3, DIR:SkillBridge.Message.NVector3,SPD:0
2021-05-14 17:52:39,750 [ 1] INFO  Unity: MoveForward
2021-05-14 17:52:39,751 [ 1] INFO  Unity: OnMapEntitySyncRequest::ID :1 POS:SkillBridge.Message.NVector3, DIR:SkillBridge.Message.NVector3,SPD:0
2021-05-14 17:52:40,167 [ 1] INFO  Unity: Stop
2021-05-14 17:52:40,168 [ 1] INFO  Unity: OnMapEntitySyncRequest::ID :1 POS:SkillBridge.Message.NVector3, DIR:SkillBridge.Message.NVector3,SPD:300
2021-05-14 17:52:40,251 [ 1] INFO  Unity: SetDirection:(67, 74, 0)
2021-05-14 17:52:40,251 [ 1] INFO  Unity: OnMapEntitySyncRequest::ID :1 POS:SkillBridge.Message.NVector3, DIR:SkillBridge.Message.NVector3,SPD:0
2021-05-14 17:52:40,350 [ 1] INFO  Unity: SetDirection:(81, 59, 0)
2021-05-14 17:52:40,351 [ 1] INFO  Unity: OnMapEntitySyncRequest::ID :1 POS:SkillBridge.Message.NVector3, DIR:SkillBridge.Message.NVector3,SPD:0
2021-05-14 17:52:40,434 [ 1] INFO  Unity: SetDirection:(90, 44, 0)
2021-05-14 17:52:40,434 [ 1] INFO  Unity: OnMapEntitySyncRequest::ID :1 POS:SkillBridge.Message.NVector3, DIR:SkillBridge.Message.NVector3,SPD:0
2021-05-14 17:52:40,517 [ 1] INFO  Unity: SetDirection:(96, 28, 0)
2021-05-14 17:52:40,517 [ 1] INFO  Unity: OnMapEntitySyncRequest::ID :1 POS:SkillBridge.Message.NVector3, DIR:SkillBridge.Message.NVector3,SPD:0
2021-05-14 17:52:40,568 [ 1] INFO  Unity: MoveBack
2021-05-14 17:52:40,568 [ 1] INFO  Unity: OnMapEntitySyncRequest::ID :1 POS:SkillBridge.Message.NVector3, DIR:SkillBridge.Message.NVector3,SPD:0
2021-05-14 17:52:40,599 [ 1] INFO  Unity: SetDirection:(99, 10, 0)
2021-05-14 17:52:40,600 [ 1] INFO  Unity: OnMapEntitySyncRequest::ID :1 POS:SkillBridge.Message.NVector3, DIR:SkillBridge.Message.NVector3,SPD:-300
2021-05-14 17:52:41,234 [ 1] INFO  Unity: Stop
2021-05-14 17:52:41,234 [ 1] INFO  Unity: OnMapEntitySyncRequest::ID :1 POS:SkillBridge.Message.NVector3, DIR:SkillBridge.Message.NVector3,SPD:-300
2021-05-14 17:52:41,286 [ 1] INFO  Unity: SetDirection:(96, 28, 0)
2021-05-14 17:52:41,286 [ 1] INFO  Unity: OnMapEntitySyncRequest::ID :1 POS:SkillBridge.Message.NVector3, DIR:SkillBridge.Message.NVector3,SPD:0
2021-05-14 17:52:43,352 [ 1] INFO  Unity: OnEntityChanged::ID :2 POS:SkillBridge.Message.NVector3, DIR:SkillBridge.Message.NVector3,SPD:0
2021-05-14 17:52:43,355 [ 1] ERROR Unity: Message handler exception:, Index (zero based) must be greater than or equal to zero and less than the size of the argument list., mscorlib,   at System.String.FormatHelper (System.Text.StringBuilder result, IFormatProvider provider, System.String format, System.Object[] args) [0x00000] in <filename unknown>:0 
  at System.Text.StringBuilder.AppendFormat (IFormatProvider provider, System.String format, System.Object[] args) [0x00000] in <filename unknown>:0 
  at System.Text.StringBuilder.AppendFormat (System.String format, System.Object arg0, System.Object arg1) [0x00000] in <filename unknown>:0 
  at Services.MapService.OnMapEntitySyncResponse (System.Object sender, SkillBridge.Message.MapEntitySyncResponse response) [0x00000] in <filename unknown>:0 
  at Network.MessageDistributer`1[System.Object].RaiseEvent[MapEntitySyncResponse] (System.Object sender, SkillBridge.Message.MapEntitySyncResponse msg) [0x00000] in <filename unknown>:0 
2021-05-14 17:52:43,358 [ 1] FATAL Unity: <log4net.Error>Exception during StringFormat: Input string was not in a correct format. <format>{0
{1}</format><args>{FormatException: Index (zero based) must be greater than or equal to zero and less than the size of the argument list., System.String.FormatHelper (System.Text.StringBuilder result, IFormatProvider provider, System.String format, System.Object[] args)
System.Text.StringBuilder.AppendFormat (IFormatProvider provider, System.String format, System.Object[] args)
System.Text.StringBuilder.AppendFormat (System.String format, System.Object arg0, System.Object arg1)
Services.MapService.OnMapEntitySyncResponse (System.Object sender, SkillBridge.Message.MapEntitySyncResponse response)
Network.MessageDistributer`1[System.Object].RaiseEvent[MapEntitySyncResponse] (System.Object sender, SkillBridge.Message.MapEntitySyncResponse msg)
}</args></log4net.Error>
2021-05-14 17:52:43,393 [ 1] INFO  Unity: OnEntityChanged::ID :2 POS:SkillBridge.Message.NVector3, DIR:SkillBridge.Message.NVector3,SPD:300
2021-05-14 17:52:43,393 [ 1] ERROR Unity: Message handler exception:, Index (zero based) must be greater than or equal to zero and less than the size of the argument list., mscorlib,   at System.String.FormatHelper (System.Text.StringBuilder result, IFormatProvider provider, System.String format, System.Object[] args) [0x00000] in <filename unknown>:0 
  at System.Text.StringBuilder.AppendFormat (IFormatProvider provider, System.String format, System.Object[] args) [0x00000] in <filename unknown>:0 
  at System.Text.StringBuilder.AppendFormat (System.String format, System.Object arg0, System.Object arg1) [0x00000] in <filename unknown>:0 
  at Services.MapService.OnMapEntitySyncResponse (System.Object sender, SkillBridge.Message.MapEntitySyncResponse response) [0x00000] in <filename unknown>:0 
  at Network.MessageDistributer`1[System.Object].RaiseEvent[MapEntitySyncResponse] (System.Object sender, SkillBridge.Message.MapEntitySyncResponse msg) [0x00000] in <filename unknown>:0 
2021-05-14 17:52:43,393 [ 1] FATAL Unity: <log4net.Error>Exception during StringFormat: Input string was not in a correct format. <format>{0
{1}</format><args>{FormatException: Index (zero based) must be greater than or equal to zero and less than the size of the argument list., System.String.FormatHelper (System.Text.StringBuilder result, IFormatProvider provider, System.String format, System.Object[] args)
System.Text.StringBuilder.AppendFormat (IFormatProvider provider, System.String format, System.Object[] args)
System.Text.StringBuilder.AppendFormat (System.String format, System.Object arg0, System.Object arg1)
Services.MapService.OnMapEntitySyncResponse (System.Object sender, SkillBridge.Message.MapEntitySyncResponse response)
Network.MessageDistributer`1[System.Object].RaiseEvent[MapEntitySyncResponse] (System.Object sender, SkillBridge.Message.MapEntitySyncResponse msg)
}</args></log4net.Error>
2021-05-14 17:52:43,442 [ 1] INFO  Unity: OnEntityChanged::ID :2 POS:SkillBridge.Message.NVector3, DIR:SkillBridge.Message.NVector3,SPD:300
2021-05-14 17:52:43,443 [ 1] ERROR Unity: Message handler exception:, Index (zero based) must be greater than or equal to zero and less than the size of the argument list., mscorlib,   at System.String.FormatHelper (System.Text.StringBuilder result, IFormatProvider provider, System.String format, System.Object[] args) [0x00000] in <filename unknown>:0 
  at System.Text.StringBuilder.AppendFormat (IFormatProvider provider, System.String format, System.Object[] args) [0x00000] in <filename unknown>:0 
  at System.Text.StringBuilder.AppendFormat (System.String format, System.Object arg0, System.Object arg1) [0x00000] in <filename unknown>:0 
  at Services.MapService.OnMapEntitySyncResponse (System.Object sender, SkillBridge.Message.MapEntitySyncResponse response) [0x00000] in <filename unknown>:0 
  at Network.MessageDistributer`1[System.Object].RaiseEvent[MapEntitySyncResponse] (System.Object sender, SkillBridge.Message.MapEntitySyncResponse msg) [0x00000] in <filename unknown>:0 
2021-05-14 17:52:43,443 [ 1] FATAL Unity: <log4net.Error>Exception during StringFormat: Input string was not in a correct format. <format>{0
{1}</format><args>{FormatException: Index (zero based) must be greater than or equal to zero and less than the size of the argument list., System.String.FormatHelper (System.Text.StringBuilder result, IFormatProvider provider, System.String format, System.Object[] args)
System.Text.StringBuilder.AppendFormat (IFormatProvider provider, System.String format, System.Object[] args)
System.Text.StringBuilder.AppendFormat (System.String format, System.Object arg0, System.Object arg1)
Services.MapService.OnMapEntitySyncResponse (System.Object sender, SkillBridge.Message.MapEntitySyncResponse response)
Network.MessageDistributer`1[System.Object].RaiseEvent[MapEntitySyncResponse] (System.Object sender, SkillBridge.Message.MapEntitySyncResponse msg)
}</args></log4net.Error>
2021-05-14 17:52:43,542 [ 1] INFO  Unity: OnEntityChanged::ID :2 POS:SkillBridge.Message.NVector3, DIR:SkillBridge.Message.NVector3,SPD:300
2021-05-14 17:52:43,543 [ 1] ERROR Unity: Message handler exception:, Index (zero based) must be greater than or equal to zero and less than the size of the argument list., mscorlib,   at System.String.FormatHelper (System.Text.StringBuilder result, IFormatProvider provider, System.String format, System.Object[] args) [0x00000] in <filename unknown>:0 
  at System.Text.StringBuilder.AppendFormat (IFormatProvider provider, System.String format, System.Object[] args) [0x00000] in <filename unknown>:0 
  at System.Text.StringBuilder.AppendFormat (System.String format, System.Object arg0, System.Object arg1) [0x00000] in <filename unknown>:0 
  at Services.MapService.OnMapEntitySyncResponse (System.Object sender, SkillBridge.Message.MapEntitySyncResponse response) [0x00000] in <filename unknown>:0 
  at Network.MessageDistributer`1[System.Object].RaiseEvent[MapEntitySyncResponse] (System.Object sender, SkillBridge.Message.MapEntitySyncResponse msg) [0x00000] in <filename unknown>:0 
2021-05-14 17:52:43,543 [ 1] FATAL Unity: <log4net.Error>Exception during StringFormat: Input string was not in a correct format. <format>{0
{1}</format><args>{FormatException: Index (zero based) must be greater than or equal to zero and less than the size of the argument list., System.String.FormatHelper (System.Text.StringBuilder result, IFormatProvider provider, System.String format, System.Object[] args)
System.Text.StringBuilder.AppendFormat (IFormatProvider provider, System.String format, System.Object[] args)
System.Text.StringBuilder.AppendFormat (System.String format, System.Object arg0, System.Object arg1)
Services.MapService.OnMapEntitySyncResponse (System.Object sender, SkillBridge.Message.MapEntitySyncResponse response)
Network.MessageDistributer`1[System.Object].RaiseEvent[MapEntitySyncResponse] (System.Object sender, SkillBridge.Message.MapEntitySyncResponse msg)
}</args></log4net.Error>
2021-05-14 17:52:43,650 [ 1] INFO  Unity: OnEntityChanged::ID :2 POS:SkillBridge.Message.NVector3, DIR:SkillBridge.Message.NVector3,SPD:300
2021-05-14 17:52:43,651 [ 1] ERROR Unity: Message handler exception:, Index (zero based) must be greater than or equal to zero and less than the size of the argument list., mscorlib,   at System.String.FormatHelper (System.Text.StringBuilder result, IFormatProvider provider, System.String format, System.Object[] args) [0x00000] in <filename unknown>:0 
  at System.Text.StringBuilder.AppendFormat (IFormatProvider provider, System.String format, System.Object[] args) [0x00000] in <filename unknown>:0 
  at System.Text.StringBuilder.AppendFormat (System.String format, System.Object arg0, System.Object arg1) [0x00000] in <filename unknown>:0 
  at Services.MapService.OnMapEntitySyncResponse (System.Object sender, SkillBridge.Message.MapEntitySyncResponse response) [0x00000] in <filename unknown>:0 
  at Network.MessageDistributer`1[System.Object].RaiseEvent[MapEntitySyncResponse] (System.Object sender, SkillBridge.Message.MapEntitySyncResponse msg) [0x00000] in <filename unknown>:0 
2021-05-14 17:52:43,651 [ 1] FATAL Unity: <log4net.Error>Exception during StringFormat: Input string was not in a correct format. <format>{0
{1}</format><args>{FormatException: Index (zero based) must be greater than or equal to zero and less than the size of the argument list., System.String.FormatHelper (System.Text.StringBuilder result, IFormatProvider provider, System.String format, System.Object[] args)
System.Text.StringBuilder.AppendFormat (IFormatProvider provider, System.String format, System.Object[] args)
System.Text.StringBuilder.AppendFormat (System.String format, System.Object arg0, System.Object arg1)
Services.MapService.OnMapEntitySyncResponse (System.Object sender, SkillBridge.Message.MapEntitySyncResponse response)
Network.MessageDistributer`1[System.Object].RaiseEvent[MapEntitySyncResponse] (System.Object sender, SkillBridge.Message.MapEntitySyncResponse msg)
}</args></log4net.Error>
2021-05-14 17:52:43,733 [ 1] INFO  Unity: OnEntityChanged::ID :2 POS:SkillBridge.Message.NVector3, DIR:SkillBridge.Message.NVector3,SPD:300
2021-05-14 17:52:43,733 [ 1] ERROR Unity: Message handler exception:, Index (zero based) must be greater than or equal to zero and less than the size of the argument list., mscorlib,   at System.String.FormatHelper (System.Text.StringBuilder result, IFormatProvider provider, System.String format, System.Object[] args) [0x00000] in <filename unknown>:0 
  at System.Text.StringBuilder.AppendFormat (IFormatProvider provider, System.String format, System.Object[] args) [0x00000] in <filename unknown>:0 
  at System.Text.StringBuilder.AppendFormat (System.String format, System.Object arg0, System.Object arg1) [0x00000] in <filename unknown>:0 
  at Services.MapService.OnMapEntitySyncResponse (System.Object sender, SkillBridge.Message.MapEntitySyncResponse response) [0x00000] in <filename unknown>:0 
  at Network.MessageDistributer`1[System.Object].RaiseEvent[MapEntitySyncResponse] (System.Object sender, SkillBridge.Message.MapEntitySyncResponse msg) [0x00000] in <filename unknown>:0 
2021-05-14 17:52:43,734 [ 1] FATAL Unity: <log4net.Error>Exception during StringFormat: Input string was not in a correct format. <format>{0
{1}</format><args>{FormatException: Index (zero based) must be greater than or equal to zero and less than the size of the argument list., System.String.FormatHelper (System.Text.StringBuilder result, IFormatProvider provider, System.String format, System.Object[] args)
System.Text.StringBuilder.AppendFormat (IFormatProvider provider, System.String format, System.Object[] args)
System.Text.StringBuilder.AppendFormat (System.String format, System.Object arg0, System.Object arg1)
Services.MapService.OnMapEntitySyncResponse (System.Object sender, SkillBridge.Message.MapEntitySyncResponse response)
Network.MessageDistributer`1[System.Object].RaiseEvent[MapEntitySyncResponse] (System.Object sender, SkillBridge.Message.MapEntitySyncResponse msg)
}</args></log4net.Error>
2021-05-14 17:52:43,783 [ 1] INFO  Unity: OnEntityChanged::ID :2 POS:SkillBridge.Message.NVector3, DIR:SkillBridge.Message.NVector3,SPD:0
2021-05-14 17:52:43,783 [ 1] ERROR Unity: Message handler exception:, Index (zero based) must be greater than or equal to zero and less than the size of the argument list., mscorlib,   at System.String.FormatHelper (System.Text.StringBuilder result, IFormatProvider provider, System.String format, System.Object[] args) [0x00000] in <filename unknown>:0 
  at System.Text.StringBuilder.AppendFormat (IFormatProvider provider, System.String format, System.Object[] args) [0x00000] in <filename unknown>:0 
  at System.Text.StringBuilder.AppendFormat (System.String format, System.Object arg0, System.Object arg1) [0x00000] in <filename unknown>:0 
  at Services.MapService.OnMapEntitySyncResponse (System.Object sender, SkillBridge.Message.MapEntitySyncResponse response) [0x00000] in <filename unknown>:0 
  at Network.MessageDistributer`1[System.Object].RaiseEvent[MapEntitySyncResponse] (System.Object sender, SkillBridge.Message.MapEntitySyncResponse msg) [0x00000] in <filename unknown>:0 
2021-05-14 17:52:43,784 [ 1] FATAL Unity: <log4net.Error>Exception during StringFormat: Input string was not in a correct format. <format>{0
{1}</format><args>{FormatException: Index (zero based) must be greater than or equal to zero and less than the size of the argument list., System.String.FormatHelper (System.Text.StringBuilder result, IFormatProvider provider, System.String format, System.Object[] args)
System.Text.StringBuilder.AppendFormat (IFormatProvider provider, System.String format, System.Object[] args)
System.Text.StringBuilder.AppendFormat (System.String format, System.Object arg0, System.Object arg1)
Services.MapService.OnMapEntitySyncResponse (System.Object sender, SkillBridge.Message.MapEntitySyncResponse response)
Network.MessageDistributer`1[System.Object].RaiseEvent[MapEntitySyncResponse] (System.Object sender, SkillBridge.Message.MapEntitySyncResponse msg)
}</args></log4net.Error>
2021-05-14 17:52:43,825 [ 1] INFO  Unity: OnEntityChanged::ID :2 POS:SkillBridge.Message.NVector3, DIR:SkillBridge.Message.NVector3,SPD:0
2021-05-14 17:52:43,825 [ 1] ERROR Unity: Message handler exception:, Index (zero based) must be greater than or equal to zero and less than the size of the argument list., mscorlib,   at System.String.FormatHelper (System.Text.StringBuilder result, IFormatProvider provider, System.String format, System.Object[] args) [0x00000] in <filename unknown>:0 
  at System.Text.StringBuilder.AppendFormat (IFormatProvider provider, System.String format, System.Object[] args) [0x00000] in <filename unknown>:0 
  at System.Text.StringBuilder.AppendFormat (System.String format, System.Object arg0, System.Object arg1) [0x00000] in <filename unknown>:0 
  at Services.MapService.OnMapEntitySyncResponse (System.Object sender, SkillBridge.Message.MapEntitySyncResponse response) [0x00000] in <filename unknown>:0 
  at Network.MessageDistributer`1[System.Object].RaiseEvent[MapEntitySyncResponse] (System.Object sender, SkillBridge.Message.MapEntitySyncResponse msg) [0x00000] in <filename unknown>:0 
2021-05-14 17:52:43,826 [ 1] FATAL Unity: <log4net.Error>Exception during StringFormat: Input string was not in a correct format. <format>{0
{1}</format><args>{FormatException: Index (zero based) must be greater than or equal to zero and less than the size of the argument list., System.String.FormatHelper (System.Text.StringBuilder result, IFormatProvider provider, System.String format, System.Object[] args)
System.Text.StringBuilder.AppendFormat (IFormatProvider provider, System.String format, System.Object[] args)
System.Text.StringBuilder.AppendFormat (System.String format, System.Object arg0, System.Object arg1)
Services.MapService.OnMapEntitySyncResponse (System.Object sender, SkillBridge.Message.MapEntitySyncResponse response)
Network.MessageDistributer`1[System.Object].RaiseEvent[MapEntitySyncResponse] (System.Object sender, SkillBridge.Message.MapEntitySyncResponse msg)
}</args></log4net.Error>
2021-05-14 17:52:43,925 [ 1] INFO  Unity: OnEntityChanged::ID :2 POS:SkillBridge.Message.NVector3, DIR:SkillBridge.Message.NVector3,SPD:0
2021-05-14 17:52:43,925 [ 1] ERROR Unity: Message handler exception:, Index (zero based) must be greater than or equal to zero and less than the size of the argument list., mscorlib,   at System.String.FormatHelper (System.Text.StringBuilder result, IFormatProvider provider, System.String format, System.Object[] args) [0x00000] in <filename unknown>:0 
  at System.Text.StringBuilder.AppendFormat (IFormatProvider provider, System.String format, System.Object[] args) [0x00000] in <filename unknown>:0 
  at System.Text.StringBuilder.AppendFormat (System.String format, System.Object arg0, System.Object arg1) [0x00000] in <filename unknown>:0 
  at Services.MapService.OnMapEntitySyncResponse (System.Object sender, SkillBridge.Message.MapEntitySyncResponse response) [0x00000] in <filename unknown>:0 
  at Network.MessageDistributer`1[System.Object].RaiseEvent[MapEntitySyncResponse] (System.Object sender, SkillBridge.Message.MapEntitySyncResponse msg) [0x00000] in <filename unknown>:0 
2021-05-14 17:52:43,926 [ 1] FATAL Unity: <log4net.Error>Exception during StringFormat: Input string was not in a correct format. <format>{0
{1}</format><args>{FormatException: Index (zero based) must be greater than or equal to zero and less than the size of the argument list., System.String.FormatHelper (System.Text.StringBuilder result, IFormatProvider provider, System.String format, System.Object[] args)
System.Text.StringBuilder.AppendFormat (IFormatProvider provider, System.String format, System.Object[] args)
System.Text.StringBuilder.AppendFormat (System.String format, System.Object arg0, System.Object arg1)
Services.MapService.OnMapEntitySyncResponse (System.Object sender, SkillBridge.Message.MapEntitySyncResponse response)
Network.MessageDistributer`1[System.Object].RaiseEvent[MapEntitySyncResponse] (System.Object sender, SkillBridge.Message.MapEntitySyncResponse msg)
}</args></log4net.Error>
2021-05-14 17:52:44,008 [ 1] INFO  Unity: OnEntityChanged::ID :2 POS:SkillBridge.Message.NVector3, DIR:SkillBridge.Message.NVector3,SPD:0
2021-05-14 17:52:44,009 [ 1] ERROR Unity: Message handler exception:, Index (zero based) must be greater than or equal to zero and less than the size of the argument list., mscorlib,   at System.String.FormatHelper (System.Text.StringBuilder result, IFormatProvider provider, System.String format, System.Object[] args) [0x00000] in <filename unknown>:0 
  at System.Text.StringBuilder.AppendFormat (IFormatProvider provider, System.String format, System.Object[] args) [0x00000] in <filename unknown>:0 
  at System.Text.StringBuilder.AppendFormat (System.String format, System.Object arg0, System.Object arg1) [0x00000] in <filename unknown>:0 
  at Services.MapService.OnMapEntitySyncResponse (System.Object sender, SkillBridge.Message.MapEntitySyncResponse response) [0x00000] in <filename unknown>:0 
  at Network.MessageDistributer`1[System.Object].RaiseEvent[MapEntitySyncResponse] (System.Object sender, SkillBridge.Message.MapEntitySyncResponse msg) [0x00000] in <filename unknown>:0 
2021-05-14 17:52:44,009 [ 1] FATAL Unity: <log4net.Error>Exception during StringFormat: Input string was not in a correct format. <format>{0
{1}</format><args>{FormatException: Index (zero based) must be greater than or equal to zero and less than the size of the argument list., System.String.FormatHelper (System.Text.StringBuilder result, IFormatProvider provider, System.String format, System.Object[] args)
System.Text.StringBuilder.AppendFormat (IFormatProvider provider, System.String format, System.Object[] args)
System.Text.StringBuilder.AppendFormat (System.String format, System.Object arg0, System.Object arg1)
Services.MapService.OnMapEntitySyncResponse (System.Object sender, SkillBridge.Message.MapEntitySyncResponse response)
Network.MessageDistributer`1[System.Object].RaiseEvent[MapEntitySyncResponse] (System.Object sender, SkillBridge.Message.MapEntitySyncResponse msg)
}</args></log4net.Error>
2021-05-14 17:52:44,083 [ 1] INFO  Unity: OnEntityChanged::ID :2 POS:SkillBridge.Message.NVector3, DIR:SkillBridge.Message.NVector3,SPD:-300
2021-05-14 17:52:44,083 [ 1] ERROR Unity: Message handler exception:, Index (zero based) must be greater than or equal to zero and less than the size of the argument list., mscorlib,   at System.String.FormatHelper (System.Text.StringBuilder result, IFormatProvider provider, System.String format, System.Object[] args) [0x00000] in <filename unknown>:0 
  at System.Text.StringBuilder.AppendFormat (IFormatProvider provider, System.String format, System.Object[] args) [0x00000] in <filename unknown>:0 
  at System.Text.StringBuilder.AppendFormat (System.String format, System.Object arg0, System.Object arg1) [0x00000] in <filename unknown>:0 
  at Services.MapService.OnMapEntitySyncResponse (System.Object sender, SkillBridge.Message.MapEntitySyncResponse response) [0x00000] in <filename unknown>:0 
  at Network.MessageDistributer`1[System.Object].RaiseEvent[MapEntitySyncResponse] (System.Object sender, SkillBridge.Message.MapEntitySyncResponse msg) [0x00000] in <filename unknown>:0 
2021-05-14 17:52:44,083 [ 1] FATAL Unity: <log4net.Error>Exception during StringFormat: Input string was not in a correct format. <format>{0
{1}</format><args>{FormatException: Index (zero based) must be greater than or equal to zero and less than the size of the argument list., System.String.FormatHelper (System.Text.StringBuilder result, IFormatProvider provider, System.String format, System.Object[] args)
System.Text.StringBuilder.AppendFormat (IFormatProvider provider, System.String format, System.Object[] args)
System.Text.StringBuilder.AppendFormat (System.String format, System.Object arg0, System.Object arg1)
Services.MapService.OnMapEntitySyncResponse (System.Object sender, SkillBridge.Message.MapEntitySyncResponse response)
Network.MessageDistributer`1[System.Object].RaiseEvent[MapEntitySyncResponse] (System.Object sender, SkillBridge.Message.MapEntitySyncResponse msg)
}</args></log4net.Error>
2021-05-14 17:52:44,125 [ 1] INFO  Unity: OnEntityChanged::ID :2 POS:SkillBridge.Message.NVector3, DIR:SkillBridge.Message.NVector3,SPD:-300
2021-05-14 17:52:44,125 [ 1] ERROR Unity: Message handler exception:, Index (zero based) must be greater than or equal to zero and less than the size of the argument list., mscorlib,   at System.String.FormatHelper (System.Text.StringBuilder result, IFormatProvider provider, System.String format, System.Object[] args) [0x00000] in <filename unknown>:0 
  at System.Text.StringBuilder.AppendFormat (IFormatProvider provider, System.String format, System.Object[] args) [0x00000] in <filename unknown>:0 
  at System.Text.StringBuilder.AppendFormat (System.String format, System.Object arg0, System.Object arg1) [0x00000] in <filename unknown>:0 
  at Services.MapService.OnMapEntitySyncResponse (System.Object sender, SkillBridge.Message.MapEntitySyncResponse response) [0x00000] in <filename unknown>:0 
  at Network.MessageDistributer`1[System.Object].RaiseEvent[MapEntitySyncResponse] (System.Object sender, SkillBridge.Message.MapEntitySyncResponse msg) [0x00000] in <filename unknown>:0 
2021-05-14 17:52:44,126 [ 1] FATAL Unity: <log4net.Error>Exception during StringFormat: Input string was not in a correct format. <format>{0
{1}</format><args>{FormatException: Index (zero based) must be greater than or equal to zero and less than the size of the argument list., System.String.FormatHelper (System.Text.StringBuilder result, IFormatProvider provider, System.String format, System.Object[] args)
System.Text.StringBuilder.AppendFormat (IFormatProvider provider, System.String format, System.Object[] args)
System.Text.StringBuilder.AppendFormat (System.String format, System.Object arg0, System.Object arg1)
Services.MapService.OnMapEntitySyncResponse (System.Object sender, SkillBridge.Message.MapEntitySyncResponse response)
Network.MessageDistributer`1[System.Object].RaiseEvent[MapEntitySyncResponse] (System.Object sender, SkillBridge.Message.MapEntitySyncResponse msg)
}</args></log4net.Error>
2021-05-14 17:52:44,500 [ 1] INFO  Unity: OnEntityChanged::ID :2 POS:SkillBridge.Message.NVector3, DIR:SkillBridge.Message.NVector3,SPD:-300
2021-05-14 17:52:44,500 [ 1] ERROR Unity: Message handler exception:, Index (zero based) must be greater than or equal to zero and less than the size of the argument list., mscorlib,   at System.String.FormatHelper (System.Text.StringBuilder result, IFormatProvider provider, System.String format, System.Object[] args) [0x00000] in <filename unknown>:0 
  at System.Text.StringBuilder.AppendFormat (IFormatProvider provider, System.String format, System.Object[] args) [0x00000] in <filename unknown>:0 
  at System.Text.StringBuilder.AppendFormat (System.String format, System.Object arg0, System.Object arg1) [0x00000] in <filename unknown>:0 
  at Services.MapService.OnMapEntitySyncResponse (System.Object sender, SkillBridge.Message.MapEntitySyncResponse response) [0x00000] in <filename unknown>:0 
  at Network.MessageDistributer`1[System.Object].RaiseEvent[MapEntitySyncResponse] (System.Object sender, SkillBridge.Message.MapEntitySyncResponse msg) [0x00000] in <filename unknown>:0 
2021-05-14 17:52:44,500 [ 1] FATAL Unity: <log4net.Error>Exception during StringFormat: Input string was not in a correct format. <format>{0
{1}</format><args>{FormatException: Index (zero based) must be greater than or equal to zero and less than the size of the argument list., System.String.FormatHelper (System.Text.StringBuilder result, IFormatProvider provider, System.String format, System.Object[] args)
System.Text.StringBuilder.AppendFormat (IFormatProvider provider, System.String format, System.Object[] args)
System.Text.StringBuilder.AppendFormat (System.String format, System.Object arg0, System.Object arg1)
Services.MapService.OnMapEntitySyncResponse (System.Object sender, SkillBridge.Message.MapEntitySyncResponse response)
Network.MessageDistributer`1[System.Object].RaiseEvent[MapEntitySyncResponse] (System.Object sender, SkillBridge.Message.MapEntitySyncResponse msg)
}</args></log4net.Error>
2021-05-14 17:52:44,592 [ 1] INFO  Unity: OnEntityChanged::ID :2 POS:SkillBridge.Message.NVector3, DIR:SkillBridge.Message.NVector3,SPD:-300
2021-05-14 17:52:44,592 [ 1] ERROR Unity: Message handler exception:, Index (zero based) must be greater than or equal to zero and less than the size of the argument list., mscorlib,   at System.String.FormatHelper (System.Text.StringBuilder result, IFormatProvider provider, System.String format, System.Object[] args) [0x00000] in <filename unknown>:0 
  at System.Text.StringBuilder.AppendFormat (IFormatProvider provider, System.String format, System.Object[] args) [0x00000] in <filename unknown>:0 
  at System.Text.StringBuilder.AppendFormat (System.String format, System.Object arg0, System.Object arg1) [0x00000] in <filename unknown>:0 
  at Services.MapService.OnMapEntitySyncResponse (System.Object sender, SkillBridge.Message.MapEntitySyncResponse response) [0x00000] in <filename unknown>:0 
  at Network.MessageDistributer`1[System.Object].RaiseEvent[MapEntitySyncResponse] (System.Object sender, SkillBridge.Message.MapEntitySyncResponse msg) [0x00000] in <filename unknown>:0 
2021-05-14 17:52:44,593 [ 1] FATAL Unity: <log4net.Error>Exception during StringFormat: Input string was not in a correct format. <format>{0
{1}</format><args>{FormatException: Index (zero based) must be greater than or equal to zero and less than the size of the argument list., System.String.FormatHelper (System.Text.StringBuilder result, IFormatProvider provider, System.String format, System.Object[] args)
System.Text.StringBuilder.AppendFormat (IFormatProvider provider, System.String format, System.Object[] args)
System.Text.StringBuilder.AppendFormat (System.String format, System.Object arg0, System.Object arg1)
Services.MapService.OnMapEntitySyncResponse (System.Object sender, SkillBridge.Message.MapEntitySyncResponse response)
Network.MessageDistributer`1[System.Object].RaiseEvent[MapEntitySyncResponse] (System.Object sender, SkillBridge.Message.MapEntitySyncResponse msg)
}</args></log4net.Error>
2021-05-14 17:52:44,933 [ 1] INFO  Unity: OnEntityChanged::ID :2 POS:SkillBridge.Message.NVector3, DIR:SkillBridge.Message.NVector3,SPD:-300
2021-05-14 17:52:44,933 [ 1] ERROR Unity: Message handler exception:, Index (zero based) must be greater than or equal to zero and less than the size of the argument list., mscorlib,   at System.String.FormatHelper (System.Text.StringBuilder result, IFormatProvider provider, System.String format, System.Object[] args) [0x00000] in <filename unknown>:0 
  at System.Text.StringBuilder.AppendFormat (IFormatProvider provider, System.String format, System.Object[] args) [0x00000] in <filename unknown>:0 
  at System.Text.StringBuilder.AppendFormat (System.String format, System.Object arg0, System.Object arg1) [0x00000] in <filename unknown>:0 
  at Services.MapService.OnMapEntitySyncResponse (System.Object sender, SkillBridge.Message.MapEntitySyncResponse response) [0x00000] in <filename unknown>:0 
  at Network.MessageDistributer`1[System.Object].RaiseEvent[MapEntitySyncResponse] (System.Object sender, SkillBridge.Message.MapEntitySyncResponse msg) [0x00000] in <filename unknown>:0 
2021-05-14 17:52:44,933 [ 1] FATAL Unity: <log4net.Error>Exception during StringFormat: Input string was not in a correct format. <format>{0
{1}</format><args>{FormatException: Index (zero based) must be greater than or equal to zero and less than the size of the argument list., System.String.FormatHelper (System.Text.StringBuilder result, IFormatProvider provider, System.String format, System.Object[] args)
System.Text.StringBuilder.AppendFormat (IFormatProvider provider, System.String format, System.Object[] args)
System.Text.StringBuilder.AppendFormat (System.String format, System.Object arg0, System.Object arg1)
Services.MapService.OnMapEntitySyncResponse (System.Object sender, SkillBridge.Message.MapEntitySyncResponse response)
Network.MessageDistributer`1[System.Object].RaiseEvent[MapEntitySyncResponse] (System.Object sender, SkillBridge.Message.MapEntitySyncResponse msg)
}</args></log4net.Error>
2021-05-14 17:52:45,016 [ 1] INFO  Unity: OnEntityChanged::ID :2 POS:SkillBridge.Message.NVector3, DIR:SkillBridge.Message.NVector3,SPD:-300
2021-05-14 17:52:45,016 [ 1] ERROR Unity: Message handler exception:, Index (zero based) must be greater than or equal to zero and less than the size of the argument list., mscorlib,   at System.String.FormatHelper (System.Text.StringBuilder result, IFormatProvider provider, System.String format, System.Object[] args) [0x00000] in <filename unknown>:0 
  at System.Text.StringBuilder.AppendFormat (IFormatProvider provider, System.String format, System.Object[] args) [0x00000] in <filename unknown>:0 
  at System.Text.StringBuilder.AppendFormat (System.String format, System.Object arg0, System.Object arg1) [0x00000] in <filename unknown>:0 
  at Services.MapService.OnMapEntitySyncResponse (System.Object sender, SkillBridge.Message.MapEntitySyncResponse response) [0x00000] in <filename unknown>:0 
  at Network.MessageDistributer`1[System.Object].RaiseEvent[MapEntitySyncResponse] (System.Object sender, SkillBridge.Message.MapEntitySyncResponse msg) [0x00000] in <filename unknown>:0 
2021-05-14 17:52:45,017 [ 1] FATAL Unity: <log4net.Error>Exception during StringFormat: Input string was not in a correct format. <format>{0
{1}</format><args>{FormatException: Index (zero based) must be greater than or equal to zero and less than the size of the argument list., System.String.FormatHelper (System.Text.StringBuilder result, IFormatProvider provider, System.String format, System.Object[] args)
System.Text.StringBuilder.AppendFormat (IFormatProvider provider, System.String format, System.Object[] args)
System.Text.StringBuilder.AppendFormat (System.String format, System.Object arg0, System.Object arg1)
Services.MapService.OnMapEntitySyncResponse (System.Object sender, SkillBridge.Message.MapEntitySyncResponse response)
Network.MessageDistributer`1[System.Object].RaiseEvent[MapEntitySyncResponse] (System.Object sender, SkillBridge.Message.MapEntitySyncResponse msg)
}</args></log4net.Error>
2021-05-14 17:52:45,116 [ 1] INFO  Unity: OnEntityChanged::ID :2 POS:SkillBridge.Message.NVector3, DIR:SkillBridge.Message.NVector3,SPD:-300
2021-05-14 17:52:45,117 [ 1] ERROR Unity: Message handler exception:, Index (zero based) must be greater than or equal to zero and less than the size of the argument list., mscorlib,   at System.String.FormatHelper (System.Text.StringBuilder result, IFormatProvider provider, System.String format, System.Object[] args) [0x00000] in <filename unknown>:0 
  at System.Text.StringBuilder.AppendFormat (IFormatProvider provider, System.String format, System.Object[] args) [0x00000] in <filename unknown>:0 
  at System.Text.StringBuilder.AppendFormat (System.String format, System.Object arg0, System.Object arg1) [0x00000] in <filename unknown>:0 
  at Services.MapService.OnMapEntitySyncResponse (System.Object sender, SkillBridge.Message.MapEntitySyncResponse response) [0x00000] in <filename unknown>:0 
  at Network.MessageDistributer`1[System.Object].RaiseEvent[MapEntitySyncResponse] (System.Object sender, SkillBridge.Message.MapEntitySyncResponse msg) [0x00000] in <filename unknown>:0 
2021-05-14 17:52:45,117 [ 1] FATAL Unity: <log4net.Error>Exception during StringFormat: Input string was not in a correct format. <format>{0
{1}</format><args>{FormatException: Index (zero based) must be greater than or equal to zero and less than the size of the argument list., System.String.FormatHelper (System.Text.StringBuilder result, IFormatProvider provider, System.String format, System.Object[] args)
System.Text.StringBuilder.AppendFormat (IFormatProvider provider, System.String format, System.Object[] args)
System.Text.StringBuilder.AppendFormat (System.String format, System.Object arg0, System.Object arg1)
Services.MapService.OnMapEntitySyncResponse (System.Object sender, SkillBridge.Message.MapEntitySyncResponse response)
Network.MessageDistributer`1[System.Object].RaiseEvent[MapEntitySyncResponse] (System.Object sender, SkillBridge.Message.MapEntitySyncResponse msg)
}</args></log4net.Error>
2021-05-14 17:52:45,234 [ 1] INFO  Unity: OnEntityChanged::ID :2 POS:SkillBridge.Message.NVector3, DIR:SkillBridge.Message.NVector3,SPD:-300
2021-05-14 17:52:45,234 [ 1] ERROR Unity: Message handler exception:, Index (zero based) must be greater than or equal to zero and less than the size of the argument list., mscorlib,   at System.String.FormatHelper (System.Text.StringBuilder result, IFormatProvider provider, System.String format, System.Object[] args) [0x00000] in <filename unknown>:0 
  at System.Text.StringBuilder.AppendFormat (IFormatProvider provider, System.String format, System.Object[] args) [0x00000] in <filename unknown>:0 
  at System.Text.StringBuilder.AppendFormat (System.String format, System.Object arg0, System.Object arg1) [0x00000] in <filename unknown>:0 
  at Services.MapService.OnMapEntitySyncResponse (System.Object sender, SkillBridge.Message.MapEntitySyncResponse response) [0x00000] in <filename unknown>:0 
  at Network.MessageDistributer`1[System.Object].RaiseEvent[MapEntitySyncResponse] (System.Object sender, SkillBridge.Message.MapEntitySyncResponse msg) [0x00000] in <filename unknown>:0 
2021-05-14 17:52:45,235 [ 1] FATAL Unity: <log4net.Error>Exception during StringFormat: Input string was not in a correct format. <format>{0
{1}</format><args>{FormatException: Index (zero based) must be greater than or equal to zero and less than the size of the argument list., System.String.FormatHelper (System.Text.StringBuilder result, IFormatProvider provider, System.String format, System.Object[] args)
System.Text.StringBuilder.AppendFormat (IFormatProvider provider, System.String format, System.Object[] args)
System.Text.StringBuilder.AppendFormat (System.String format, System.Object arg0, System.Object arg1)
Services.MapService.OnMapEntitySyncResponse (System.Object sender, SkillBridge.Message.MapEntitySyncResponse response)
Network.MessageDistributer`1[System.Object].RaiseEvent[MapEntitySyncResponse] (System.Object sender, SkillBridge.Message.MapEntitySyncResponse msg)
}</args></log4net.Error>
2021-05-14 17:52:45,334 [ 1] INFO  Unity: OnEntityChanged::ID :2 POS:SkillBridge.Message.NVector3, DIR:SkillBridge.Message.NVector3,SPD:-300
2021-05-14 17:52:45,334 [ 1] ERROR Unity: Message handler exception:, Index (zero based) must be greater than or equal to zero and less than the size of the argument list., mscorlib,   at System.String.FormatHelper (System.Text.StringBuilder result, IFormatProvider provider, System.String format, System.Object[] args) [0x00000] in <filename unknown>:0 
  at System.Text.StringBuilder.AppendFormat (IFormatProvider provider, System.String format, System.Object[] args) [0x00000] in <filename unknown>:0 
  at System.Text.StringBuilder.AppendFormat (System.String format, System.Object arg0, System.Object arg1) [0x00000] in <filename unknown>:0 
  at Services.MapService.OnMapEntitySyncResponse (System.Object sender, SkillBridge.Message.MapEntitySyncResponse response) [0x00000] in <filename unknown>:0 
  at Network.MessageDistributer`1[System.Object].RaiseEvent[MapEntitySyncResponse] (System.Object sender, SkillBridge.Message.MapEntitySyncResponse msg) [0x00000] in <filename unknown>:0 
2021-05-14 17:52:45,335 [ 1] FATAL Unity: <log4net.Error>Exception during StringFormat: Input string was not in a correct format. <format>{0
{1}</format><args>{FormatException: Index (zero based) must be greater than or equal to zero and less than the size of the argument list., System.String.FormatHelper (System.Text.StringBuilder result, IFormatProvider provider, System.String format, System.Object[] args)
System.Text.StringBuilder.AppendFormat (IFormatProvider provider, System.String format, System.Object[] args)
System.Text.StringBuilder.AppendFormat (System.String format, System.Object arg0, System.Object arg1)
Services.MapService.OnMapEntitySyncResponse (System.Object sender, SkillBridge.Message.MapEntitySyncResponse response)
Network.MessageDistributer`1[System.Object].RaiseEvent[MapEntitySyncResponse] (System.Object sender, SkillBridge.Message.MapEntitySyncResponse msg)
}</args></log4net.Error>
2021-05-14 17:52:45,383 [ 1] INFO  Unity: OnEntityChanged::ID :2 POS:SkillBridge.Message.NVector3, DIR:SkillBridge.Message.NVector3,SPD:0
2021-05-14 17:52:45,384 [ 1] ERROR Unity: Message handler exception:, Index (zero based) must be greater than or equal to zero and less than the size of the argument list., mscorlib,   at System.String.FormatHelper (System.Text.StringBuilder result, IFormatProvider provider, System.String format, System.Object[] args) [0x00000] in <filename unknown>:0 
  at System.Text.StringBuilder.AppendFormat (IFormatProvider provider, System.String format, System.Object[] args) [0x00000] in <filename unknown>:0 
  at System.Text.StringBuilder.AppendFormat (System.String format, System.Object arg0, System.Object arg1) [0x00000] in <filename unknown>:0 
  at Services.MapService.OnMapEntitySyncResponse (System.Object sender, SkillBridge.Message.MapEntitySyncResponse response) [0x00000] in <filename unknown>:0 
  at Network.MessageDistributer`1[System.Object].RaiseEvent[MapEntitySyncResponse] (System.Object sender, SkillBridge.Message.MapEntitySyncResponse msg) [0x00000] in <filename unknown>:0 
2021-05-14 17:52:45,386 [ 1] FATAL Unity: <log4net.Error>Exception during StringFormat: Input string was not in a correct format. <format>{0
{1}</format><args>{FormatException: Index (zero based) must be greater than or equal to zero and less than the size of the argument list., System.String.FormatHelper (System.Text.StringBuilder result, IFormatProvider provider, System.String format, System.Object[] args)
System.Text.StringBuilder.AppendFormat (IFormatProvider provider, System.String format, System.Object[] args)
System.Text.StringBuilder.AppendFormat (System.String format, System.Object arg0, System.Object arg1)
Services.MapService.OnMapEntitySyncResponse (System.Object sender, SkillBridge.Message.MapEntitySyncResponse response)
Network.MessageDistributer`1[System.Object].RaiseEvent[MapEntitySyncResponse] (System.Object sender, SkillBridge.Message.MapEntitySyncResponse msg)
}</args></log4net.Error>
2021-05-14 17:52:45,692 [ 1] INFO  Unity: MoveForward
2021-05-14 17:52:45,692 [ 1] INFO  Unity: OnMapEntitySyncRequest::ID :1 POS:SkillBridge.Message.NVector3, DIR:SkillBridge.Message.NVector3,SPD:0
2021-05-14 17:52:45,791 [ 1] INFO  Unity: SetDirection:(99, 10, 0)
2021-05-14 17:52:45,791 [ 1] INFO  Unity: OnMapEntitySyncRequest::ID :1 POS:SkillBridge.Message.NVector3, DIR:SkillBridge.Message.NVector3,SPD:300
2021-05-14 17:52:45,891 [ 1] INFO  Unity: SetDirection:(99, -10, 0)
2021-05-14 17:52:45,891 [ 1] INFO  Unity: OnMapEntitySyncRequest::ID :1 POS:SkillBridge.Message.NVector3, DIR:SkillBridge.Message.NVector3,SPD:300
2021-05-14 17:52:46,141 [ 1] INFO  Unity: Stop
2021-05-14 17:52:46,141 [ 1] INFO  Unity: OnMapEntitySyncRequest::ID :1 POS:SkillBridge.Message.NVector3, DIR:SkillBridge.Message.NVector3,SPD:300
2021-05-14 17:52:46,250 [ 1] INFO  Unity: SetDirection:(99, 10, 0)
2021-05-14 17:52:46,250 [ 1] INFO  Unity: OnMapEntitySyncRequest::ID :1 POS:SkillBridge.Message.NVector3, DIR:SkillBridge.Message.NVector3,SPD:0
2021-05-14 17:52:46,325 [ 1] INFO  Unity: SetDirection:(96, 28, 0)
2021-05-14 17:52:46,325 [ 1] INFO  Unity: OnMapEntitySyncRequest::ID :1 POS:SkillBridge.Message.NVector3, DIR:SkillBridge.Message.NVector3,SPD:0
2021-05-14 17:52:46,359 [ 1] INFO  Unity: MoveBack
2021-05-14 17:52:46,359 [ 1] INFO  Unity: OnMapEntitySyncRequest::ID :1 POS:SkillBridge.Message.NVector3, DIR:SkillBridge.Message.NVector3,SPD:0
2021-05-14 17:52:46,433 [ 1] INFO  Unity: SetDirection:(88, 47, 0)
2021-05-14 17:52:46,433 [ 1] INFO  Unity: OnMapEntitySyncRequest::ID :1 POS:SkillBridge.Message.NVector3, DIR:SkillBridge.Message.NVector3,SPD:-300
2021-05-14 17:52:46,533 [ 1] INFO  Unity: SetDirection:(77, 64, 0)
2021-05-14 17:52:46,533 [ 1] INFO  Unity: OnMapEntitySyncRequest::ID :1 POS:SkillBridge.Message.NVector3, DIR:SkillBridge.Message.NVector3,SPD:-300
2021-05-14 17:52:46,616 [ 1] INFO  Unity: SetDirection:(64, 77, 0)
2021-05-14 17:52:46,616 [ 1] INFO  Unity: OnMapEntitySyncRequest::ID :1 POS:SkillBridge.Message.NVector3, DIR:SkillBridge.Message.NVector3,SPD:-300
2021-05-14 17:52:46,717 [ 1] INFO  Unity: SetDirection:(47, 88, 0)
2021-05-14 17:52:46,717 [ 1] INFO  Unity: OnMapEntitySyncRequest::ID :1 POS:SkillBridge.Message.NVector3, DIR:SkillBridge.Message.NVector3,SPD:-300
2021-05-14 17:52:46,801 [ 1] INFO  Unity: SetDirection:(31, 95, 0)
2021-05-14 17:52:46,801 [ 1] INFO  Unity: OnMapEntitySyncRequest::ID :1 POS:SkillBridge.Message.NVector3, DIR:SkillBridge.Message.NVector3,SPD:-300
2021-05-14 17:52:47,101 [ 1] INFO  Unity: SetPosition:(4939, 3934, 809)
2021-05-14 17:52:47,101 [ 1] INFO  Unity: OnMapEntitySyncRequest::ID :1 POS:SkillBridge.Message.NVector3, DIR:SkillBridge.Message.NVector3,SPD:-300
2021-05-14 17:52:47,117 [ 1] INFO  Unity: Stop
2021-05-14 17:52:47,117 [ 1] INFO  Unity: OnMapEntitySyncRequest::ID :1 POS:SkillBridge.Message.NVector3, DIR:SkillBridge.Message.NVector3,SPD:-300
2021-05-14 17:52:47,134 [ 1] INFO  Unity: SetDirection:(50, 87, 0)
2021-05-14 17:52:47,134 [ 1] INFO  Unity: OnMapEntitySyncRequest::ID :1 POS:SkillBridge.Message.NVector3, DIR:SkillBridge.Message.NVector3,SPD:0
2021-05-14 17:52:47,216 [ 1] INFO  Unity: SetDirection:(64, 77, 0)
2021-05-14 17:52:47,216 [ 1] INFO  Unity: OnMapEntitySyncRequest::ID :1 POS:SkillBridge.Message.NVector3, DIR:SkillBridge.Message.NVector3,SPD:0
2021-05-14 17:52:55,366 [ 1] INFO  Unity: SetDirection:(77, 64, 0)
2021-05-14 17:52:55,366 [ 1] INFO  Unity: OnMapEntitySyncRequest::ID :1 POS:SkillBridge.Message.NVector3, DIR:SkillBridge.Message.NVector3,SPD:0
2021-05-14 17:52:55,416 [ 1] INFO  Unity: MoveForward
2021-05-14 17:52:55,416 [ 1] INFO  Unity: OnMapEntitySyncRequest::ID :1 POS:SkillBridge.Message.NVector3, DIR:SkillBridge.Message.NVector3,SPD:0
2021-05-14 17:52:55,466 [ 1] INFO  Unity: SetDirection:(88, 47, 0)
2021-05-14 17:52:55,466 [ 1] INFO  Unity: OnMapEntitySyncRequest::ID :1 POS:SkillBridge.Message.NVector3, DIR:SkillBridge.Message.NVector3,SPD:300
2021-05-14 17:52:55,999 [ 1] INFO  Unity: Stop
2021-05-14 17:52:55,999 [ 1] INFO  Unity: OnMapEntitySyncRequest::ID :1 POS:SkillBridge.Message.NVector3, DIR:SkillBridge.Message.NVector3,SPD:300
2021-05-14 17:52:56,098 [ 1] INFO  Unity: SetDirection:(77, 64, 0)
2021-05-14 17:52:56,098 [ 1] INFO  Unity: OnMapEntitySyncRequest::ID :1 POS:SkillBridge.Message.NVector3, DIR:SkillBridge.Message.NVector3,SPD:0
2021-05-14 17:52:56,183 [ 1] INFO  Unity: SetDirection:(64, 77, 0)
2021-05-14 17:52:56,183 [ 1] INFO  Unity: OnMapEntitySyncRequest::ID :1 POS:SkillBridge.Message.NVector3, DIR:SkillBridge.Message.NVector3,SPD:0
2021-05-14 17:52:56,218 [ 1] INFO  Unity: MoveBack
2021-05-14 17:52:56,218 [ 1] INFO  Unity: OnMapEntitySyncRequest::ID :1 POS:SkillBridge.Message.NVector3, DIR:SkillBridge.Message.NVector3,SPD:0
2021-05-14 17:52:56,500 [ 1] INFO  Unity: Stop
2021-05-14 17:52:56,500 [ 1] INFO  Unity: OnMapEntitySyncRequest::ID :1 POS:SkillBridge.Message.NVector3, DIR:SkillBridge.Message.NVector3,SPD:-300
2021-05-14 17:52:56,582 [ 1] INFO  Unity: SetDirection:(77, 64, 0)
2021-05-14 17:52:56,582 [ 1] INFO  Unity: OnMapEntitySyncRequest::ID :1 POS:SkillBridge.Message.NVector3, DIR:SkillBridge.Message.NVector3,SPD:0
2021-05-14 17:52:56,919 [ 1] INFO  Unity: Character_12_爱爱 OnDestroy :ID:1 POS:(5028, 3939, 809) DIR:(77, 64, 0) SPD:0 
2021-05-14 17:52:56,919 [ 1] INFO  Unity: Character_3_的来啦 OnDestroy :ID:2 POS:(5133, 4323, 820) DIR:(-3, -100, 0) SPD:0 
2021-05-14 17:52:56,919 [ 1] INFO  Unity: OnDestroy NetworkManager.
2021-05-14 17:52:56,921 [ 1] WARN  Unity: CloseConnection(), errorCode: 1007

