2021-05-14 22:06:28,591 [ 1] INFO  Unity: LoadingManager start
2021-05-14 22:06:30,685 [ 1] INFO  Unity: DataManager > DataManager()
2021-05-14 22:06:44,761 [ 1] INFO  Unity: UserLoginRequest::user :321 psw:321
2021-05-14 22:06:44,761 [ 1] INFO  Unity: ConnectToServer() Start 
2021-05-14 22:06:44,764 [ 1] INFO  Unity: DoConnect
2021-05-14 22:06:44,765 [ 1] INFO  Unity: NetClient.DoConnect on 127.0.0.1:8000
2021-05-14 22:06:44,766 [ 1] INFO  Unity: Connect[0] to server 127.0.0.1:8000

2021-05-14 22:06:46,811 [ 1] WARN  Unity: CloseConnection(), errorCode: 1005

2021-05-14 22:06:46,815 [ 1] ERROR Unity: DoConnect SocketException:[10061,ConnectionRefused,10061]System.Net.Sockets.SocketException: 由于目标计算机积极拒绝，无法连接。

  at System.Net.Sockets.Socket.Connect (System.Net.EndPoint remoteEP, Boolean requireSocketPolicy) [0x00000] in <filename unknown>:0 
  at System.Net.Sockets.Socket+Worker.Connect () [0x00000] in <filename unknown>:0  

2021-05-14 22:06:46,817 [ 1] INFO  Unity: DoConnect
2021-05-14 22:06:46,817 [ 1] INFO  Unity: NetClient.DoConnect on 127.0.0.1:8000
2021-05-14 22:06:46,817 [ 1] INFO  Unity: Connect[1] to server 127.0.0.1:8000

2021-05-14 22:06:48,844 [ 1] WARN  Unity: CloseConnection(), errorCode: 1005

2021-05-14 22:06:48,844 [ 1] ERROR Unity: DoConnect SocketException:[10061,ConnectionRefused,10061]System.Net.Sockets.SocketException: 由于目标计算机积极拒绝，无法连接。

  at System.Net.Sockets.Socket.Connect (System.Net.EndPoint remoteEP, Boolean requireSocketPolicy) [0x00000] in <filename unknown>:0 
  at System.Net.Sockets.Socket+Worker.Connect () [0x00000] in <filename unknown>:0  

2021-05-14 22:06:48,857 [ 1] INFO  Unity: DoConnect
2021-05-14 22:06:48,857 [ 1] INFO  Unity: NetClient.DoConnect on 127.0.0.1:8000
2021-05-14 22:06:48,857 [ 1] INFO  Unity: Connect[2] to server 127.0.0.1:8000

2021-05-14 22:06:50,891 [ 1] WARN  Unity: CloseConnection(), errorCode: 1005

2021-05-14 22:06:50,891 [ 1] ERROR Unity: DoConnect SocketException:[10061,ConnectionRefused,10061]System.Net.Sockets.SocketException: 由于目标计算机积极拒绝，无法连接。

  at System.Net.Sockets.Socket.Connect (System.Net.EndPoint remoteEP, Boolean requireSocketPolicy) [0x00000] in <filename unknown>:0 
  at System.Net.Sockets.Socket+Worker.Connect () [0x00000] in <filename unknown>:0  

2021-05-14 22:06:50,892 [ 1] INFO  Unity: LoadingMesager::OnGameServerConnect :1 reason:Cannot connect to server
2021-05-14 22:07:05,136 [ 1] INFO  Unity: UserLoginRequest::user :321 psw:321
2021-05-14 22:07:05,136 [ 1] INFO  Unity: ConnectToServer() Start 
2021-05-14 22:07:05,136 [ 1] INFO  Unity: DoConnect
2021-05-14 22:07:05,136 [ 1] INFO  Unity: NetClient.DoConnect on 127.0.0.1:8000
2021-05-14 22:07:05,136 [ 1] INFO  Unity: Connect[3] to server 127.0.0.1:8000

2021-05-14 22:07:05,136 [ 1] INFO  Unity: LoadingMesager::OnGameServerConnect :0 reason:Success
2021-05-14 22:07:09,131 [ 1] INFO  Unity: OnUserLogin:Success [None]
2021-05-14 22:07:09,133 [ 1] INFO  Unity: LoadLevel: CharSelect
2021-05-14 22:07:09,296 [ 1] INFO  Unity: LevelLoadCompleted:1
2021-05-14 22:07:23,828 [ 1] INFO  Unity: Select Char:[12]爱爱[Wizard]
2021-05-14 22:07:24,568 [ 1] INFO  Unity: UserGameEnterRequest::characterIdx :0
2021-05-14 22:07:24,596 [ 1] INFO  Unity: OnGameEnterSuccess [进入游戏成功]
2021-05-14 22:07:24,596 [ 1] INFO  Unity: OnMapCharacterEnter:Map:1 Count:1
2021-05-14 22:07:24,598 [ 1] INFO  Unity: AddCharacter:12:爱爱 Map:1 Entity:(1:pos:(5000,4000,820),dir:(100,0,0),spd:0
2021-05-14 22:07:24,599 [ 1] INFO  Unity: 布林镇
2021-05-14 22:07:24,600 [ 1] INFO  Unity: LoadLevel: MainCity
2021-05-14 22:07:24,915 [ 1] INFO  Unity: LevelLoadCompleted:1
2021-05-14 22:07:26,293 [ 1] INFO  Unity: OnMapCharacterEnter:Map:1 Count:1
2021-05-14 22:07:26,293 [ 1] INFO  Unity: AddCharacter:3:的来啦 Map:1 Entity:(2:pos:(5000,4000,820),dir:(100,0,0),spd:0
2021-05-14 22:08:10,090 [ 1] INFO  Unity: LoadLevel: CharSelect
2021-05-14 22:08:10,090 [ 1] INFO  Unity: UserGameLeaveRequest
2021-05-14 22:08:10,107 [ 1] INFO  Unity: OnMapCharacterLeave:CharID:12
2021-05-14 22:08:10,109 [ 1] INFO  Unity: RemoveCharacter12
2021-05-14 22:08:10,110 [ 1] INFO  Unity: RemoveCharacter3
2021-05-14 22:08:10,111 [ 1] INFO  Unity: OnGameLeaveSuccess [退出游戏成功]
2021-05-14 22:08:10,111 [ 1] INFO  Unity: Character_12_爱爱 OnDestroy :ID:1 POS:(5000, 4000, 820) DIR:(100, 0, 0) SPD:0 
2021-05-14 22:08:10,111 [ 1] INFO  Unity: Character_3_的来啦 OnDestroy :ID:2 POS:(5000, 4000, 820) DIR:(100, 0, 0) SPD:0 
2021-05-14 22:08:10,194 [ 1] INFO  Unity: LevelLoadCompleted:1
2021-05-14 22:08:12,314 [ 1] INFO  Unity: Select Char:[12]爱爱[Wizard]
2021-05-14 22:08:14,781 [ 1] INFO  Unity: UserGameEnterRequest::characterIdx :0
2021-05-14 22:08:14,797 [ 1] INFO  Unity: OnGameEnterSuccess [进入游戏成功]
2021-05-14 22:08:14,797 [ 1] INFO  Unity: OnMapCharacterEnter:Map:1 Count:1
2021-05-14 22:08:14,798 [ 1] INFO  Unity: AddCharacter:12:爱爱 Map:1 Entity:(3:pos:(5000,4000,820),dir:(100,0,0),spd:0
2021-05-14 22:08:14,798 [ 1] INFO  Unity: 布林镇
2021-05-14 22:08:14,798 [ 1] INFO  Unity: LoadLevel: MainCity
2021-05-14 22:08:14,798 [ 1] INFO  Unity: OnMapCharacterEnter:Map:1 Count:3
2021-05-14 22:08:14,798 [ 1] INFO  Unity: AddCharacter:12:爱爱 Map:1 Entity:(3:pos:(5000,4000,820),dir:(100,0,0),spd:0
2021-05-14 22:08:14,798 [ 1] INFO  Unity: AddCharacter:12:爱爱 Map:1 Entity:(1:pos:(5000,4000,820),dir:(100,0,0),spd:0
2021-05-14 22:08:14,798 [ 1] INFO  Unity: AddCharacter:3:的来啦 Map:1 Entity:(2:pos:(5000,4000,820),dir:(100,0,0),spd:0
2021-05-14 22:08:15,062 [ 1] INFO  Unity: LevelLoadCompleted:1
2021-05-14 22:09:22,161 [ 1] INFO  Unity: SetDirection:(98, 21, 0)
2021-05-14 22:09:22,161 [ 1] INFO  Unity: OnMapEntitySyncRequest::ID :1 POS:SkillBridge.Message.NVector3, DIR:SkillBridge.Message.NVector3,SPD:0
2021-05-14 22:09:22,187 [ 1] INFO  Unity: OnEntityChanged::ID :1 POS:(5000, 4000, 820), DIR:(98, 21, 0),SPD:0
2021-05-14 22:09:22,187 [ 1] INFO  Unity: MapEntityUpdateResponse: Entity: {0}
{0}event:{1} entity:{2}
2021-05-14 22:09:22,194 [ 1] INFO  Unity: MoveForward
2021-05-14 22:09:22,195 [ 1] INFO  Unity: OnMapEntitySyncRequest::ID :1 POS:SkillBridge.Message.NVector3, DIR:SkillBridge.Message.NVector3,SPD:0
2021-05-14 22:09:22,213 [ 1] INFO  Unity: OnEntityChanged::ID :1 POS:(5000, 4000, 820), DIR:(98, 21, 0),SPD:0
2021-05-14 22:09:22,213 [ 1] INFO  Unity: MapEntityUpdateResponse: Entity: {0}
{0}event:{1} entity:{2}
2021-05-14 22:09:22,261 [ 1] INFO  Unity: SetDirection:(91, 41, 0)
2021-05-14 22:09:22,261 [ 1] INFO  Unity: OnMapEntitySyncRequest::ID :1 POS:SkillBridge.Message.NVector3, DIR:SkillBridge.Message.NVector3,SPD:0
2021-05-14 22:09:22,278 [ 1] INFO  Unity: OnEntityChanged::ID :1 POS:(5000, 4000, 820), DIR:(98, 21, 0),SPD:0
2021-05-14 22:09:22,278 [ 1] INFO  Unity: MapEntityUpdateResponse: Entity: {0}
{0}event:{1} entity:{2}
2021-05-14 22:09:22,295 [ 1] INFO  Unity: SetDirection:(88, 47, 0)
2021-05-14 22:09:22,295 [ 1] INFO  Unity: OnMapEntitySyncRequest::ID :1 POS:SkillBridge.Message.NVector3, DIR:SkillBridge.Message.NVector3,SPD:0
2021-05-14 22:09:22,312 [ 1] INFO  Unity: OnEntityChanged::ID :1 POS:(5000, 4000, 820), DIR:(98, 21, 0),SPD:0
2021-05-14 22:09:22,312 [ 1] INFO  Unity: MapEntityUpdateResponse: Entity: {0}
{0}event:{1} entity:{2}
2021-05-14 22:09:22,329 [ 1] INFO  Unity: SetDirection:(85, 53, 0)
2021-05-14 22:09:22,329 [ 1] INFO  Unity: OnMapEntitySyncRequest::ID :1 POS:SkillBridge.Message.NVector3, DIR:SkillBridge.Message.NVector3,SPD:0
2021-05-14 22:09:22,344 [ 1] INFO  Unity: OnEntityChanged::ID :1 POS:(5000, 4000, 820), DIR:(98, 21, 0),SPD:0
2021-05-14 22:09:22,344 [ 1] INFO  Unity: MapEntityUpdateResponse: Entity: {0}
{0}event:{1} entity:{2}
2021-05-14 22:09:22,544 [ 1] INFO  Unity: Stop
2021-05-14 22:09:22,544 [ 1] INFO  Unity: OnMapEntitySyncRequest::ID :1 POS:SkillBridge.Message.NVector3, DIR:SkillBridge.Message.NVector3,SPD:0
2021-05-14 22:09:22,562 [ 1] INFO  Unity: OnEntityChanged::ID :1 POS:(5000, 4000, 820), DIR:(98, 21, 0),SPD:0
2021-05-14 22:09:22,562 [ 1] INFO  Unity: MapEntityUpdateResponse: Entity: {0}
{0}event:{1} entity:{2}
2021-05-14 22:09:22,911 [ 1] INFO  Unity: MoveForward
2021-05-14 22:09:22,911 [ 1] INFO  Unity: OnMapEntitySyncRequest::ID :1 POS:SkillBridge.Message.NVector3, DIR:SkillBridge.Message.NVector3,SPD:0
2021-05-14 22:09:22,927 [ 1] INFO  Unity: OnEntityChanged::ID :1 POS:(5000, 4000, 820), DIR:(98, 21, 0),SPD:0
2021-05-14 22:09:22,927 [ 1] INFO  Unity: MapEntityUpdateResponse: Entity: {0}
{0}event:{1} entity:{2}
2021-05-14 22:09:23,352 [ 1] INFO  Unity: Stop
2021-05-14 22:09:23,352 [ 1] INFO  Unity: OnMapEntitySyncRequest::ID :1 POS:SkillBridge.Message.NVector3, DIR:SkillBridge.Message.NVector3,SPD:0
2021-05-14 22:09:23,368 [ 1] INFO  Unity: SetDirection:(83, 56, 0)
2021-05-14 22:09:23,368 [ 1] INFO  Unity: OnMapEntitySyncRequest::ID :1 POS:SkillBridge.Message.NVector3, DIR:SkillBridge.Message.NVector3,SPD:0
2021-05-14 22:09:23,368 [ 1] INFO  Unity: OnEntityChanged::ID :1 POS:(5000, 4000, 820), DIR:(98, 21, 0),SPD:0
2021-05-14 22:09:23,368 [ 1] INFO  Unity: MapEntityUpdateResponse: Entity: {0}
{0}event:{1} entity:{2}
2021-05-14 22:09:23,378 [ 1] INFO  Unity: SetDirection:(81, 59, 0)
2021-05-14 22:09:23,378 [ 1] INFO  Unity: OnMapEntitySyncRequest::ID :1 POS:SkillBridge.Message.NVector3, DIR:SkillBridge.Message.NVector3,SPD:0
2021-05-14 22:09:23,385 [ 1] INFO  Unity: OnEntityChanged::ID :1 POS:(5000, 4000, 820), DIR:(98, 21, 0),SPD:0
2021-05-14 22:09:23,385 [ 1] INFO  Unity: MapEntityUpdateResponse: Entity: {0}
{0}event:{1} entity:{2}
2021-05-14 22:09:23,402 [ 1] INFO  Unity: SetDirection:(79, 62, 0)
2021-05-14 22:09:23,402 [ 1] INFO  Unity: OnMapEntitySyncRequest::ID :1 POS:SkillBridge.Message.NVector3, DIR:SkillBridge.Message.NVector3,SPD:0
2021-05-14 22:09:23,402 [ 1] INFO  Unity: OnEntityChanged::ID :1 POS:(5000, 4000, 820), DIR:(98, 21, 0),SPD:0
2021-05-14 22:09:23,402 [ 1] INFO  Unity: MapEntityUpdateResponse: Entity: {0}
{0}event:{1} entity:{2}
2021-05-14 22:09:23,419 [ 1] INFO  Unity: SetDirection:(77, 64, 0)
2021-05-14 22:09:23,419 [ 1] INFO  Unity: OnMapEntitySyncRequest::ID :1 POS:SkillBridge.Message.NVector3, DIR:SkillBridge.Message.NVector3,SPD:0
2021-05-14 22:09:23,419 [ 1] INFO  Unity: OnEntityChanged::ID :1 POS:(5000, 4000, 820), DIR:(98, 21, 0),SPD:0
2021-05-14 22:09:23,419 [ 1] INFO  Unity: MapEntityUpdateResponse: Entity: {0}
{0}event:{1} entity:{2}
2021-05-14 22:09:23,435 [ 1] INFO  Unity: SetDirection:(74, 67, 0)
2021-05-14 22:09:23,435 [ 1] INFO  Unity: OnMapEntitySyncRequest::ID :1 POS:SkillBridge.Message.NVector3, DIR:SkillBridge.Message.NVector3,SPD:0
2021-05-14 22:09:23,436 [ 1] INFO  Unity: OnEntityChanged::ID :1 POS:(5000, 4000, 820), DIR:(98, 21, 0),SPD:0
2021-05-14 22:09:23,436 [ 1] INFO  Unity: MapEntityUpdateResponse: Entity: {0}
{0}event:{1} entity:{2}
2021-05-14 22:09:23,453 [ 1] INFO  Unity: SetDirection:(72, 69, 0)
2021-05-14 22:09:23,453 [ 1] INFO  Unity: OnMapEntitySyncRequest::ID :1 POS:SkillBridge.Message.NVector3, DIR:SkillBridge.Message.NVector3,SPD:0
2021-05-14 22:09:23,453 [ 1] INFO  Unity: OnEntityChanged::ID :1 POS:(5000, 4000, 820), DIR:(98, 21, 0),SPD:0
2021-05-14 22:09:23,454 [ 1] INFO  Unity: MapEntityUpdateResponse: Entity: {0}
{0}event:{1} entity:{2}
2021-05-14 22:09:23,468 [ 1] INFO  Unity: SetDirection:(69, 72, 0)
2021-05-14 22:09:23,468 [ 1] INFO  Unity: OnMapEntitySyncRequest::ID :1 POS:SkillBridge.Message.NVector3, DIR:SkillBridge.Message.NVector3,SPD:0
2021-05-14 22:09:23,469 [ 1] INFO  Unity: OnEntityChanged::ID :1 POS:(5000, 4000, 820), DIR:(98, 21, 0),SPD:0
2021-05-14 22:09:23,469 [ 1] INFO  Unity: MapEntityUpdateResponse: Entity: {0}
{0}event:{1} entity:{2}
2021-05-14 22:09:23,485 [ 1] INFO  Unity: SetDirection:(67, 74, 0)
2021-05-14 22:09:23,485 [ 1] INFO  Unity: OnMapEntitySyncRequest::ID :1 POS:SkillBridge.Message.NVector3, DIR:SkillBridge.Message.NVector3,SPD:0
2021-05-14 22:09:23,486 [ 1] INFO  Unity: OnEntityChanged::ID :1 POS:(5000, 4000, 820), DIR:(98, 21, 0),SPD:0
2021-05-14 22:09:23,486 [ 1] INFO  Unity: MapEntityUpdateResponse: Entity: {0}
{0}event:{1} entity:{2}
2021-05-14 22:09:23,502 [ 1] INFO  Unity: SetDirection:(64, 77, 0)
2021-05-14 22:09:23,502 [ 1] INFO  Unity: OnMapEntitySyncRequest::ID :1 POS:SkillBridge.Message.NVector3, DIR:SkillBridge.Message.NVector3,SPD:0
2021-05-14 22:09:23,502 [ 1] INFO  Unity: OnEntityChanged::ID :1 POS:(5000, 4000, 820), DIR:(98, 21, 0),SPD:0
2021-05-14 22:09:23,503 [ 1] INFO  Unity: MapEntityUpdateResponse: Entity: {0}
{0}event:{1} entity:{2}
2021-05-14 22:09:23,519 [ 1] INFO  Unity: SetDirection:(62, 79, 0)
2021-05-14 22:09:23,519 [ 1] INFO  Unity: OnMapEntitySyncRequest::ID :1 POS:SkillBridge.Message.NVector3, DIR:SkillBridge.Message.NVector3,SPD:0
2021-05-14 22:09:23,521 [ 1] INFO  Unity: OnEntityChanged::ID :1 POS:(5000, 4000, 820), DIR:(98, 21, 0),SPD:0
2021-05-14 22:09:23,521 [ 1] INFO  Unity: MapEntityUpdateResponse: Entity: {0}
{0}event:{1} entity:{2}
2021-05-14 22:09:23,535 [ 1] INFO  Unity: SetDirection:(59, 81, 0)
2021-05-14 22:09:23,535 [ 1] INFO  Unity: OnMapEntitySyncRequest::ID :1 POS:SkillBridge.Message.NVector3, DIR:SkillBridge.Message.NVector3,SPD:0
2021-05-14 22:09:23,536 [ 1] INFO  Unity: OnEntityChanged::ID :1 POS:(5000, 4000, 820), DIR:(98, 21, 0),SPD:0
2021-05-14 22:09:23,536 [ 1] INFO  Unity: MapEntityUpdateResponse: Entity: {0}
{0}event:{1} entity:{2}
2021-05-14 22:09:23,551 [ 1] INFO  Unity: SetDirection:(56, 83, 0)
2021-05-14 22:09:23,552 [ 1] INFO  Unity: OnMapEntitySyncRequest::ID :1 POS:SkillBridge.Message.NVector3, DIR:SkillBridge.Message.NVector3,SPD:0
2021-05-14 22:09:23,552 [ 1] INFO  Unity: OnEntityChanged::ID :1 POS:(5000, 4000, 820), DIR:(98, 21, 0),SPD:0
2021-05-14 22:09:23,552 [ 1] INFO  Unity: MapEntityUpdateResponse: Entity: {0}
{0}event:{1} entity:{2}
2021-05-14 22:09:23,568 [ 1] INFO  Unity: SetDirection:(53, 85, 0)
2021-05-14 22:09:23,568 [ 1] INFO  Unity: OnMapEntitySyncRequest::ID :1 POS:SkillBridge.Message.NVector3, DIR:SkillBridge.Message.NVector3,SPD:0
2021-05-14 22:09:23,569 [ 1] INFO  Unity: OnEntityChanged::ID :1 POS:(5000, 4000, 820), DIR:(98, 21, 0),SPD:0
2021-05-14 22:09:23,569 [ 1] INFO  Unity: MapEntityUpdateResponse: Entity: {0}
{0}event:{1} entity:{2}
2021-05-14 22:09:23,584 [ 1] INFO  Unity: SetDirection:(50, 87, 0)
2021-05-14 22:09:23,585 [ 1] INFO  Unity: OnMapEntitySyncRequest::ID :1 POS:SkillBridge.Message.NVector3, DIR:SkillBridge.Message.NVector3,SPD:0
2021-05-14 22:09:23,585 [ 1] INFO  Unity: OnEntityChanged::ID :1 POS:(5000, 4000, 820), DIR:(98, 21, 0),SPD:0
2021-05-14 22:09:23,585 [ 1] INFO  Unity: MapEntityUpdateResponse: Entity: {0}
{0}event:{1} entity:{2}
2021-05-14 22:09:23,595 [ 1] INFO  Unity: SetDirection:(47, 88, 0)
2021-05-14 22:09:23,595 [ 1] INFO  Unity: OnMapEntitySyncRequest::ID :1 POS:SkillBridge.Message.NVector3, DIR:SkillBridge.Message.NVector3,SPD:0
2021-05-14 22:09:23,602 [ 1] INFO  Unity: OnEntityChanged::ID :1 POS:(5000, 4000, 820), DIR:(98, 21, 0),SPD:0
2021-05-14 22:09:23,602 [ 1] INFO  Unity: MapEntityUpdateResponse: Entity: {0}
{0}event:{1} entity:{2}
2021-05-14 22:09:23,611 [ 1] INFO  Unity: SetDirection:(44, 90, 0)
2021-05-14 22:09:23,611 [ 1] INFO  Unity: OnMapEntitySyncRequest::ID :1 POS:SkillBridge.Message.NVector3, DIR:SkillBridge.Message.NVector3,SPD:0
2021-05-14 22:09:23,618 [ 1] INFO  Unity: OnEntityChanged::ID :1 POS:(5000, 4000, 820), DIR:(98, 21, 0),SPD:0
2021-05-14 22:09:23,618 [ 1] INFO  Unity: MapEntityUpdateResponse: Entity: {0}
{0}event:{1} entity:{2}
2021-05-14 22:09:23,635 [ 1] INFO  Unity: SetDirection:(41, 91, 0)
2021-05-14 22:09:23,635 [ 1] INFO  Unity: OnMapEntitySyncRequest::ID :1 POS:SkillBridge.Message.NVector3, DIR:SkillBridge.Message.NVector3,SPD:0
2021-05-14 22:09:23,636 [ 1] INFO  Unity: OnEntityChanged::ID :1 POS:(5000, 4000, 820), DIR:(98, 21, 0),SPD:0
2021-05-14 22:09:23,636 [ 1] INFO  Unity: MapEntityUpdateResponse: Entity: {0}
{0}event:{1} entity:{2}
2021-05-14 22:09:23,653 [ 1] INFO  Unity: MoveForward
2021-05-14 22:09:23,653 [ 1] INFO  Unity: OnMapEntitySyncRequest::ID :1 POS:SkillBridge.Message.NVector3, DIR:SkillBridge.Message.NVector3,SPD:0
2021-05-14 22:09:23,653 [ 1] INFO  Unity: SetDirection:(37, 93, 0)
2021-05-14 22:09:23,653 [ 1] INFO  Unity: OnMapEntitySyncRequest::ID :1 POS:SkillBridge.Message.NVector3, DIR:SkillBridge.Message.NVector3,SPD:0
2021-05-14 22:09:23,654 [ 1] INFO  Unity: OnEntityChanged::ID :1 POS:(5000, 4000, 820), DIR:(98, 21, 0),SPD:0
2021-05-14 22:09:23,654 [ 1] INFO  Unity: MapEntityUpdateResponse: Entity: {0}
{0}event:{1} entity:{2}
2021-05-14 22:09:23,669 [ 1] INFO  Unity: SetDirection:(34, 94, 0)
2021-05-14 22:09:23,669 [ 1] INFO  Unity: OnMapEntitySyncRequest::ID :1 POS:SkillBridge.Message.NVector3, DIR:SkillBridge.Message.NVector3,SPD:0
2021-05-14 22:09:23,669 [ 1] INFO  Unity: OnEntityChanged::ID :1 POS:(5000, 4000, 820), DIR:(98, 21, 0),SPD:0
2021-05-14 22:09:23,669 [ 1] INFO  Unity: MapEntityUpdateResponse: Entity: {0}
{0}event:{1} entity:{2}
2021-05-14 22:09:23,686 [ 1] INFO  Unity: SetDirection:(31, 95, 0)
2021-05-14 22:09:23,686 [ 1] INFO  Unity: OnMapEntitySyncRequest::ID :1 POS:SkillBridge.Message.NVector3, DIR:SkillBridge.Message.NVector3,SPD:0
2021-05-14 22:09:23,687 [ 1] INFO  Unity: OnEntityChanged::ID :1 POS:(5000, 4000, 820), DIR:(98, 21, 0),SPD:0
2021-05-14 22:09:23,687 [ 1] INFO  Unity: MapEntityUpdateResponse: Entity: {0}
{0}event:{1} entity:{2}
2021-05-14 22:09:23,702 [ 1] INFO  Unity: SetDirection:(28, 96, 0)
2021-05-14 22:09:23,702 [ 1] INFO  Unity: OnMapEntitySyncRequest::ID :1 POS:SkillBridge.Message.NVector3, DIR:SkillBridge.Message.NVector3,SPD:0
2021-05-14 22:09:23,703 [ 1] INFO  Unity: OnEntityChanged::ID :1 POS:(5000, 4000, 820), DIR:(98, 21, 0),SPD:0
2021-05-14 22:09:23,703 [ 1] INFO  Unity: MapEntityUpdateResponse: Entity: {0}
{0}event:{1} entity:{2}
2021-05-14 22:09:23,712 [ 1] INFO  Unity: SetDirection:(24, 97, 0)
2021-05-14 22:09:23,712 [ 1] INFO  Unity: OnMapEntitySyncRequest::ID :1 POS:SkillBridge.Message.NVector3, DIR:SkillBridge.Message.NVector3,SPD:0
2021-05-14 22:09:23,719 [ 1] INFO  Unity: OnEntityChanged::ID :1 POS:(5000, 4000, 820), DIR:(98, 21, 0),SPD:0
2021-05-14 22:09:23,720 [ 1] INFO  Unity: MapEntityUpdateResponse: Entity: {0}
{0}event:{1} entity:{2}
2021-05-14 22:09:23,735 [ 1] INFO  Unity: SetDirection:(21, 98, 0)
2021-05-14 22:09:23,735 [ 1] INFO  Unity: OnMapEntitySyncRequest::ID :1 POS:SkillBridge.Message.NVector3, DIR:SkillBridge.Message.NVector3,SPD:0
2021-05-14 22:09:23,736 [ 1] INFO  Unity: OnEntityChanged::ID :1 POS:(5000, 4000, 820), DIR:(98, 21, 0),SPD:0
2021-05-14 22:09:23,736 [ 1] INFO  Unity: MapEntityUpdateResponse: Entity: {0}
{0}event:{1} entity:{2}
2021-05-14 22:09:23,752 [ 1] INFO  Unity: SetDirection:(17, 98, 0)
2021-05-14 22:09:23,752 [ 1] INFO  Unity: OnMapEntitySyncRequest::ID :1 POS:SkillBridge.Message.NVector3, DIR:SkillBridge.Message.NVector3,SPD:0
2021-05-14 22:09:23,752 [ 1] INFO  Unity: OnEntityChanged::ID :1 POS:(5000, 4000, 820), DIR:(98, 21, 0),SPD:0
2021-05-14 22:09:23,752 [ 1] INFO  Unity: MapEntityUpdateResponse: Entity: {0}
{0}event:{1} entity:{2}
2021-05-14 22:09:23,768 [ 1] INFO  Unity: SetDirection:(14, 99, 0)
2021-05-14 22:09:23,768 [ 1] INFO  Unity: OnMapEntitySyncRequest::ID :1 POS:SkillBridge.Message.NVector3, DIR:SkillBridge.Message.NVector3,SPD:0
2021-05-14 22:09:23,769 [ 1] INFO  Unity: OnEntityChanged::ID :1 POS:(5000, 4000, 820), DIR:(98, 21, 0),SPD:0
2021-05-14 22:09:23,769 [ 1] INFO  Unity: MapEntityUpdateResponse: Entity: {0}
{0}event:{1} entity:{2}
2021-05-14 22:09:23,786 [ 1] INFO  Unity: OnEntityChanged::ID :1 POS:(5000, 4000, 820), DIR:(98, 21, 0),SPD:0
2021-05-14 22:09:23,786 [ 1] INFO  Unity: MapEntityUpdateResponse: Entity: {0}
{0}event:{1} entity:{2}
2021-05-14 22:09:23,803 [ 1] INFO  Unity: OnEntityChanged::ID :1 POS:(5000, 4000, 820), DIR:(98, 21, 0),SPD:0
2021-05-14 22:09:23,803 [ 1] INFO  Unity: MapEntityUpdateResponse: Entity: {0}
{0}event:{1} entity:{2}
2021-05-14 22:09:24,135 [ 1] INFO  Unity: SetDirection:(17, 98, 0)
2021-05-14 22:09:24,135 [ 1] INFO  Unity: OnMapEntitySyncRequest::ID :1 POS:SkillBridge.Message.NVector3, DIR:SkillBridge.Message.NVector3,SPD:0
2021-05-14 22:09:24,152 [ 1] INFO  Unity: OnEntityChanged::ID :1 POS:(5000, 4000, 820), DIR:(98, 21, 0),SPD:0
2021-05-14 22:09:24,152 [ 1] INFO  Unity: MapEntityUpdateResponse: Entity: {0}
{0}event:{1} entity:{2}
2021-05-14 22:09:24,170 [ 1] INFO  Unity: SetDirection:(24, 97, 0)
2021-05-14 22:09:24,170 [ 1] INFO  Unity: OnMapEntitySyncRequest::ID :1 POS:SkillBridge.Message.NVector3, DIR:SkillBridge.Message.NVector3,SPD:0
2021-05-14 22:09:24,186 [ 1] INFO  Unity: OnEntityChanged::ID :1 POS:(5000, 4000, 820), DIR:(98, 21, 0),SPD:0
2021-05-14 22:09:24,186 [ 1] INFO  Unity: MapEntityUpdateResponse: Entity: {0}
{0}event:{1} entity:{2}
2021-05-14 22:09:24,203 [ 1] INFO  Unity: SetDirection:(31, 95, 0)
2021-05-14 22:09:24,204 [ 1] INFO  Unity: OnMapEntitySyncRequest::ID :1 POS:SkillBridge.Message.NVector3, DIR:SkillBridge.Message.NVector3,SPD:0
2021-05-14 22:09:24,219 [ 1] INFO  Unity: Stop
2021-05-14 22:09:24,219 [ 1] INFO  Unity: OnMapEntitySyncRequest::ID :1 POS:SkillBridge.Message.NVector3, DIR:SkillBridge.Message.NVector3,SPD:0
2021-05-14 22:09:24,220 [ 1] INFO  Unity: OnEntityChanged::ID :1 POS:(5000, 4000, 820), DIR:(98, 21, 0),SPD:0
2021-05-14 22:09:24,220 [ 1] INFO  Unity: MapEntityUpdateResponse: Entity: {0}
{0}event:{1} entity:{2}
2021-05-14 22:09:24,236 [ 1] INFO  Unity: SetDirection:(37, 93, 0)
2021-05-14 22:09:24,236 [ 1] INFO  Unity: OnMapEntitySyncRequest::ID :1 POS:SkillBridge.Message.NVector3, DIR:SkillBridge.Message.NVector3,SPD:0
2021-05-14 22:09:24,237 [ 1] INFO  Unity: OnEntityChanged::ID :1 POS:(5000, 4000, 820), DIR:(98, 21, 0),SPD:0
2021-05-14 22:09:24,237 [ 1] INFO  Unity: MapEntityUpdateResponse: Entity: {0}
{0}event:{1} entity:{2}
2021-05-14 22:09:24,252 [ 1] INFO  Unity: SetDirection:(41, 91, 0)
2021-05-14 22:09:24,252 [ 1] INFO  Unity: OnMapEntitySyncRequest::ID :1 POS:SkillBridge.Message.NVector3, DIR:SkillBridge.Message.NVector3,SPD:0
2021-05-14 22:09:24,253 [ 1] INFO  Unity: OnEntityChanged::ID :1 POS:(5000, 4000, 820), DIR:(98, 21, 0),SPD:0
2021-05-14 22:09:24,253 [ 1] INFO  Unity: MapEntityUpdateResponse: Entity: {0}
{0}event:{1} entity:{2}
2021-05-14 22:09:24,269 [ 1] INFO  Unity: SetDirection:(44, 90, 0)
2021-05-14 22:09:24,269 [ 1] INFO  Unity: OnMapEntitySyncRequest::ID :1 POS:SkillBridge.Message.NVector3, DIR:SkillBridge.Message.NVector3,SPD:0
2021-05-14 22:09:24,270 [ 1] INFO  Unity: OnEntityChanged::ID :1 POS:(5000, 4000, 820), DIR:(98, 21, 0),SPD:0
2021-05-14 22:09:24,270 [ 1] INFO  Unity: MapEntityUpdateResponse: Entity: {0}
{0}event:{1} entity:{2}
2021-05-14 22:09:24,287 [ 1] INFO  Unity: SetDirection:(47, 88, 0)
2021-05-14 22:09:24,287 [ 1] INFO  Unity: OnMapEntitySyncRequest::ID :1 POS:SkillBridge.Message.NVector3, DIR:SkillBridge.Message.NVector3,SPD:0
2021-05-14 22:09:24,288 [ 1] INFO  Unity: OnEntityChanged::ID :1 POS:(5000, 4000, 820), DIR:(98, 21, 0),SPD:0
2021-05-14 22:09:24,288 [ 1] INFO  Unity: MapEntityUpdateResponse: Entity: {0}
{0}event:{1} entity:{2}
2021-05-14 22:09:24,302 [ 1] INFO  Unity: SetDirection:(50, 87, 0)
2021-05-14 22:09:24,302 [ 1] INFO  Unity: OnMapEntitySyncRequest::ID :1 POS:SkillBridge.Message.NVector3, DIR:SkillBridge.Message.NVector3,SPD:0
2021-05-14 22:09:24,303 [ 1] INFO  Unity: OnEntityChanged::ID :1 POS:(5000, 4000, 820), DIR:(98, 21, 0),SPD:0
2021-05-14 22:09:24,303 [ 1] INFO  Unity: MapEntityUpdateResponse: Entity: {0}
{0}event:{1} entity:{2}
2021-05-14 22:09:24,320 [ 1] INFO  Unity: SetDirection:(53, 85, 0)
2021-05-14 22:09:24,320 [ 1] INFO  Unity: OnMapEntitySyncRequest::ID :1 POS:SkillBridge.Message.NVector3, DIR:SkillBridge.Message.NVector3,SPD:0
2021-05-14 22:09:24,321 [ 1] INFO  Unity: OnEntityChanged::ID :1 POS:(5000, 4000, 820), DIR:(98, 21, 0),SPD:0
2021-05-14 22:09:24,321 [ 1] INFO  Unity: MapEntityUpdateResponse: Entity: {0}
{0}event:{1} entity:{2}
2021-05-14 22:09:24,335 [ 1] INFO  Unity: SetDirection:(56, 83, 0)
2021-05-14 22:09:24,336 [ 1] INFO  Unity: OnMapEntitySyncRequest::ID :1 POS:SkillBridge.Message.NVector3, DIR:SkillBridge.Message.NVector3,SPD:0
2021-05-14 22:09:24,336 [ 1] INFO  Unity: OnEntityChanged::ID :1 POS:(5000, 4000, 820), DIR:(98, 21, 0),SPD:0
2021-05-14 22:09:24,336 [ 1] INFO  Unity: MapEntityUpdateResponse: Entity: {0}
{0}event:{1} entity:{2}
2021-05-14 22:09:24,352 [ 1] INFO  Unity: SetDirection:(59, 81, 0)
2021-05-14 22:09:24,352 [ 1] INFO  Unity: OnMapEntitySyncRequest::ID :1 POS:SkillBridge.Message.NVector3, DIR:SkillBridge.Message.NVector3,SPD:0
2021-05-14 22:09:24,353 [ 1] INFO  Unity: OnEntityChanged::ID :1 POS:(5000, 4000, 820), DIR:(98, 21, 0),SPD:0
2021-05-14 22:09:24,353 [ 1] INFO  Unity: MapEntityUpdateResponse: Entity: {0}
{0}event:{1} entity:{2}
2021-05-14 22:09:24,369 [ 1] INFO  Unity: SetDirection:(62, 79, 0)
2021-05-14 22:09:24,369 [ 1] INFO  Unity: OnMapEntitySyncRequest::ID :1 POS:SkillBridge.Message.NVector3, DIR:SkillBridge.Message.NVector3,SPD:0
2021-05-14 22:09:24,369 [ 1] INFO  Unity: OnEntityChanged::ID :1 POS:(5000, 4000, 820), DIR:(98, 21, 0),SPD:0
2021-05-14 22:09:24,370 [ 1] INFO  Unity: MapEntityUpdateResponse: Entity: {0}
{0}event:{1} entity:{2}
2021-05-14 22:09:24,386 [ 1] INFO  Unity: SetDirection:(64, 77, 0)
2021-05-14 22:09:24,386 [ 1] INFO  Unity: OnMapEntitySyncRequest::ID :1 POS:SkillBridge.Message.NVector3, DIR:SkillBridge.Message.NVector3,SPD:0
2021-05-14 22:09:24,387 [ 1] INFO  Unity: OnEntityChanged::ID :1 POS:(5000, 4000, 820), DIR:(98, 21, 0),SPD:0
2021-05-14 22:09:24,387 [ 1] INFO  Unity: MapEntityUpdateResponse: Entity: {0}
{0}event:{1} entity:{2}
2021-05-14 22:09:24,402 [ 1] INFO  Unity: SetDirection:(67, 74, 0)
2021-05-14 22:09:24,403 [ 1] INFO  Unity: OnMapEntitySyncRequest::ID :1 POS:SkillBridge.Message.NVector3, DIR:SkillBridge.Message.NVector3,SPD:0
2021-05-14 22:09:24,403 [ 1] INFO  Unity: OnEntityChanged::ID :1 POS:(5000, 4000, 820), DIR:(98, 21, 0),SPD:0
2021-05-14 22:09:24,403 [ 1] INFO  Unity: MapEntityUpdateResponse: Entity: {0}
{0}event:{1} entity:{2}
2021-05-14 22:09:24,418 [ 1] INFO  Unity: SetDirection:(69, 72, 0)
2021-05-14 22:09:24,418 [ 1] INFO  Unity: OnMapEntitySyncRequest::ID :1 POS:SkillBridge.Message.NVector3, DIR:SkillBridge.Message.NVector3,SPD:0
2021-05-14 22:09:24,419 [ 1] INFO  Unity: OnEntityChanged::ID :1 POS:(5000, 4000, 820), DIR:(98, 21, 0),SPD:0
2021-05-14 22:09:24,419 [ 1] INFO  Unity: MapEntityUpdateResponse: Entity: {0}
{0}event:{1} entity:{2}
2021-05-14 22:09:24,436 [ 1] INFO  Unity: SetDirection:(72, 69, 0)
2021-05-14 22:09:24,436 [ 1] INFO  Unity: OnMapEntitySyncRequest::ID :1 POS:SkillBridge.Message.NVector3, DIR:SkillBridge.Message.NVector3,SPD:0
2021-05-14 22:09:24,437 [ 1] INFO  Unity: OnEntityChanged::ID :1 POS:(5000, 4000, 820), DIR:(98, 21, 0),SPD:0
2021-05-14 22:09:24,437 [ 1] INFO  Unity: MapEntityUpdateResponse: Entity: {0}
{0}event:{1} entity:{2}
2021-05-14 22:09:24,453 [ 1] INFO  Unity: SetDirection:(74, 67, 0)
2021-05-14 22:09:24,453 [ 1] INFO  Unity: OnMapEntitySyncRequest::ID :1 POS:SkillBridge.Message.NVector3, DIR:SkillBridge.Message.NVector3,SPD:0
2021-05-14 22:09:24,453 [ 1] INFO  Unity: OnEntityChanged::ID :1 POS:(5000, 4000, 820), DIR:(98, 21, 0),SPD:0
2021-05-14 22:09:24,453 [ 1] INFO  Unity: MapEntityUpdateResponse: Entity: {0}
{0}event:{1} entity:{2}
2021-05-14 22:09:24,468 [ 1] INFO  Unity: SetDirection:(77, 64, 0)
2021-05-14 22:09:24,469 [ 1] INFO  Unity: OnMapEntitySyncRequest::ID :1 POS:SkillBridge.Message.NVector3, DIR:SkillBridge.Message.NVector3,SPD:0
2021-05-14 22:09:24,469 [ 1] INFO  Unity: OnEntityChanged::ID :1 POS:(5000, 4000, 820), DIR:(98, 21, 0),SPD:0
2021-05-14 22:09:24,470 [ 1] INFO  Unity: MapEntityUpdateResponse: Entity: {0}
{0}event:{1} entity:{2}
2021-05-14 22:09:24,485 [ 1] INFO  Unity: SetDirection:(79, 62, 0)
2021-05-14 22:09:24,486 [ 1] INFO  Unity: OnMapEntitySyncRequest::ID :1 POS:SkillBridge.Message.NVector3, DIR:SkillBridge.Message.NVector3,SPD:0
2021-05-14 22:09:24,487 [ 1] INFO  Unity: OnEntityChanged::ID :1 POS:(5000, 4000, 820), DIR:(98, 21, 0),SPD:0
2021-05-14 22:09:24,487 [ 1] INFO  Unity: MapEntityUpdateResponse: Entity: {0}
{0}event:{1} entity:{2}
2021-05-14 22:09:24,501 [ 1] INFO  Unity: SetDirection:(81, 59, 0)
2021-05-14 22:09:24,502 [ 1] INFO  Unity: OnMapEntitySyncRequest::ID :1 POS:SkillBridge.Message.NVector3, DIR:SkillBridge.Message.NVector3,SPD:0
2021-05-14 22:09:24,502 [ 1] INFO  Unity: OnEntityChanged::ID :1 POS:(5000, 4000, 820), DIR:(98, 21, 0),SPD:0
2021-05-14 22:09:24,502 [ 1] INFO  Unity: MapEntityUpdateResponse: Entity: {0}
{0}event:{1} entity:{2}
2021-05-14 22:09:24,519 [ 1] INFO  Unity: SetDirection:(83, 56, 0)
2021-05-14 22:09:24,519 [ 1] INFO  Unity: OnMapEntitySyncRequest::ID :1 POS:SkillBridge.Message.NVector3, DIR:SkillBridge.Message.NVector3,SPD:0
2021-05-14 22:09:24,520 [ 1] INFO  Unity: OnEntityChanged::ID :1 POS:(5000, 4000, 820), DIR:(98, 21, 0),SPD:0
2021-05-14 22:09:24,520 [ 1] INFO  Unity: MapEntityUpdateResponse: Entity: {0}
{0}event:{1} entity:{2}
2021-05-14 22:09:24,535 [ 1] INFO  Unity: MoveForward
2021-05-14 22:09:24,536 [ 1] INFO  Unity: OnMapEntitySyncRequest::ID :1 POS:SkillBridge.Message.NVector3, DIR:SkillBridge.Message.NVector3,SPD:0
2021-05-14 22:09:24,536 [ 1] INFO  Unity: SetDirection:(85, 53, 0)
2021-05-14 22:09:24,536 [ 1] INFO  Unity: OnMapEntitySyncRequest::ID :1 POS:SkillBridge.Message.NVector3, DIR:SkillBridge.Message.NVector3,SPD:0
2021-05-14 22:09:24,536 [ 1] INFO  Unity: OnEntityChanged::ID :1 POS:(5000, 4000, 820), DIR:(98, 21, 0),SPD:0
2021-05-14 22:09:24,536 [ 1] INFO  Unity: MapEntityUpdateResponse: Entity: {0}
{0}event:{1} entity:{2}
2021-05-14 22:09:24,551 [ 1] INFO  Unity: SetDirection:(87, 50, 0)
2021-05-14 22:09:24,552 [ 1] INFO  Unity: OnMapEntitySyncRequest::ID :1 POS:SkillBridge.Message.NVector3, DIR:SkillBridge.Message.NVector3,SPD:0
2021-05-14 22:09:24,552 [ 1] INFO  Unity: OnEntityChanged::ID :1 POS:(5000, 4000, 820), DIR:(98, 21, 0),SPD:0
2021-05-14 22:09:24,552 [ 1] INFO  Unity: MapEntityUpdateResponse: Entity: {0}
{0}event:{1} entity:{2}
2021-05-14 22:09:24,568 [ 1] INFO  Unity: SetDirection:(88, 47, 0)
2021-05-14 22:09:24,568 [ 1] INFO  Unity: OnMapEntitySyncRequest::ID :1 POS:SkillBridge.Message.NVector3, DIR:SkillBridge.Message.NVector3,SPD:0
2021-05-14 22:09:24,569 [ 1] INFO  Unity: OnEntityChanged::ID :1 POS:(5000, 4000, 820), DIR:(98, 21, 0),SPD:0
2021-05-14 22:09:24,569 [ 1] INFO  Unity: MapEntityUpdateResponse: Entity: {0}
{0}event:{1} entity:{2}
2021-05-14 22:09:24,585 [ 1] INFO  Unity: SetDirection:(90, 44, 0)
2021-05-14 22:09:24,585 [ 1] INFO  Unity: OnMapEntitySyncRequest::ID :1 POS:SkillBridge.Message.NVector3, DIR:SkillBridge.Message.NVector3,SPD:0
2021-05-14 22:09:24,586 [ 1] INFO  Unity: OnEntityChanged::ID :1 POS:(5000, 4000, 820), DIR:(98, 21, 0),SPD:0
2021-05-14 22:09:24,586 [ 1] INFO  Unity: MapEntityUpdateResponse: Entity: {0}
{0}event:{1} entity:{2}
2021-05-14 22:09:24,601 [ 1] INFO  Unity: SetDirection:(91, 41, 0)
2021-05-14 22:09:24,601 [ 1] INFO  Unity: OnMapEntitySyncRequest::ID :1 POS:SkillBridge.Message.NVector3, DIR:SkillBridge.Message.NVector3,SPD:0
2021-05-14 22:09:24,601 [ 1] INFO  Unity: OnEntityChanged::ID :1 POS:(5000, 4000, 820), DIR:(98, 21, 0),SPD:0
2021-05-14 22:09:24,601 [ 1] INFO  Unity: MapEntityUpdateResponse: Entity: {0}
{0}event:{1} entity:{2}
2021-05-14 22:09:24,618 [ 1] INFO  Unity: OnEntityChanged::ID :1 POS:(5000, 4000, 820), DIR:(98, 21, 0),SPD:0
2021-05-14 22:09:24,619 [ 1] INFO  Unity: MapEntityUpdateResponse: Entity: {0}
{0}event:{1} entity:{2}
2021-05-14 22:09:24,635 [ 1] INFO  Unity: OnEntityChanged::ID :1 POS:(5000, 4000, 820), DIR:(98, 21, 0),SPD:0
2021-05-14 22:09:24,635 [ 1] INFO  Unity: MapEntityUpdateResponse: Entity: {0}
{0}event:{1} entity:{2}
2021-05-14 22:09:24,785 [ 1] INFO  Unity: SetDirection:(100, 3, 0)
2021-05-14 22:09:24,785 [ 1] INFO  Unity: OnMapEntitySyncRequest::ID :1 POS:SkillBridge.Message.NVector3, DIR:SkillBridge.Message.NVector3,SPD:0
2021-05-14 22:09:24,802 [ 1] INFO  Unity: OnEntityChanged::ID :1 POS:(5000, 4000, 820), DIR:(98, 21, 0),SPD:0
2021-05-14 22:09:24,802 [ 1] INFO  Unity: MapEntityUpdateResponse: Entity: {0}
{0}event:{1} entity:{2}
2021-05-14 22:09:24,818 [ 1] INFO  Unity: SetDirection:(100, -3, 0)
2021-05-14 22:09:24,818 [ 1] INFO  Unity: OnMapEntitySyncRequest::ID :1 POS:SkillBridge.Message.NVector3, DIR:SkillBridge.Message.NVector3,SPD:0
2021-05-14 22:09:24,836 [ 1] INFO  Unity: OnEntityChanged::ID :1 POS:(5000, 4000, 820), DIR:(98, 21, 0),SPD:0
2021-05-14 22:09:24,836 [ 1] INFO  Unity: MapEntityUpdateResponse: Entity: {0}
{0}event:{1} entity:{2}
2021-05-14 22:09:24,851 [ 1] INFO  Unity: SetDirection:(99, -10, 0)
2021-05-14 22:09:24,852 [ 1] INFO  Unity: OnMapEntitySyncRequest::ID :1 POS:SkillBridge.Message.NVector3, DIR:SkillBridge.Message.NVector3,SPD:0
2021-05-14 22:09:24,869 [ 1] INFO  Unity: OnEntityChanged::ID :1 POS:(5000, 4000, 820), DIR:(98, 21, 0),SPD:0
2021-05-14 22:09:24,869 [ 1] INFO  Unity: MapEntityUpdateResponse: Entity: {0}
{0}event:{1} entity:{2}
2021-05-14 22:09:24,885 [ 1] INFO  Unity: SetDirection:(98, -17, 0)
2021-05-14 22:09:24,885 [ 1] INFO  Unity: OnMapEntitySyncRequest::ID :1 POS:SkillBridge.Message.NVector3, DIR:SkillBridge.Message.NVector3,SPD:0
2021-05-14 22:09:24,903 [ 1] INFO  Unity: OnEntityChanged::ID :1 POS:(5000, 4000, 820), DIR:(98, 21, 0),SPD:0
2021-05-14 22:09:24,903 [ 1] INFO  Unity: MapEntityUpdateResponse: Entity: {0}
{0}event:{1} entity:{2}
2021-05-14 22:09:24,918 [ 1] INFO  Unity: SetDirection:(97, -24, 0)
2021-05-14 22:09:24,918 [ 1] INFO  Unity: OnMapEntitySyncRequest::ID :1 POS:SkillBridge.Message.NVector3, DIR:SkillBridge.Message.NVector3,SPD:0
2021-05-14 22:09:24,935 [ 1] INFO  Unity: OnEntityChanged::ID :1 POS:(5000, 4000, 820), DIR:(98, 21, 0),SPD:0
2021-05-14 22:09:24,936 [ 1] INFO  Unity: MapEntityUpdateResponse: Entity: {0}
{0}event:{1} entity:{2}
2021-05-14 22:09:24,952 [ 1] INFO  Unity: SetDirection:(95, -31, 0)
2021-05-14 22:09:24,952 [ 1] INFO  Unity: OnMapEntitySyncRequest::ID :1 POS:SkillBridge.Message.NVector3, DIR:SkillBridge.Message.NVector3,SPD:0
2021-05-14 22:09:24,969 [ 1] INFO  Unity: OnEntityChanged::ID :1 POS:(5000, 4000, 820), DIR:(98, 21, 0),SPD:0
2021-05-14 22:09:24,969 [ 1] INFO  Unity: MapEntityUpdateResponse: Entity: {0}
{0}event:{1} entity:{2}
2021-05-14 22:09:24,985 [ 1] INFO  Unity: SetDirection:(93, -37, 0)
2021-05-14 22:09:24,985 [ 1] INFO  Unity: OnMapEntitySyncRequest::ID :1 POS:SkillBridge.Message.NVector3, DIR:SkillBridge.Message.NVector3,SPD:0
2021-05-14 22:09:25,002 [ 1] INFO  Unity: OnEntityChanged::ID :1 POS:(5000, 4000, 820), DIR:(98, 21, 0),SPD:0
2021-05-14 22:09:25,002 [ 1] INFO  Unity: MapEntityUpdateResponse: Entity: {0}
{0}event:{1} entity:{2}
2021-05-14 22:09:25,018 [ 1] INFO  Unity: SetDirection:(90, -44, 0)
2021-05-14 22:09:25,018 [ 1] INFO  Unity: OnMapEntitySyncRequest::ID :1 POS:SkillBridge.Message.NVector3, DIR:SkillBridge.Message.NVector3,SPD:0
2021-05-14 22:09:25,036 [ 1] INFO  Unity: OnEntityChanged::ID :1 POS:(5000, 4000, 820), DIR:(98, 21, 0),SPD:0
2021-05-14 22:09:25,036 [ 1] INFO  Unity: MapEntityUpdateResponse: Entity: {0}
{0}event:{1} entity:{2}
2021-05-14 22:09:25,052 [ 1] INFO  Unity: SetDirection:(87, -50, 0)
2021-05-14 22:09:25,052 [ 1] INFO  Unity: OnMapEntitySyncRequest::ID :1 POS:SkillBridge.Message.NVector3, DIR:SkillBridge.Message.NVector3,SPD:0
2021-05-14 22:09:25,069 [ 1] INFO  Unity: OnEntityChanged::ID :1 POS:(5000, 4000, 820), DIR:(98, 21, 0),SPD:0
2021-05-14 22:09:25,069 [ 1] INFO  Unity: MapEntityUpdateResponse: Entity: {0}
{0}event:{1} entity:{2}
2021-05-14 22:09:25,084 [ 1] INFO  Unity: SetDirection:(83, -56, 0)
2021-05-14 22:09:25,084 [ 1] INFO  Unity: OnMapEntitySyncRequest::ID :1 POS:SkillBridge.Message.NVector3, DIR:SkillBridge.Message.NVector3,SPD:0
2021-05-14 22:09:25,102 [ 1] INFO  Unity: OnEntityChanged::ID :1 POS:(5000, 4000, 820), DIR:(98, 21, 0),SPD:0
2021-05-14 22:09:25,102 [ 1] INFO  Unity: MapEntityUpdateResponse: Entity: {0}
{0}event:{1} entity:{2}
2021-05-14 22:09:25,117 [ 1] INFO  Unity: SetDirection:(79, -62, 0)
2021-05-14 22:09:25,118 [ 1] INFO  Unity: OnMapEntitySyncRequest::ID :1 POS:SkillBridge.Message.NVector3, DIR:SkillBridge.Message.NVector3,SPD:0
2021-05-14 22:09:25,135 [ 1] INFO  Unity: OnEntityChanged::ID :1 POS:(5000, 4000, 820), DIR:(98, 21, 0),SPD:0
2021-05-14 22:09:25,135 [ 1] INFO  Unity: MapEntityUpdateResponse: Entity: {0}
{0}event:{1} entity:{2}
2021-05-14 22:09:25,151 [ 1] INFO  Unity: SetDirection:(74, -67, 0)
2021-05-14 22:09:25,151 [ 1] INFO  Unity: OnMapEntitySyncRequest::ID :1 POS:SkillBridge.Message.NVector3, DIR:SkillBridge.Message.NVector3,SPD:0
2021-05-14 22:09:25,168 [ 1] INFO  Unity: OnEntityChanged::ID :1 POS:(5000, 4000, 820), DIR:(98, 21, 0),SPD:0
2021-05-14 22:09:25,168 [ 1] INFO  Unity: MapEntityUpdateResponse: Entity: {0}
{0}event:{1} entity:{2}
2021-05-14 22:09:25,184 [ 1] INFO  Unity: SetDirection:(69, -72, 0)
2021-05-14 22:09:25,184 [ 1] INFO  Unity: OnMapEntitySyncRequest::ID :1 POS:SkillBridge.Message.NVector3, DIR:SkillBridge.Message.NVector3,SPD:0
2021-05-14 22:09:25,201 [ 1] INFO  Unity: OnEntityChanged::ID :1 POS:(5000, 4000, 820), DIR:(98, 21, 0),SPD:0
2021-05-14 22:09:25,201 [ 1] INFO  Unity: MapEntityUpdateResponse: Entity: {0}
{0}event:{1} entity:{2}
2021-05-14 22:09:25,218 [ 1] INFO  Unity: SetDirection:(64, -77, 0)
2021-05-14 22:09:25,218 [ 1] INFO  Unity: OnMapEntitySyncRequest::ID :1 POS:SkillBridge.Message.NVector3, DIR:SkillBridge.Message.NVector3,SPD:0
2021-05-14 22:09:25,235 [ 1] INFO  Unity: OnEntityChanged::ID :1 POS:(5000, 4000, 820), DIR:(98, 21, 0),SPD:0
2021-05-14 22:09:25,235 [ 1] INFO  Unity: MapEntityUpdateResponse: Entity: {0}
{0}event:{1} entity:{2}
2021-05-14 22:09:25,251 [ 1] INFO  Unity: SetDirection:(59, -81, 0)
2021-05-14 22:09:25,251 [ 1] INFO  Unity: OnMapEntitySyncRequest::ID :1 POS:SkillBridge.Message.NVector3, DIR:SkillBridge.Message.NVector3,SPD:0
2021-05-14 22:09:25,269 [ 1] INFO  Unity: OnEntityChanged::ID :1 POS:(5000, 4000, 820), DIR:(98, 21, 0),SPD:0
2021-05-14 22:09:25,269 [ 1] INFO  Unity: MapEntityUpdateResponse: Entity: {0}
{0}event:{1} entity:{2}
2021-05-14 22:09:25,284 [ 1] INFO  Unity: SetDirection:(53, -85, 0)
2021-05-14 22:09:25,284 [ 1] INFO  Unity: OnMapEntitySyncRequest::ID :1 POS:SkillBridge.Message.NVector3, DIR:SkillBridge.Message.NVector3,SPD:0
2021-05-14 22:09:25,302 [ 1] INFO  Unity: OnEntityChanged::ID :1 POS:(5000, 4000, 820), DIR:(98, 21, 0),SPD:0
2021-05-14 22:09:25,302 [ 1] INFO  Unity: MapEntityUpdateResponse: Entity: {0}
{0}event:{1} entity:{2}
2021-05-14 22:09:25,318 [ 1] INFO  Unity: SetDirection:(47, -88, 0)
2021-05-14 22:09:25,318 [ 1] INFO  Unity: OnMapEntitySyncRequest::ID :1 POS:SkillBridge.Message.NVector3, DIR:SkillBridge.Message.NVector3,SPD:0
2021-05-14 22:09:25,335 [ 1] INFO  Unity: OnEntityChanged::ID :1 POS:(5000, 4000, 820), DIR:(98, 21, 0),SPD:0
2021-05-14 22:09:25,335 [ 1] INFO  Unity: MapEntityUpdateResponse: Entity: {0}
{0}event:{1} entity:{2}
2021-05-14 22:09:25,351 [ 1] INFO  Unity: SetDirection:(41, -91, 0)
2021-05-14 22:09:25,351 [ 1] INFO  Unity: OnMapEntitySyncRequest::ID :1 POS:SkillBridge.Message.NVector3, DIR:SkillBridge.Message.NVector3,SPD:0
2021-05-14 22:09:25,368 [ 1] INFO  Unity: OnEntityChanged::ID :1 POS:(5000, 4000, 820), DIR:(98, 21, 0),SPD:0
2021-05-14 22:09:25,369 [ 1] INFO  Unity: MapEntityUpdateResponse: Entity: {0}
{0}event:{1} entity:{2}
2021-05-14 22:09:25,384 [ 1] INFO  Unity: SetDirection:(34, -94, 0)
2021-05-14 22:09:25,384 [ 1] INFO  Unity: OnMapEntitySyncRequest::ID :1 POS:SkillBridge.Message.NVector3, DIR:SkillBridge.Message.NVector3,SPD:0
2021-05-14 22:09:25,402 [ 1] INFO  Unity: OnEntityChanged::ID :1 POS:(5000, 4000, 820), DIR:(98, 21, 0),SPD:0
2021-05-14 22:09:25,402 [ 1] INFO  Unity: MapEntityUpdateResponse: Entity: {0}
{0}event:{1} entity:{2}
2021-05-14 22:09:25,419 [ 1] INFO  Unity: SetDirection:(28, -96, 0)
2021-05-14 22:09:25,419 [ 1] INFO  Unity: OnMapEntitySyncRequest::ID :1 POS:SkillBridge.Message.NVector3, DIR:SkillBridge.Message.NVector3,SPD:0
2021-05-14 22:09:25,435 [ 1] INFO  Unity: OnEntityChanged::ID :1 POS:(5000, 4000, 820), DIR:(98, 21, 0),SPD:0
2021-05-14 22:09:25,436 [ 1] INFO  Unity: MapEntityUpdateResponse: Entity: {0}
{0}event:{1} entity:{2}
2021-05-14 22:09:25,451 [ 1] INFO  Unity: SetDirection:(21, -98, 0)
2021-05-14 22:09:25,452 [ 1] INFO  Unity: OnMapEntitySyncRequest::ID :1 POS:SkillBridge.Message.NVector3, DIR:SkillBridge.Message.NVector3,SPD:0
2021-05-14 22:09:25,469 [ 1] INFO  Unity: OnEntityChanged::ID :1 POS:(5000, 4000, 820), DIR:(98, 21, 0),SPD:0
2021-05-14 22:09:25,469 [ 1] INFO  Unity: MapEntityUpdateResponse: Entity: {0}
{0}event:{1} entity:{2}
2021-05-14 22:09:25,485 [ 1] INFO  Unity: SetDirection:(14, -99, 0)
2021-05-14 22:09:25,485 [ 1] INFO  Unity: OnMapEntitySyncRequest::ID :1 POS:SkillBridge.Message.NVector3, DIR:SkillBridge.Message.NVector3,SPD:0
2021-05-14 22:09:25,502 [ 1] INFO  Unity: OnEntityChanged::ID :1 POS:(5000, 4000, 820), DIR:(98, 21, 0),SPD:0
2021-05-14 22:09:25,503 [ 1] INFO  Unity: MapEntityUpdateResponse: Entity: {0}
{0}event:{1} entity:{2}
2021-05-14 22:09:25,518 [ 1] INFO  Unity: SetDirection:(7, -100, 0)
2021-05-14 22:09:25,519 [ 1] INFO  Unity: OnMapEntitySyncRequest::ID :1 POS:SkillBridge.Message.NVector3, DIR:SkillBridge.Message.NVector3,SPD:0
2021-05-14 22:09:25,536 [ 1] INFO  Unity: OnEntityChanged::ID :1 POS:(5000, 4000, 820), DIR:(98, 21, 0),SPD:0
2021-05-14 22:09:25,536 [ 1] INFO  Unity: MapEntityUpdateResponse: Entity: {0}
{0}event:{1} entity:{2}
2021-05-14 22:09:25,551 [ 1] INFO  Unity: SetDirection:(0, -100, 0)
2021-05-14 22:09:25,551 [ 1] INFO  Unity: OnMapEntitySyncRequest::ID :1 POS:SkillBridge.Message.NVector3, DIR:SkillBridge.Message.NVector3,SPD:0
2021-05-14 22:09:25,569 [ 1] INFO  Unity: OnEntityChanged::ID :1 POS:(5000, 4000, 820), DIR:(98, 21, 0),SPD:0
2021-05-14 22:09:25,569 [ 1] INFO  Unity: MapEntityUpdateResponse: Entity: {0}
{0}event:{1} entity:{2}
2021-05-14 22:09:25,585 [ 1] INFO  Unity: SetDirection:(-7, -100, 0)
2021-05-14 22:09:25,585 [ 1] INFO  Unity: OnMapEntitySyncRequest::ID :1 POS:SkillBridge.Message.NVector3, DIR:SkillBridge.Message.NVector3,SPD:0
2021-05-14 22:09:25,602 [ 1] INFO  Unity: OnEntityChanged::ID :1 POS:(5000, 4000, 820), DIR:(98, 21, 0),SPD:0
2021-05-14 22:09:25,602 [ 1] INFO  Unity: MapEntityUpdateResponse: Entity: {0}
{0}event:{1} entity:{2}
2021-05-14 22:09:25,618 [ 1] INFO  Unity: SetDirection:(-14, -99, 0)
2021-05-14 22:09:25,618 [ 1] INFO  Unity: OnMapEntitySyncRequest::ID :1 POS:SkillBridge.Message.NVector3, DIR:SkillBridge.Message.NVector3,SPD:0
2021-05-14 22:09:25,636 [ 1] INFO  Unity: OnEntityChanged::ID :1 POS:(5000, 4000, 820), DIR:(98, 21, 0),SPD:0
2021-05-14 22:09:25,636 [ 1] INFO  Unity: MapEntityUpdateResponse: Entity: {0}
{0}event:{1} entity:{2}
2021-05-14 22:09:25,651 [ 1] INFO  Unity: SetDirection:(-21, -98, 0)
2021-05-14 22:09:25,651 [ 1] INFO  Unity: OnMapEntitySyncRequest::ID :1 POS:SkillBridge.Message.NVector3, DIR:SkillBridge.Message.NVector3,SPD:0
2021-05-14 22:09:25,669 [ 1] INFO  Unity: OnEntityChanged::ID :1 POS:(5000, 4000, 820), DIR:(98, 21, 0),SPD:0
2021-05-14 22:09:25,669 [ 1] INFO  Unity: MapEntityUpdateResponse: Entity: {0}
{0}event:{1} entity:{2}
2021-05-14 22:09:25,685 [ 1] INFO  Unity: SetDirection:(-28, -96, 0)
2021-05-14 22:09:25,685 [ 1] INFO  Unity: OnMapEntitySyncRequest::ID :1 POS:SkillBridge.Message.NVector3, DIR:SkillBridge.Message.NVector3,SPD:0
2021-05-14 22:09:25,703 [ 1] INFO  Unity: OnEntityChanged::ID :1 POS:(5000, 4000, 820), DIR:(98, 21, 0),SPD:0
2021-05-14 22:09:25,703 [ 1] INFO  Unity: MapEntityUpdateResponse: Entity: {0}
{0}event:{1} entity:{2}
2021-05-14 22:09:25,718 [ 1] INFO  Unity: SetDirection:(-34, -94, 0)
2021-05-14 22:09:25,718 [ 1] INFO  Unity: OnMapEntitySyncRequest::ID :1 POS:SkillBridge.Message.NVector3, DIR:SkillBridge.Message.NVector3,SPD:0
2021-05-14 22:09:25,736 [ 1] INFO  Unity: OnEntityChanged::ID :1 POS:(5000, 4000, 820), DIR:(98, 21, 0),SPD:0
2021-05-14 22:09:25,736 [ 1] INFO  Unity: MapEntityUpdateResponse: Entity: {0}
{0}event:{1} entity:{2}
2021-05-14 22:09:25,752 [ 1] INFO  Unity: SetDirection:(-41, -91, 0)
2021-05-14 22:09:25,752 [ 1] INFO  Unity: OnMapEntitySyncRequest::ID :1 POS:SkillBridge.Message.NVector3, DIR:SkillBridge.Message.NVector3,SPD:0
2021-05-14 22:09:25,769 [ 1] INFO  Unity: OnEntityChanged::ID :1 POS:(5000, 4000, 820), DIR:(98, 21, 0),SPD:0
2021-05-14 22:09:25,769 [ 1] INFO  Unity: MapEntityUpdateResponse: Entity: {0}
{0}event:{1} entity:{2}
2021-05-14 22:09:25,785 [ 1] INFO  Unity: SetDirection:(-47, -88, 0)
2021-05-14 22:09:25,785 [ 1] INFO  Unity: OnMapEntitySyncRequest::ID :1 POS:SkillBridge.Message.NVector3, DIR:SkillBridge.Message.NVector3,SPD:0
2021-05-14 22:09:25,802 [ 1] INFO  Unity: OnEntityChanged::ID :1 POS:(5000, 4000, 820), DIR:(98, 21, 0),SPD:0
2021-05-14 22:09:25,802 [ 1] INFO  Unity: MapEntityUpdateResponse: Entity: {0}
{0}event:{1} entity:{2}
2021-05-14 22:09:25,819 [ 1] INFO  Unity: SetDirection:(-53, -85, 0)
2021-05-14 22:09:25,819 [ 1] INFO  Unity: OnMapEntitySyncRequest::ID :1 POS:SkillBridge.Message.NVector3, DIR:SkillBridge.Message.NVector3,SPD:0
2021-05-14 22:09:25,836 [ 1] INFO  Unity: OnEntityChanged::ID :1 POS:(5000, 4000, 820), DIR:(98, 21, 0),SPD:0
2021-05-14 22:09:25,836 [ 1] INFO  Unity: MapEntityUpdateResponse: Entity: {0}
{0}event:{1} entity:{2}
2021-05-14 22:09:25,852 [ 1] INFO  Unity: SetDirection:(-59, -81, 0)
2021-05-14 22:09:25,852 [ 1] INFO  Unity: OnMapEntitySyncRequest::ID :1 POS:SkillBridge.Message.NVector3, DIR:SkillBridge.Message.NVector3,SPD:0
2021-05-14 22:09:25,870 [ 1] INFO  Unity: OnEntityChanged::ID :1 POS:(5000, 4000, 820), DIR:(98, 21, 0),SPD:0
2021-05-14 22:09:25,870 [ 1] INFO  Unity: MapEntityUpdateResponse: Entity: {0}
{0}event:{1} entity:{2}
2021-05-14 22:09:25,886 [ 1] INFO  Unity: SetDirection:(-64, -77, 0)
2021-05-14 22:09:25,886 [ 1] INFO  Unity: OnMapEntitySyncRequest::ID :1 POS:SkillBridge.Message.NVector3, DIR:SkillBridge.Message.NVector3,SPD:0
2021-05-14 22:09:25,903 [ 1] INFO  Unity: OnEntityChanged::ID :1 POS:(5000, 4000, 820), DIR:(98, 21, 0),SPD:0
2021-05-14 22:09:25,904 [ 1] INFO  Unity: MapEntityUpdateResponse: Entity: {0}
{0}event:{1} entity:{2}
2021-05-14 22:09:25,919 [ 1] INFO  Unity: SetDirection:(-69, -72, 0)
2021-05-14 22:09:25,919 [ 1] INFO  Unity: OnMapEntitySyncRequest::ID :1 POS:SkillBridge.Message.NVector3, DIR:SkillBridge.Message.NVector3,SPD:0
2021-05-14 22:09:25,936 [ 1] INFO  Unity: OnEntityChanged::ID :1 POS:(5000, 4000, 820), DIR:(98, 21, 0),SPD:0
2021-05-14 22:09:25,936 [ 1] INFO  Unity: MapEntityUpdateResponse: Entity: {0}
{0}event:{1} entity:{2}
2021-05-14 22:09:25,953 [ 1] INFO  Unity: SetDirection:(-74, -67, 0)
2021-05-14 22:09:25,953 [ 1] INFO  Unity: OnMapEntitySyncRequest::ID :1 POS:SkillBridge.Message.NVector3, DIR:SkillBridge.Message.NVector3,SPD:0
2021-05-14 22:09:25,969 [ 1] INFO  Unity: OnEntityChanged::ID :1 POS:(5000, 4000, 820), DIR:(98, 21, 0),SPD:0
2021-05-14 22:09:25,970 [ 1] INFO  Unity: MapEntityUpdateResponse: Entity: {0}
{0}event:{1} entity:{2}
2021-05-14 22:09:25,985 [ 1] INFO  Unity: SetDirection:(-79, -62, 0)
2021-05-14 22:09:25,985 [ 1] INFO  Unity: OnMapEntitySyncRequest::ID :1 POS:SkillBridge.Message.NVector3, DIR:SkillBridge.Message.NVector3,SPD:0
2021-05-14 22:09:26,002 [ 1] INFO  Unity: OnEntityChanged::ID :1 POS:(5000, 4000, 820), DIR:(98, 21, 0),SPD:0
2021-05-14 22:09:26,002 [ 1] INFO  Unity: MapEntityUpdateResponse: Entity: {0}
{0}event:{1} entity:{2}
2021-05-14 22:09:26,019 [ 1] INFO  Unity: SetDirection:(-83, -56, 0)
2021-05-14 22:09:26,019 [ 1] INFO  Unity: OnMapEntitySyncRequest::ID :1 POS:SkillBridge.Message.NVector3, DIR:SkillBridge.Message.NVector3,SPD:0
2021-05-14 22:09:26,036 [ 1] INFO  Unity: Stop
2021-05-14 22:09:26,036 [ 1] INFO  Unity: OnMapEntitySyncRequest::ID :1 POS:SkillBridge.Message.NVector3, DIR:SkillBridge.Message.NVector3,SPD:0
2021-05-14 22:09:26,036 [ 1] INFO  Unity: OnEntityChanged::ID :1 POS:(5000, 4000, 820), DIR:(98, 21, 0),SPD:0
2021-05-14 22:09:26,036 [ 1] INFO  Unity: MapEntityUpdateResponse: Entity: {0}
{0}event:{1} entity:{2}
2021-05-14 22:09:26,052 [ 1] INFO  Unity: SetDirection:(-87, -50, 0)
2021-05-14 22:09:26,052 [ 1] INFO  Unity: OnMapEntitySyncRequest::ID :1 POS:SkillBridge.Message.NVector3, DIR:SkillBridge.Message.NVector3,SPD:0
2021-05-14 22:09:26,053 [ 1] INFO  Unity: OnEntityChanged::ID :1 POS:(5000, 4000, 820), DIR:(98, 21, 0),SPD:0
2021-05-14 22:09:26,053 [ 1] INFO  Unity: MapEntityUpdateResponse: Entity: {0}
{0}event:{1} entity:{2}
2021-05-14 22:09:26,069 [ 1] INFO  Unity: SetDirection:(-88, -47, 0)
2021-05-14 22:09:26,072 [ 1] INFO  Unity: OnMapEntitySyncRequest::ID :1 POS:SkillBridge.Message.NVector3, DIR:SkillBridge.Message.NVector3,SPD:0
2021-05-14 22:09:26,072 [ 1] INFO  Unity: OnEntityChanged::ID :1 POS:(5000, 4000, 820), DIR:(98, 21, 0),SPD:0
2021-05-14 22:09:26,073 [ 1] INFO  Unity: MapEntityUpdateResponse: Entity: {0}
{0}event:{1} entity:{2}
2021-05-14 22:09:26,086 [ 1] INFO  Unity: SetDirection:(-90, -44, 0)
2021-05-14 22:09:26,086 [ 1] INFO  Unity: OnMapEntitySyncRequest::ID :1 POS:SkillBridge.Message.NVector3, DIR:SkillBridge.Message.NVector3,SPD:0
2021-05-14 22:09:26,087 [ 1] INFO  Unity: OnEntityChanged::ID :1 POS:(5000, 4000, 820), DIR:(98, 21, 0),SPD:0
2021-05-14 22:09:26,087 [ 1] INFO  Unity: MapEntityUpdateResponse: Entity: {0}
{0}event:{1} entity:{2}
2021-05-14 22:09:26,102 [ 1] INFO  Unity: SetDirection:(-91, -41, 0)
2021-05-14 22:09:26,103 [ 1] INFO  Unity: OnMapEntitySyncRequest::ID :1 POS:SkillBridge.Message.NVector3, DIR:SkillBridge.Message.NVector3,SPD:0
2021-05-14 22:09:26,103 [ 1] INFO  Unity: OnEntityChanged::ID :1 POS:(5000, 4000, 820), DIR:(98, 21, 0),SPD:0
2021-05-14 22:09:26,103 [ 1] INFO  Unity: MapEntityUpdateResponse: Entity: {0}
{0}event:{1} entity:{2}
2021-05-14 22:09:26,119 [ 1] INFO  Unity: SetDirection:(-93, -37, 0)
2021-05-14 22:09:26,119 [ 1] INFO  Unity: OnMapEntitySyncRequest::ID :1 POS:SkillBridge.Message.NVector3, DIR:SkillBridge.Message.NVector3,SPD:0
2021-05-14 22:09:26,120 [ 1] INFO  Unity: OnEntityChanged::ID :1 POS:(5000, 4000, 820), DIR:(98, 21, 0),SPD:0
2021-05-14 22:09:26,120 [ 1] INFO  Unity: MapEntityUpdateResponse: Entity: {0}
{0}event:{1} entity:{2}
2021-05-14 22:09:26,136 [ 1] INFO  Unity: SetDirection:(-94, -34, 0)
2021-05-14 22:09:26,136 [ 1] INFO  Unity: OnMapEntitySyncRequest::ID :1 POS:SkillBridge.Message.NVector3, DIR:SkillBridge.Message.NVector3,SPD:0
2021-05-14 22:09:26,136 [ 1] INFO  Unity: OnEntityChanged::ID :1 POS:(5000, 4000, 820), DIR:(98, 21, 0),SPD:0
2021-05-14 22:09:26,137 [ 1] INFO  Unity: MapEntityUpdateResponse: Entity: {0}
{0}event:{1} entity:{2}
2021-05-14 22:09:26,152 [ 1] INFO  Unity: SetDirection:(-95, -31, 0)
2021-05-14 22:09:26,152 [ 1] INFO  Unity: OnMapEntitySyncRequest::ID :1 POS:SkillBridge.Message.NVector3, DIR:SkillBridge.Message.NVector3,SPD:0
2021-05-14 22:09:26,153 [ 1] INFO  Unity: OnEntityChanged::ID :1 POS:(5000, 4000, 820), DIR:(98, 21, 0),SPD:0
2021-05-14 22:09:26,153 [ 1] INFO  Unity: MapEntityUpdateResponse: Entity: {0}
{0}event:{1} entity:{2}
2021-05-14 22:09:26,170 [ 1] INFO  Unity: SetDirection:(-96, -28, 0)
2021-05-14 22:09:26,170 [ 1] INFO  Unity: OnMapEntitySyncRequest::ID :1 POS:SkillBridge.Message.NVector3, DIR:SkillBridge.Message.NVector3,SPD:0
2021-05-14 22:09:26,170 [ 1] INFO  Unity: OnEntityChanged::ID :1 POS:(5000, 4000, 820), DIR:(98, 21, 0),SPD:0
2021-05-14 22:09:26,170 [ 1] INFO  Unity: MapEntityUpdateResponse: Entity: {0}
{0}event:{1} entity:{2}
2021-05-14 22:09:26,186 [ 1] INFO  Unity: SetDirection:(-97, -24, 0)
2021-05-14 22:09:26,186 [ 1] INFO  Unity: OnMapEntitySyncRequest::ID :1 POS:SkillBridge.Message.NVector3, DIR:SkillBridge.Message.NVector3,SPD:0
2021-05-14 22:09:26,187 [ 1] INFO  Unity: OnEntityChanged::ID :1 POS:(5000, 4000, 820), DIR:(98, 21, 0),SPD:0
2021-05-14 22:09:26,187 [ 1] INFO  Unity: MapEntityUpdateResponse: Entity: {0}
{0}event:{1} entity:{2}
2021-05-14 22:09:26,203 [ 1] INFO  Unity: SetDirection:(-98, -21, 0)
2021-05-14 22:09:26,203 [ 1] INFO  Unity: OnMapEntitySyncRequest::ID :1 POS:SkillBridge.Message.NVector3, DIR:SkillBridge.Message.NVector3,SPD:0
2021-05-14 22:09:26,204 [ 1] INFO  Unity: OnEntityChanged::ID :1 POS:(5000, 4000, 820), DIR:(98, 21, 0),SPD:0
2021-05-14 22:09:26,204 [ 1] INFO  Unity: MapEntityUpdateResponse: Entity: {0}
{0}event:{1} entity:{2}
2021-05-14 22:09:26,219 [ 1] INFO  Unity: SetDirection:(-98, -17, 0)
2021-05-14 22:09:26,219 [ 1] INFO  Unity: OnMapEntitySyncRequest::ID :1 POS:SkillBridge.Message.NVector3, DIR:SkillBridge.Message.NVector3,SPD:0
2021-05-14 22:09:26,220 [ 1] INFO  Unity: OnEntityChanged::ID :1 POS:(5000, 4000, 820), DIR:(98, 21, 0),SPD:0
2021-05-14 22:09:26,220 [ 1] INFO  Unity: MapEntityUpdateResponse: Entity: {0}
{0}event:{1} entity:{2}
2021-05-14 22:09:26,236 [ 1] INFO  Unity: SetDirection:(-99, -14, 0)
2021-05-14 22:09:26,236 [ 1] INFO  Unity: OnMapEntitySyncRequest::ID :1 POS:SkillBridge.Message.NVector3, DIR:SkillBridge.Message.NVector3,SPD:0
2021-05-14 22:09:26,237 [ 1] INFO  Unity: OnEntityChanged::ID :1 POS:(5000, 4000, 820), DIR:(98, 21, 0),SPD:0
2021-05-14 22:09:26,237 [ 1] INFO  Unity: MapEntityUpdateResponse: Entity: {0}
{0}event:{1} entity:{2}
2021-05-14 22:09:26,253 [ 1] INFO  Unity: SetDirection:(-99, -10, 0)
2021-05-14 22:09:26,253 [ 1] INFO  Unity: OnMapEntitySyncRequest::ID :1 POS:SkillBridge.Message.NVector3, DIR:SkillBridge.Message.NVector3,SPD:0
2021-05-14 22:09:26,253 [ 1] INFO  Unity: OnEntityChanged::ID :1 POS:(5000, 4000, 820), DIR:(98, 21, 0),SPD:0
2021-05-14 22:09:26,254 [ 1] INFO  Unity: MapEntityUpdateResponse: Entity: {0}
{0}event:{1} entity:{2}
2021-05-14 22:09:26,269 [ 1] INFO  Unity: SetDirection:(-100, -7, 0)
2021-05-14 22:09:26,269 [ 1] INFO  Unity: OnMapEntitySyncRequest::ID :1 POS:SkillBridge.Message.NVector3, DIR:SkillBridge.Message.NVector3,SPD:0
2021-05-14 22:09:26,270 [ 1] INFO  Unity: OnEntityChanged::ID :1 POS:(5000, 4000, 820), DIR:(98, 21, 0),SPD:0
2021-05-14 22:09:26,270 [ 1] INFO  Unity: MapEntityUpdateResponse: Entity: {0}
{0}event:{1} entity:{2}
2021-05-14 22:09:26,285 [ 1] INFO  Unity: SetDirection:(-100, -3, 0)
2021-05-14 22:09:26,285 [ 1] INFO  Unity: OnMapEntitySyncRequest::ID :1 POS:SkillBridge.Message.NVector3, DIR:SkillBridge.Message.NVector3,SPD:0
2021-05-14 22:09:26,286 [ 1] INFO  Unity: OnEntityChanged::ID :1 POS:(5000, 4000, 820), DIR:(98, 21, 0),SPD:0
2021-05-14 22:09:26,286 [ 1] INFO  Unity: MapEntityUpdateResponse: Entity: {0}
{0}event:{1} entity:{2}
2021-05-14 22:09:26,303 [ 1] INFO  Unity: SetDirection:(-100, 0, 0)
2021-05-14 22:09:26,303 [ 1] INFO  Unity: OnMapEntitySyncRequest::ID :1 POS:SkillBridge.Message.NVector3, DIR:SkillBridge.Message.NVector3,SPD:0
2021-05-14 22:09:26,304 [ 1] INFO  Unity: OnEntityChanged::ID :1 POS:(5000, 4000, 820), DIR:(98, 21, 0),SPD:0
2021-05-14 22:09:26,304 [ 1] INFO  Unity: MapEntityUpdateResponse: Entity: {0}
{0}event:{1} entity:{2}
2021-05-14 22:09:26,319 [ 1] INFO  Unity: SetDirection:(-100, 3, 0)
2021-05-14 22:09:26,319 [ 1] INFO  Unity: OnMapEntitySyncRequest::ID :1 POS:SkillBridge.Message.NVector3, DIR:SkillBridge.Message.NVector3,SPD:0
2021-05-14 22:09:26,320 [ 1] INFO  Unity: OnEntityChanged::ID :1 POS:(5000, 4000, 820), DIR:(98, 21, 0),SPD:0
2021-05-14 22:09:26,320 [ 1] INFO  Unity: MapEntityUpdateResponse: Entity: {0}
{0}event:{1} entity:{2}
2021-05-14 22:09:26,336 [ 1] INFO  Unity: SetDirection:(-100, 7, 0)
2021-05-14 22:09:26,336 [ 1] INFO  Unity: OnMapEntitySyncRequest::ID :1 POS:SkillBridge.Message.NVector3, DIR:SkillBridge.Message.NVector3,SPD:0
2021-05-14 22:09:26,336 [ 1] INFO  Unity: OnEntityChanged::ID :1 POS:(5000, 4000, 820), DIR:(98, 21, 0),SPD:0
2021-05-14 22:09:26,336 [ 1] INFO  Unity: MapEntityUpdateResponse: Entity: {0}
{0}event:{1} entity:{2}
2021-05-14 22:09:26,352 [ 1] INFO  Unity: MoveBack
2021-05-14 22:09:26,352 [ 1] INFO  Unity: OnMapEntitySyncRequest::ID :1 POS:SkillBridge.Message.NVector3, DIR:SkillBridge.Message.NVector3,SPD:0
2021-05-14 22:09:26,352 [ 1] INFO  Unity: SetDirection:(-99, 10, 0)
2021-05-14 22:09:26,352 [ 1] INFO  Unity: OnMapEntitySyncRequest::ID :1 POS:SkillBridge.Message.NVector3, DIR:SkillBridge.Message.NVector3,SPD:0
2021-05-14 22:09:26,353 [ 1] INFO  Unity: OnEntityChanged::ID :1 POS:(5000, 4000, 820), DIR:(98, 21, 0),SPD:0
2021-05-14 22:09:26,353 [ 1] INFO  Unity: MapEntityUpdateResponse: Entity: {0}
{0}event:{1} entity:{2}
2021-05-14 22:09:26,368 [ 1] INFO  Unity: SetDirection:(-99, 14, 0)
2021-05-14 22:09:26,368 [ 1] INFO  Unity: OnMapEntitySyncRequest::ID :1 POS:SkillBridge.Message.NVector3, DIR:SkillBridge.Message.NVector3,SPD:0
2021-05-14 22:09:26,369 [ 1] INFO  Unity: OnEntityChanged::ID :1 POS:(5000, 4000, 820), DIR:(98, 21, 0),SPD:0
2021-05-14 22:09:26,369 [ 1] INFO  Unity: MapEntityUpdateResponse: Entity: {0}
{0}event:{1} entity:{2}
2021-05-14 22:09:26,385 [ 1] INFO  Unity: SetDirection:(-98, 17, 0)
2021-05-14 22:09:26,385 [ 1] INFO  Unity: OnMapEntitySyncRequest::ID :1 POS:SkillBridge.Message.NVector3, DIR:SkillBridge.Message.NVector3,SPD:0
2021-05-14 22:09:26,386 [ 1] INFO  Unity: OnEntityChanged::ID :1 POS:(5000, 4000, 820), DIR:(98, 21, 0),SPD:0
2021-05-14 22:09:26,386 [ 1] INFO  Unity: MapEntityUpdateResponse: Entity: {0}
{0}event:{1} entity:{2}
2021-05-14 22:09:26,403 [ 1] INFO  Unity: SetDirection:(-98, 21, 0)
2021-05-14 22:09:26,403 [ 1] INFO  Unity: OnMapEntitySyncRequest::ID :1 POS:SkillBridge.Message.NVector3, DIR:SkillBridge.Message.NVector3,SPD:0
2021-05-14 22:09:26,404 [ 1] INFO  Unity: OnEntityChanged::ID :1 POS:(5000, 4000, 820), DIR:(98, 21, 0),SPD:0
2021-05-14 22:09:26,404 [ 1] INFO  Unity: MapEntityUpdateResponse: Entity: {0}
{0}event:{1} entity:{2}
2021-05-14 22:09:26,419 [ 1] INFO  Unity: SetDirection:(-97, 24, 0)
2021-05-14 22:09:26,419 [ 1] INFO  Unity: OnMapEntitySyncRequest::ID :1 POS:SkillBridge.Message.NVector3, DIR:SkillBridge.Message.NVector3,SPD:0
2021-05-14 22:09:26,420 [ 1] INFO  Unity: OnEntityChanged::ID :1 POS:(5000, 4000, 820), DIR:(98, 21, 0),SPD:0
2021-05-14 22:09:26,420 [ 1] INFO  Unity: MapEntityUpdateResponse: Entity: {0}
{0}event:{1} entity:{2}
2021-05-14 22:09:26,436 [ 1] INFO  Unity: OnEntityChanged::ID :1 POS:(5000, 4000, 820), DIR:(98, 21, 0),SPD:0
2021-05-14 22:09:26,436 [ 1] INFO  Unity: MapEntityUpdateResponse: Entity: {0}
{0}event:{1} entity:{2}
2021-05-14 22:09:26,453 [ 1] INFO  Unity: OnEntityChanged::ID :1 POS:(5000, 4000, 820), DIR:(98, 21, 0),SPD:0
2021-05-14 22:09:26,453 [ 1] INFO  Unity: MapEntityUpdateResponse: Entity: {0}
{0}event:{1} entity:{2}
2021-05-14 22:09:26,470 [ 1] INFO  Unity: SetDirection:(-98, 21, 0)
2021-05-14 22:09:26,470 [ 1] INFO  Unity: OnMapEntitySyncRequest::ID :1 POS:SkillBridge.Message.NVector3, DIR:SkillBridge.Message.NVector3,SPD:0
2021-05-14 22:09:26,486 [ 1] INFO  Unity: OnEntityChanged::ID :1 POS:(5000, 4000, 820), DIR:(98, 21, 0),SPD:0
2021-05-14 22:09:26,486 [ 1] INFO  Unity: MapEntityUpdateResponse: Entity: {0}
{0}event:{1} entity:{2}
2021-05-14 22:09:26,502 [ 1] INFO  Unity: SetDirection:(-99, 14, 0)
2021-05-14 22:09:26,502 [ 1] INFO  Unity: OnMapEntitySyncRequest::ID :1 POS:SkillBridge.Message.NVector3, DIR:SkillBridge.Message.NVector3,SPD:0
2021-05-14 22:09:26,519 [ 1] INFO  Unity: OnEntityChanged::ID :1 POS:(5000, 4000, 820), DIR:(98, 21, 0),SPD:0
2021-05-14 22:09:26,520 [ 1] INFO  Unity: MapEntityUpdateResponse: Entity: {0}
{0}event:{1} entity:{2}
2021-05-14 22:09:26,535 [ 1] INFO  Unity: SetDirection:(-100, 7, 0)
2021-05-14 22:09:26,535 [ 1] INFO  Unity: OnMapEntitySyncRequest::ID :1 POS:SkillBridge.Message.NVector3, DIR:SkillBridge.Message.NVector3,SPD:0
2021-05-14 22:09:26,552 [ 1] INFO  Unity: OnEntityChanged::ID :1 POS:(5000, 4000, 820), DIR:(98, 21, 0),SPD:0
2021-05-14 22:09:26,552 [ 1] INFO  Unity: MapEntityUpdateResponse: Entity: {0}
{0}event:{1} entity:{2}
2021-05-14 22:09:26,568 [ 1] INFO  Unity: SetDirection:(-100, 0, 0)
2021-05-14 22:09:26,568 [ 1] INFO  Unity: OnMapEntitySyncRequest::ID :1 POS:SkillBridge.Message.NVector3, DIR:SkillBridge.Message.NVector3,SPD:0
2021-05-14 22:09:26,585 [ 1] INFO  Unity: OnEntityChanged::ID :1 POS:(5000, 4000, 820), DIR:(98, 21, 0),SPD:0
2021-05-14 22:09:26,585 [ 1] INFO  Unity: MapEntityUpdateResponse: Entity: {0}
{0}event:{1} entity:{2}
2021-05-14 22:09:26,602 [ 1] INFO  Unity: SetDirection:(-100, -7, 0)
2021-05-14 22:09:26,602 [ 1] INFO  Unity: OnMapEntitySyncRequest::ID :1 POS:SkillBridge.Message.NVector3, DIR:SkillBridge.Message.NVector3,SPD:0
2021-05-14 22:09:26,620 [ 1] INFO  Unity: OnEntityChanged::ID :1 POS:(5000, 4000, 820), DIR:(98, 21, 0),SPD:0
2021-05-14 22:09:26,620 [ 1] INFO  Unity: MapEntityUpdateResponse: Entity: {0}
{0}event:{1} entity:{2}
2021-05-14 22:09:26,635 [ 1] INFO  Unity: SetDirection:(-99, -14, 0)
2021-05-14 22:09:26,635 [ 1] INFO  Unity: OnMapEntitySyncRequest::ID :1 POS:SkillBridge.Message.NVector3, DIR:SkillBridge.Message.NVector3,SPD:0
2021-05-14 22:09:26,652 [ 1] INFO  Unity: OnEntityChanged::ID :1 POS:(5000, 4000, 820), DIR:(98, 21, 0),SPD:0
2021-05-14 22:09:26,652 [ 1] INFO  Unity: MapEntityUpdateResponse: Entity: {0}
{0}event:{1} entity:{2}
2021-05-14 22:09:26,668 [ 1] INFO  Unity: SetDirection:(-98, -21, 0)
2021-05-14 22:09:26,668 [ 1] INFO  Unity: OnMapEntitySyncRequest::ID :1 POS:SkillBridge.Message.NVector3, DIR:SkillBridge.Message.NVector3,SPD:0
2021-05-14 22:09:26,686 [ 1] INFO  Unity: OnEntityChanged::ID :1 POS:(5000, 4000, 820), DIR:(98, 21, 0),SPD:0
2021-05-14 22:09:26,686 [ 1] INFO  Unity: MapEntityUpdateResponse: Entity: {0}
{0}event:{1} entity:{2}
2021-05-14 22:09:26,703 [ 1] INFO  Unity: SetDirection:(-96, -28, 0)
2021-05-14 22:09:26,703 [ 1] INFO  Unity: OnMapEntitySyncRequest::ID :1 POS:SkillBridge.Message.NVector3, DIR:SkillBridge.Message.NVector3,SPD:0
2021-05-14 22:09:26,719 [ 1] INFO  Unity: OnEntityChanged::ID :1 POS:(5000, 4000, 820), DIR:(98, 21, 0),SPD:0
2021-05-14 22:09:26,720 [ 1] INFO  Unity: MapEntityUpdateResponse: Entity: {0}
{0}event:{1} entity:{2}
2021-05-14 22:09:26,735 [ 1] INFO  Unity: SetDirection:(-94, -34, 0)
2021-05-14 22:09:26,735 [ 1] INFO  Unity: OnMapEntitySyncRequest::ID :1 POS:SkillBridge.Message.NVector3, DIR:SkillBridge.Message.NVector3,SPD:0
2021-05-14 22:09:26,753 [ 1] INFO  Unity: OnEntityChanged::ID :1 POS:(5000, 4000, 820), DIR:(98, 21, 0),SPD:0
2021-05-14 22:09:26,753 [ 1] INFO  Unity: MapEntityUpdateResponse: Entity: {0}
{0}event:{1} entity:{2}
2021-05-14 22:09:26,769 [ 1] INFO  Unity: SetDirection:(-91, -41, 0)
2021-05-14 22:09:26,769 [ 1] INFO  Unity: OnMapEntitySyncRequest::ID :1 POS:SkillBridge.Message.NVector3, DIR:SkillBridge.Message.NVector3,SPD:0
2021-05-14 22:09:26,786 [ 1] INFO  Unity: OnEntityChanged::ID :1 POS:(5000, 4000, 820), DIR:(98, 21, 0),SPD:0
2021-05-14 22:09:26,786 [ 1] INFO  Unity: MapEntityUpdateResponse: Entity: {0}
{0}event:{1} entity:{2}
2021-05-14 22:09:26,802 [ 1] INFO  Unity: SetDirection:(-88, -47, 0)
2021-05-14 22:09:26,802 [ 1] INFO  Unity: OnMapEntitySyncRequest::ID :1 POS:SkillBridge.Message.NVector3, DIR:SkillBridge.Message.NVector3,SPD:0
2021-05-14 22:09:26,819 [ 1] INFO  Unity: OnEntityChanged::ID :1 POS:(5000, 4000, 820), DIR:(98, 21, 0),SPD:0
2021-05-14 22:09:26,819 [ 1] INFO  Unity: MapEntityUpdateResponse: Entity: {0}
{0}event:{1} entity:{2}
2021-05-14 22:09:26,835 [ 1] INFO  Unity: SetDirection:(-85, -53, 0)
2021-05-14 22:09:26,835 [ 1] INFO  Unity: OnMapEntitySyncRequest::ID :1 POS:SkillBridge.Message.NVector3, DIR:SkillBridge.Message.NVector3,SPD:0
2021-05-14 22:09:26,853 [ 1] INFO  Unity: OnEntityChanged::ID :1 POS:(5000, 4000, 820), DIR:(98, 21, 0),SPD:0
2021-05-14 22:09:26,853 [ 1] INFO  Unity: MapEntityUpdateResponse: Entity: {0}
{0}event:{1} entity:{2}
2021-05-14 22:09:26,869 [ 1] INFO  Unity: SetDirection:(-81, -59, 0)
2021-05-14 22:09:26,869 [ 1] INFO  Unity: OnMapEntitySyncRequest::ID :1 POS:SkillBridge.Message.NVector3, DIR:SkillBridge.Message.NVector3,SPD:0
2021-05-14 22:09:26,885 [ 1] INFO  Unity: OnEntityChanged::ID :1 POS:(5000, 4000, 820), DIR:(98, 21, 0),SPD:0
2021-05-14 22:09:26,885 [ 1] INFO  Unity: MapEntityUpdateResponse: Entity: {0}
{0}event:{1} entity:{2}
2021-05-14 22:09:26,919 [ 1] INFO  Unity: Stop
2021-05-14 22:09:26,919 [ 1] INFO  Unity: OnMapEntitySyncRequest::ID :1 POS:SkillBridge.Message.NVector3, DIR:SkillBridge.Message.NVector3,SPD:0
2021-05-14 22:09:26,936 [ 1] INFO  Unity: OnEntityChanged::ID :1 POS:(5000, 4000, 820), DIR:(98, 21, 0),SPD:0
2021-05-14 22:09:26,936 [ 1] INFO  Unity: MapEntityUpdateResponse: Entity: {0}
{0}event:{1} entity:{2}
2021-05-14 22:09:26,986 [ 1] INFO  Unity: SetDirection:(-81, -59, 0)
2021-05-14 22:09:26,986 [ 1] INFO  Unity: OnMapEntitySyncRequest::ID :1 POS:SkillBridge.Message.NVector3, DIR:SkillBridge.Message.NVector3,SPD:0
2021-05-14 22:09:27,002 [ 1] INFO  Unity: OnEntityChanged::ID :1 POS:(5000, 4000, 820), DIR:(98, 21, 0),SPD:0
2021-05-14 22:09:27,002 [ 1] INFO  Unity: MapEntityUpdateResponse: Entity: {0}
{0}event:{1} entity:{2}
2021-05-14 22:09:27,018 [ 1] INFO  Unity: SetDirection:(-85, -53, 0)
2021-05-14 22:09:27,018 [ 1] INFO  Unity: OnMapEntitySyncRequest::ID :1 POS:SkillBridge.Message.NVector3, DIR:SkillBridge.Message.NVector3,SPD:0
2021-05-14 22:09:27,036 [ 1] INFO  Unity: OnEntityChanged::ID :1 POS:(5000, 4000, 820), DIR:(98, 21, 0),SPD:0
2021-05-14 22:09:27,036 [ 1] INFO  Unity: MapEntityUpdateResponse: Entity: {0}
{0}event:{1} entity:{2}
2021-05-14 22:09:27,052 [ 1] INFO  Unity: SetDirection:(-88, -47, 0)
2021-05-14 22:09:27,052 [ 1] INFO  Unity: OnMapEntitySyncRequest::ID :1 POS:SkillBridge.Message.NVector3, DIR:SkillBridge.Message.NVector3,SPD:0
2021-05-14 22:09:27,069 [ 1] INFO  Unity: OnEntityChanged::ID :1 POS:(5000, 4000, 820), DIR:(98, 21, 0),SPD:0
2021-05-14 22:09:27,069 [ 1] INFO  Unity: MapEntityUpdateResponse: Entity: {0}
{0}event:{1} entity:{2}
2021-05-14 22:09:27,086 [ 1] INFO  Unity: SetDirection:(-91, -41, 0)
2021-05-14 22:09:27,086 [ 1] INFO  Unity: OnMapEntitySyncRequest::ID :1 POS:SkillBridge.Message.NVector3, DIR:SkillBridge.Message.NVector3,SPD:0
2021-05-14 22:09:27,104 [ 1] INFO  Unity: OnEntityChanged::ID :1 POS:(5000, 4000, 820), DIR:(98, 21, 0),SPD:0
2021-05-14 22:09:27,104 [ 1] INFO  Unity: MapEntityUpdateResponse: Entity: {0}
{0}event:{1} entity:{2}
2021-05-14 22:09:27,119 [ 1] INFO  Unity: SetDirection:(-94, -34, 0)
2021-05-14 22:09:27,119 [ 1] INFO  Unity: OnMapEntitySyncRequest::ID :1 POS:SkillBridge.Message.NVector3, DIR:SkillBridge.Message.NVector3,SPD:0
2021-05-14 22:09:27,136 [ 1] INFO  Unity: OnEntityChanged::ID :1 POS:(5000, 4000, 820), DIR:(98, 21, 0),SPD:0
2021-05-14 22:09:27,136 [ 1] INFO  Unity: MapEntityUpdateResponse: Entity: {0}
{0}event:{1} entity:{2}
2021-05-14 22:09:27,160 [ 1] INFO  Unity: MoveForward
2021-05-14 22:09:27,160 [ 1] INFO  Unity: OnMapEntitySyncRequest::ID :1 POS:SkillBridge.Message.NVector3, DIR:SkillBridge.Message.NVector3,SPD:0
2021-05-14 22:09:27,160 [ 1] INFO  Unity: SetDirection:(-96, -28, 0)
2021-05-14 22:09:27,160 [ 1] INFO  Unity: OnMapEntitySyncRequest::ID :1 POS:SkillBridge.Message.NVector3, DIR:SkillBridge.Message.NVector3,SPD:0
2021-05-14 22:09:27,177 [ 1] INFO  Unity: OnEntityChanged::ID :1 POS:(5000, 4000, 820), DIR:(98, 21, 0),SPD:0
2021-05-14 22:09:27,177 [ 1] INFO  Unity: MapEntityUpdateResponse: Entity: {0}
{0}event:{1} entity:{2}
2021-05-14 22:09:27,185 [ 1] INFO  Unity: SetDirection:(-98, -21, 0)
2021-05-14 22:09:27,186 [ 1] INFO  Unity: OnMapEntitySyncRequest::ID :1 POS:SkillBridge.Message.NVector3, DIR:SkillBridge.Message.NVector3,SPD:0
2021-05-14 22:09:27,194 [ 1] INFO  Unity: OnEntityChanged::ID :1 POS:(5000, 4000, 820), DIR:(98, 21, 0),SPD:0
2021-05-14 22:09:27,194 [ 1] INFO  Unity: MapEntityUpdateResponse: Entity: {0}
{0}event:{1} entity:{2}
2021-05-14 22:09:27,211 [ 1] INFO  Unity: OnEntityChanged::ID :1 POS:(5000, 4000, 820), DIR:(98, 21, 0),SPD:0
2021-05-14 22:09:27,211 [ 1] INFO  Unity: MapEntityUpdateResponse: Entity: {0}
{0}event:{1} entity:{2}
2021-05-14 22:09:27,285 [ 1] INFO  Unity: Stop
2021-05-14 22:09:27,285 [ 1] INFO  Unity: OnMapEntitySyncRequest::ID :1 POS:SkillBridge.Message.NVector3, DIR:SkillBridge.Message.NVector3,SPD:0
2021-05-14 22:09:27,302 [ 1] INFO  Unity: OnEntityChanged::ID :1 POS:(5000, 4000, 820), DIR:(98, 21, 0),SPD:0
2021-05-14 22:09:27,302 [ 1] INFO  Unity: MapEntityUpdateResponse: Entity: {0}
{0}event:{1} entity:{2}
2021-05-14 22:09:46,809 [ 1] INFO  Unity: MoveForward
2021-05-14 22:09:46,809 [ 1] INFO  Unity: OnMapEntitySyncRequest::ID :1 POS:SkillBridge.Message.NVector3, DIR:SkillBridge.Message.NVector3,SPD:0
2021-05-14 22:09:46,926 [ 1] INFO  Unity: SetDirection:(-97, -24, 0)
2021-05-14 22:09:46,926 [ 1] INFO  Unity: OnMapEntitySyncRequest::ID :1 POS:SkillBridge.Message.NVector3, DIR:SkillBridge.Message.NVector3,SPD:0
2021-05-14 22:09:47,009 [ 1] INFO  Unity: SetDirection:(-91, -41, 0)
2021-05-14 22:09:47,009 [ 1] INFO  Unity: OnMapEntitySyncRequest::ID :1 POS:SkillBridge.Message.NVector3, DIR:SkillBridge.Message.NVector3,SPD:0
2021-05-14 22:09:47,091 [ 1] INFO  Unity: Stop
2021-05-14 22:09:47,091 [ 1] INFO  Unity: OnMapEntitySyncRequest::ID :1 POS:SkillBridge.Message.NVector3, DIR:SkillBridge.Message.NVector3,SPD:0
2021-05-14 22:09:47,108 [ 1] INFO  Unity: SetDirection:(-81, -59, 0)
2021-05-14 22:09:47,108 [ 1] INFO  Unity: OnMapEntitySyncRequest::ID :1 POS:SkillBridge.Message.NVector3, DIR:SkillBridge.Message.NVector3,SPD:0
2021-05-14 22:09:47,208 [ 1] INFO  Unity: SetDirection:(-67, -74, 0)
2021-05-14 22:09:47,209 [ 1] INFO  Unity: OnMapEntitySyncRequest::ID :1 POS:SkillBridge.Message.NVector3, DIR:SkillBridge.Message.NVector3,SPD:0
2021-05-14 22:09:47,292 [ 1] INFO  Unity: MoveForward
2021-05-14 22:09:47,292 [ 1] INFO  Unity: OnMapEntitySyncRequest::ID :1 POS:SkillBridge.Message.NVector3, DIR:SkillBridge.Message.NVector3,SPD:0
2021-05-14 22:09:47,292 [ 1] INFO  Unity: SetDirection:(-53, -85, 0)
2021-05-14 22:09:47,292 [ 1] INFO  Unity: OnMapEntitySyncRequest::ID :1 POS:SkillBridge.Message.NVector3, DIR:SkillBridge.Message.NVector3,SPD:0
2021-05-14 22:09:47,750 [ 1] INFO  Unity: Stop
2021-05-14 22:09:47,750 [ 1] INFO  Unity: OnMapEntitySyncRequest::ID :1 POS:SkillBridge.Message.NVector3, DIR:SkillBridge.Message.NVector3,SPD:0
2021-05-14 22:09:47,783 [ 1] INFO  Unity: SetDirection:(-67, -74, 0)
2021-05-14 22:09:47,784 [ 1] INFO  Unity: OnMapEntitySyncRequest::ID :1 POS:SkillBridge.Message.NVector3, DIR:SkillBridge.Message.NVector3,SPD:0
2021-05-14 22:09:47,883 [ 1] INFO  Unity: SetDirection:(-81, -59, 0)
2021-05-14 22:09:47,883 [ 1] INFO  Unity: OnMapEntitySyncRequest::ID :1 POS:SkillBridge.Message.NVector3, DIR:SkillBridge.Message.NVector3,SPD:0
2021-05-14 22:09:47,967 [ 1] INFO  Unity: SetDirection:(-90, -44, 0)
2021-05-14 22:09:47,967 [ 1] INFO  Unity: OnMapEntitySyncRequest::ID :1 POS:SkillBridge.Message.NVector3, DIR:SkillBridge.Message.NVector3,SPD:0
2021-05-14 22:09:48,001 [ 1] INFO  Unity: MoveBack
2021-05-14 22:09:48,001 [ 1] INFO  Unity: OnMapEntitySyncRequest::ID :1 POS:SkillBridge.Message.NVector3, DIR:SkillBridge.Message.NVector3,SPD:0
2021-05-14 22:09:48,051 [ 1] INFO  Unity: SetDirection:(-96, -28, 0)
2021-05-14 22:09:48,051 [ 1] INFO  Unity: OnMapEntitySyncRequest::ID :1 POS:SkillBridge.Message.NVector3, DIR:SkillBridge.Message.NVector3,SPD:0
2021-05-14 22:09:48,133 [ 1] INFO  Unity: SetDirection:(-99, -10, 0)
2021-05-14 22:09:48,133 [ 1] INFO  Unity: OnMapEntitySyncRequest::ID :1 POS:SkillBridge.Message.NVector3, DIR:SkillBridge.Message.NVector3,SPD:0
2021-05-14 22:09:48,233 [ 1] INFO  Unity: SetDirection:(-99, 10, 0)
2021-05-14 22:09:48,233 [ 1] INFO  Unity: OnMapEntitySyncRequest::ID :1 POS:SkillBridge.Message.NVector3, DIR:SkillBridge.Message.NVector3,SPD:0
2021-05-14 22:09:48,600 [ 1] INFO  Unity: SetDirection:(-99, -10, 0)
2021-05-14 22:09:48,600 [ 1] INFO  Unity: OnMapEntitySyncRequest::ID :1 POS:SkillBridge.Message.NVector3, DIR:SkillBridge.Message.NVector3,SPD:0
2021-05-14 22:09:48,684 [ 1] INFO  Unity: SetDirection:(-96, -28, 0)
2021-05-14 22:09:48,684 [ 1] INFO  Unity: OnMapEntitySyncRequest::ID :1 POS:SkillBridge.Message.NVector3, DIR:SkillBridge.Message.NVector3,SPD:0
2021-05-14 22:09:48,784 [ 1] INFO  Unity: SetDirection:(-88, -47, 0)
2021-05-14 22:09:48,784 [ 1] INFO  Unity: OnMapEntitySyncRequest::ID :1 POS:SkillBridge.Message.NVector3, DIR:SkillBridge.Message.NVector3,SPD:0
2021-05-14 22:09:49,083 [ 1] INFO  Unity: SetDirection:(-95, -31, 0)
2021-05-14 22:09:49,083 [ 1] INFO  Unity: OnMapEntitySyncRequest::ID :1 POS:SkillBridge.Message.NVector3, DIR:SkillBridge.Message.NVector3,SPD:0
2021-05-14 22:09:49,167 [ 1] INFO  Unity: SetDirection:(-99, -14, 0)
2021-05-14 22:09:49,167 [ 1] INFO  Unity: OnMapEntitySyncRequest::ID :1 POS:SkillBridge.Message.NVector3, DIR:SkillBridge.Message.NVector3,SPD:0
2021-05-14 22:09:49,250 [ 1] INFO  Unity: SetDirection:(-100, 3, 0)
2021-05-14 22:09:49,250 [ 1] INFO  Unity: OnMapEntitySyncRequest::ID :1 POS:SkillBridge.Message.NVector3, DIR:SkillBridge.Message.NVector3,SPD:0
2021-05-14 22:09:49,283 [ 1] INFO  Unity: Stop
2021-05-14 22:09:49,283 [ 1] INFO  Unity: OnMapEntitySyncRequest::ID :1 POS:SkillBridge.Message.NVector3, DIR:SkillBridge.Message.NVector3,SPD:0
2021-05-14 22:09:49,333 [ 1] INFO  Unity: SetDirection:(-98, 21, 0)
2021-05-14 22:09:49,333 [ 1] INFO  Unity: OnMapEntitySyncRequest::ID :1 POS:SkillBridge.Message.NVector3, DIR:SkillBridge.Message.NVector3,SPD:0
2021-05-14 22:09:49,433 [ 1] INFO  Unity: SetDirection:(-91, 41, 0)
2021-05-14 22:09:49,433 [ 1] INFO  Unity: OnMapEntitySyncRequest::ID :1 POS:SkillBridge.Message.NVector3, DIR:SkillBridge.Message.NVector3,SPD:0
2021-05-14 22:09:49,499 [ 1] INFO  Unity: MoveForward
2021-05-14 22:09:49,499 [ 1] INFO  Unity: OnMapEntitySyncRequest::ID :1 POS:SkillBridge.Message.NVector3, DIR:SkillBridge.Message.NVector3,SPD:0
2021-05-14 22:09:49,533 [ 1] INFO  Unity: SetDirection:(-81, 59, 0)
2021-05-14 22:09:49,533 [ 1] INFO  Unity: OnMapEntitySyncRequest::ID :1 POS:SkillBridge.Message.NVector3, DIR:SkillBridge.Message.NVector3,SPD:0
2021-05-14 22:09:49,883 [ 1] INFO  Unity: Stop
2021-05-14 22:09:49,883 [ 1] INFO  Unity: OnMapEntitySyncRequest::ID :1 POS:SkillBridge.Message.NVector3, DIR:SkillBridge.Message.NVector3,SPD:0
2021-05-14 22:09:49,967 [ 1] INFO  Unity: SetDirection:(-90, 44, 0)
2021-05-14 22:09:49,967 [ 1] INFO  Unity: OnMapEntitySyncRequest::ID :1 POS:SkillBridge.Message.NVector3, DIR:SkillBridge.Message.NVector3,SPD:0
2021-05-14 22:09:50,050 [ 1] INFO  Unity: SetDirection:(-96, 28, 0)
2021-05-14 22:09:50,050 [ 1] INFO  Unity: OnMapEntitySyncRequest::ID :1 POS:SkillBridge.Message.NVector3, DIR:SkillBridge.Message.NVector3,SPD:0
2021-05-14 22:09:50,084 [ 1] INFO  Unity: MoveBack
2021-05-14 22:09:50,084 [ 1] INFO  Unity: OnMapEntitySyncRequest::ID :1 POS:SkillBridge.Message.NVector3, DIR:SkillBridge.Message.NVector3,SPD:0
2021-05-14 22:09:50,550 [ 1] INFO  Unity: SetDirection:(-99, 10, 0)
2021-05-14 22:09:50,550 [ 1] INFO  Unity: OnMapEntitySyncRequest::ID :1 POS:SkillBridge.Message.NVector3, DIR:SkillBridge.Message.NVector3,SPD:0
2021-05-14 22:09:50,616 [ 1] INFO  Unity: Stop
2021-05-14 22:09:50,616 [ 1] INFO  Unity: OnMapEntitySyncRequest::ID :1 POS:SkillBridge.Message.NVector3, DIR:SkillBridge.Message.NVector3,SPD:0
2021-05-14 22:09:50,650 [ 1] INFO  Unity: SetDirection:(-99, -10, 0)
2021-05-14 22:09:50,650 [ 1] INFO  Unity: OnMapEntitySyncRequest::ID :1 POS:SkillBridge.Message.NVector3, DIR:SkillBridge.Message.NVector3,SPD:0
2021-05-14 22:09:50,733 [ 1] INFO  Unity: SetDirection:(-96, -28, 0)
2021-05-14 22:09:50,733 [ 1] INFO  Unity: OnMapEntitySyncRequest::ID :1 POS:SkillBridge.Message.NVector3, DIR:SkillBridge.Message.NVector3,SPD:0
2021-05-14 22:09:50,783 [ 1] INFO  Unity: MoveForward
2021-05-14 22:09:50,783 [ 1] INFO  Unity: OnMapEntitySyncRequest::ID :1 POS:SkillBridge.Message.NVector3, DIR:SkillBridge.Message.NVector3,SPD:0
2021-05-14 22:09:51,033 [ 1] INFO  Unity: Stop
2021-05-14 22:09:51,034 [ 1] INFO  Unity: OnMapEntitySyncRequest::ID :1 POS:SkillBridge.Message.NVector3, DIR:SkillBridge.Message.NVector3,SPD:0
2021-05-14 22:09:51,150 [ 1] INFO  Unity: SetDirection:(-99, -10, 0)
2021-05-14 22:09:51,150 [ 1] INFO  Unity: OnMapEntitySyncRequest::ID :1 POS:SkillBridge.Message.NVector3, DIR:SkillBridge.Message.NVector3,SPD:0
2021-05-14 22:09:51,550 [ 1] INFO  Unity: MoveBack
2021-05-14 22:09:51,551 [ 1] INFO  Unity: OnMapEntitySyncRequest::ID :1 POS:SkillBridge.Message.NVector3, DIR:SkillBridge.Message.NVector3,SPD:0
2021-05-14 22:09:51,575 [ 1] INFO  Unity: SetDirection:(-99, 10, 0)
2021-05-14 22:09:51,575 [ 1] INFO  Unity: OnMapEntitySyncRequest::ID :1 POS:SkillBridge.Message.NVector3, DIR:SkillBridge.Message.NVector3,SPD:0
2021-05-14 22:09:51,650 [ 1] INFO  Unity: SetDirection:(-96, 28, 0)
2021-05-14 22:09:51,650 [ 1] INFO  Unity: OnMapEntitySyncRequest::ID :1 POS:SkillBridge.Message.NVector3, DIR:SkillBridge.Message.NVector3,SPD:0
2021-05-14 22:09:51,792 [ 1] INFO  Unity: Stop
2021-05-14 22:09:51,792 [ 1] INFO  Unity: OnMapEntitySyncRequest::ID :1 POS:SkillBridge.Message.NVector3, DIR:SkillBridge.Message.NVector3,SPD:0
2021-05-14 22:09:51,801 [ 1] INFO  Unity: SetDirection:(-99, 10, 0)
2021-05-14 22:09:51,801 [ 1] INFO  Unity: OnMapEntitySyncRequest::ID :1 POS:SkillBridge.Message.NVector3, DIR:SkillBridge.Message.NVector3,SPD:0
2021-05-14 22:10:00,827 [ 1] INFO  Unity: ProcessReceive exception:System.Net.Sockets.SocketException: 远程主机强迫关闭了一个现有的连接。

  at System.Net.Sockets.Socket.Receive (System.Byte[] buffer, Int32 offset, Int32 size, SocketFlags flags) [0x00000] in <filename unknown>:0 
  at Network.NetClient.ProcessRecv () [0x00000] in <filename unknown>:0 

2021-05-14 22:10:00,827 [ 1] WARN  Unity: CloseConnection(), errorCode: 1001

2021-05-14 22:10:05,743 [ 1] INFO  Unity: OnDestroy NetworkManager.
2021-05-14 22:10:05,743 [ 1] WARN  Unity: CloseConnection(), errorCode: 1007

2021-05-14 22:10:05,743 [ 1] INFO  Unity: Character_12_爱爱 OnDestroy :ID:1 POS:(5332, 3949, 820) DIR:(-99, 10, 0) SPD:0 
2021-05-14 22:10:05,743 [ 1] INFO  Unity: Character_3_的来啦 OnDestroy :ID:2 POS:(5000, 4000, 820) DIR:(100, 0, 0) SPD:0 
