2021-05-14 17:45:18,112 [ 1] INFO  Unity: LoadingManager start
2021-05-14 17:45:20,158 [ 1] INFO  Unity: DataManager > DataManager()
2021-05-14 17:45:26,664 [ 1] INFO  Unity: UserLoginRequest::user :321 psw:321
2021-05-14 17:45:26,664 [ 1] INFO  Unity: ConnectToServer() Start 
2021-05-14 17:45:26,669 [ 1] INFO  Unity: DoConnect
2021-05-14 17:45:26,670 [ 1] INFO  Unity: NetClient.DoConnect on 127.0.0.1:8000
2021-05-14 17:45:26,671 [ 1] INFO  Unity: Connect[0] to server 127.0.0.1:8000

2021-05-14 17:45:26,676 [ 1] INFO  Unity: LoadingMesager::OnGameServerConnect :0 reason:Success
2021-05-14 17:45:34,224 [ 1] INFO  Unity: UserLoginRequest::user :321 psw:321
2021-05-14 17:45:34,270 [ 1] INFO  Unity: OnUserLogin:Success [None]
2021-05-14 17:45:34,301 [ 1] INFO  Unity: LoadLevel: CharSelect
2021-05-14 17:45:34,445 [ 1] INFO  Unity: LevelLoadCompleted:1
2021-05-14 17:45:35,417 [ 1] INFO  Unity: Select Char:[12]爱爱[Wizard]
2021-05-14 17:45:36,100 [ 1] INFO  Unity: UserGameEnterRequest::characterIdx :0
2021-05-14 17:45:36,121 [ 1] INFO  Unity: OnGameEnterSuccess [进入游戏成功]
2021-05-14 17:45:36,122 [ 1] INFO  Unity: OnMapCharacterEnter:Map:1 Count:2
2021-05-14 17:45:36,124 [ 1] INFO  Unity: AddCharacter:12:爱爱 Map:1 Entity:(2:pos:(5000,4000,820),dir:(100,0,0),spd:0
2021-05-14 17:45:36,125 [ 1] INFO  Unity: AddCharacter:3:的来啦 Map:1 Entity:(1:pos:(5000,4000,820),dir:(100,0,0),spd:0
2021-05-14 17:45:36,126 [ 1] INFO  Unity: 布林镇
2021-05-14 17:45:36,126 [ 1] INFO  Unity: LoadLevel: MainCity
2021-05-14 17:45:36,438 [ 1] INFO  Unity: LevelLoadCompleted:1
2021-05-14 17:45:38,408 [ 1] INFO  Unity: MoveForward
2021-05-14 17:45:38,409 [ 1] INFO  Unity: OnMapEntitySyncRequest::ID :2 POS:SkillBridge.Message.NVector3, DIR:SkillBridge.Message.NVector3,SPD:0
2021-05-14 17:45:38,592 [ 1] INFO  Unity: Stop
2021-05-14 17:45:38,592 [ 1] INFO  Unity: OnMapEntitySyncRequest::ID :2 POS:SkillBridge.Message.NVector3, DIR:SkillBridge.Message.NVector3,SPD:300
2021-05-14 17:45:38,609 [ 1] INFO  Unity: SetDirection:(98, 21, 0)
2021-05-14 17:45:38,609 [ 1] INFO  Unity: OnMapEntitySyncRequest::ID :2 POS:SkillBridge.Message.NVector3, DIR:SkillBridge.Message.NVector3,SPD:0
2021-05-14 17:45:38,707 [ 1] INFO  Unity: SetDirection:(91, 41, 0)
2021-05-14 17:45:38,708 [ 1] INFO  Unity: OnMapEntitySyncRequest::ID :2 POS:SkillBridge.Message.NVector3, DIR:SkillBridge.Message.NVector3,SPD:0
2021-05-14 17:45:38,807 [ 1] INFO  Unity: SetDirection:(81, 59, 0)
2021-05-14 17:45:38,808 [ 1] INFO  Unity: OnMapEntitySyncRequest::ID :2 POS:SkillBridge.Message.NVector3, DIR:SkillBridge.Message.NVector3,SPD:0
2021-05-14 17:45:38,908 [ 1] INFO  Unity: SetDirection:(67, 74, 0)
2021-05-14 17:45:38,908 [ 1] INFO  Unity: OnMapEntitySyncRequest::ID :2 POS:SkillBridge.Message.NVector3, DIR:SkillBridge.Message.NVector3,SPD:0
2021-05-14 17:45:39,324 [ 1] INFO  Unity: MoveBack
2021-05-14 17:45:39,324 [ 1] INFO  Unity: OnMapEntitySyncRequest::ID :2 POS:SkillBridge.Message.NVector3, DIR:SkillBridge.Message.NVector3,SPD:0
2021-05-14 17:45:40,076 [ 1] INFO  Unity: Stop
2021-05-14 17:45:40,076 [ 1] INFO  Unity: OnMapEntitySyncRequest::ID :2 POS:SkillBridge.Message.NVector3, DIR:SkillBridge.Message.NVector3,SPD:-300
2021-05-14 17:45:41,269 [ 1] INFO  Unity: OnEntityChanged::ID :1 POS:SkillBridge.Message.NVector3, DIR:SkillBridge.Message.NVector3,SPD:300
2021-05-14 17:45:41,272 [ 1] ERROR Unity: Message handler exception:, Index (zero based) must be greater than or equal to zero and less than the size of the argument list., mscorlib,   at System.String.FormatHelper (System.Text.StringBuilder result, IFormatProvider provider, System.String format, System.Object[] args) [0x00000] in <filename unknown>:0 
  at System.Text.StringBuilder.AppendFormat (IFormatProvider provider, System.String format, System.Object[] args) [0x00000] in <filename unknown>:0 
  at System.Text.StringBuilder.AppendFormat (System.String format, System.Object arg0, System.Object arg1) [0x00000] in <filename unknown>:0 
  at Services.MapService.OnMapEntitySyncResponse (System.Object sender, SkillBridge.Message.MapEntitySyncResponse response) [0x00000] in <filename unknown>:0 
  at Network.MessageDistributer`1[System.Object].RaiseEvent[MapEntitySyncResponse] (System.Object sender, SkillBridge.Message.MapEntitySyncResponse msg) [0x00000] in <filename unknown>:0 
2021-05-14 17:45:41,275 [ 1] FATAL Unity: <log4net.Error>Exception during StringFormat: Input string was not in a correct format. <format>{0
{1}</format><args>{FormatException: Index (zero based) must be greater than or equal to zero and less than the size of the argument list., System.String.FormatHelper (System.Text.StringBuilder result, IFormatProvider provider, System.String format, System.Object[] args)
System.Text.StringBuilder.AppendFormat (IFormatProvider provider, System.String format, System.Object[] args)
System.Text.StringBuilder.AppendFormat (System.String format, System.Object arg0, System.Object arg1)
Services.MapService.OnMapEntitySyncResponse (System.Object sender, SkillBridge.Message.MapEntitySyncResponse response)
Network.MessageDistributer`1[System.Object].RaiseEvent[MapEntitySyncResponse] (System.Object sender, SkillBridge.Message.MapEntitySyncResponse msg)
}</args></log4net.Error>
2021-05-14 17:45:41,434 [ 1] INFO  Unity: OnEntityChanged::ID :1 POS:SkillBridge.Message.NVector3, DIR:SkillBridge.Message.NVector3,SPD:300
2021-05-14 17:45:41,434 [ 1] ERROR Unity: Message handler exception:, Index (zero based) must be greater than or equal to zero and less than the size of the argument list., mscorlib,   at System.String.FormatHelper (System.Text.StringBuilder result, IFormatProvider provider, System.String format, System.Object[] args) [0x00000] in <filename unknown>:0 
  at System.Text.StringBuilder.AppendFormat (IFormatProvider provider, System.String format, System.Object[] args) [0x00000] in <filename unknown>:0 
  at System.Text.StringBuilder.AppendFormat (System.String format, System.Object arg0, System.Object arg1) [0x00000] in <filename unknown>:0 
  at Services.MapService.OnMapEntitySyncResponse (System.Object sender, SkillBridge.Message.MapEntitySyncResponse response) [0x00000] in <filename unknown>:0 
  at Network.MessageDistributer`1[System.Object].RaiseEvent[MapEntitySyncResponse] (System.Object sender, SkillBridge.Message.MapEntitySyncResponse msg) [0x00000] in <filename unknown>:0 
2021-05-14 17:45:41,435 [ 1] FATAL Unity: <log4net.Error>Exception during StringFormat: Input string was not in a correct format. <format>{0
{1}</format><args>{FormatException: Index (zero based) must be greater than or equal to zero and less than the size of the argument list., System.String.FormatHelper (System.Text.StringBuilder result, IFormatProvider provider, System.String format, System.Object[] args)
System.Text.StringBuilder.AppendFormat (IFormatProvider provider, System.String format, System.Object[] args)
System.Text.StringBuilder.AppendFormat (System.String format, System.Object arg0, System.Object arg1)
Services.MapService.OnMapEntitySyncResponse (System.Object sender, SkillBridge.Message.MapEntitySyncResponse response)
Network.MessageDistributer`1[System.Object].RaiseEvent[MapEntitySyncResponse] (System.Object sender, SkillBridge.Message.MapEntitySyncResponse msg)
}</args></log4net.Error>
2021-05-14 17:45:41,524 [ 1] INFO  Unity: OnEntityChanged::ID :1 POS:SkillBridge.Message.NVector3, DIR:SkillBridge.Message.NVector3,SPD:300
2021-05-14 17:45:41,524 [ 1] ERROR Unity: Message handler exception:, Index (zero based) must be greater than or equal to zero and less than the size of the argument list., mscorlib,   at System.String.FormatHelper (System.Text.StringBuilder result, IFormatProvider provider, System.String format, System.Object[] args) [0x00000] in <filename unknown>:0 
  at System.Text.StringBuilder.AppendFormat (IFormatProvider provider, System.String format, System.Object[] args) [0x00000] in <filename unknown>:0 
  at System.Text.StringBuilder.AppendFormat (System.String format, System.Object arg0, System.Object arg1) [0x00000] in <filename unknown>:0 
  at Services.MapService.OnMapEntitySyncResponse (System.Object sender, SkillBridge.Message.MapEntitySyncResponse response) [0x00000] in <filename unknown>:0 
  at Network.MessageDistributer`1[System.Object].RaiseEvent[MapEntitySyncResponse] (System.Object sender, SkillBridge.Message.MapEntitySyncResponse msg) [0x00000] in <filename unknown>:0 
2021-05-14 17:45:41,525 [ 1] FATAL Unity: <log4net.Error>Exception during StringFormat: Input string was not in a correct format. <format>{0
{1}</format><args>{FormatException: Index (zero based) must be greater than or equal to zero and less than the size of the argument list., System.String.FormatHelper (System.Text.StringBuilder result, IFormatProvider provider, System.String format, System.Object[] args)
System.Text.StringBuilder.AppendFormat (IFormatProvider provider, System.String format, System.Object[] args)
System.Text.StringBuilder.AppendFormat (System.String format, System.Object arg0, System.Object arg1)
Services.MapService.OnMapEntitySyncResponse (System.Object sender, SkillBridge.Message.MapEntitySyncResponse response)
Network.MessageDistributer`1[System.Object].RaiseEvent[MapEntitySyncResponse] (System.Object sender, SkillBridge.Message.MapEntitySyncResponse msg)
}</args></log4net.Error>
2021-05-14 17:45:41,633 [ 1] INFO  Unity: OnEntityChanged::ID :1 POS:SkillBridge.Message.NVector3, DIR:SkillBridge.Message.NVector3,SPD:300
2021-05-14 17:45:41,633 [ 1] ERROR Unity: Message handler exception:, Index (zero based) must be greater than or equal to zero and less than the size of the argument list., mscorlib,   at System.String.FormatHelper (System.Text.StringBuilder result, IFormatProvider provider, System.String format, System.Object[] args) [0x00000] in <filename unknown>:0 
  at System.Text.StringBuilder.AppendFormat (IFormatProvider provider, System.String format, System.Object[] args) [0x00000] in <filename unknown>:0 
  at System.Text.StringBuilder.AppendFormat (System.String format, System.Object arg0, System.Object arg1) [0x00000] in <filename unknown>:0 
  at Services.MapService.OnMapEntitySyncResponse (System.Object sender, SkillBridge.Message.MapEntitySyncResponse response) [0x00000] in <filename unknown>:0 
  at Network.MessageDistributer`1[System.Object].RaiseEvent[MapEntitySyncResponse] (System.Object sender, SkillBridge.Message.MapEntitySyncResponse msg) [0x00000] in <filename unknown>:0 
2021-05-14 17:45:41,634 [ 1] FATAL Unity: <log4net.Error>Exception during StringFormat: Input string was not in a correct format. <format>{0
{1}</format><args>{FormatException: Index (zero based) must be greater than or equal to zero and less than the size of the argument list., System.String.FormatHelper (System.Text.StringBuilder result, IFormatProvider provider, System.String format, System.Object[] args)
System.Text.StringBuilder.AppendFormat (IFormatProvider provider, System.String format, System.Object[] args)
System.Text.StringBuilder.AppendFormat (System.String format, System.Object arg0, System.Object arg1)
Services.MapService.OnMapEntitySyncResponse (System.Object sender, SkillBridge.Message.MapEntitySyncResponse response)
Network.MessageDistributer`1[System.Object].RaiseEvent[MapEntitySyncResponse] (System.Object sender, SkillBridge.Message.MapEntitySyncResponse msg)
}</args></log4net.Error>
2021-05-14 17:45:41,941 [ 1] INFO  Unity: OnEntityChanged::ID :1 POS:SkillBridge.Message.NVector3, DIR:SkillBridge.Message.NVector3,SPD:300
2021-05-14 17:45:41,942 [ 1] ERROR Unity: Message handler exception:, Index (zero based) must be greater than or equal to zero and less than the size of the argument list., mscorlib,   at System.String.FormatHelper (System.Text.StringBuilder result, IFormatProvider provider, System.String format, System.Object[] args) [0x00000] in <filename unknown>:0 
  at System.Text.StringBuilder.AppendFormat (IFormatProvider provider, System.String format, System.Object[] args) [0x00000] in <filename unknown>:0 
  at System.Text.StringBuilder.AppendFormat (System.String format, System.Object arg0, System.Object arg1) [0x00000] in <filename unknown>:0 
  at Services.MapService.OnMapEntitySyncResponse (System.Object sender, SkillBridge.Message.MapEntitySyncResponse response) [0x00000] in <filename unknown>:0 
  at Network.MessageDistributer`1[System.Object].RaiseEvent[MapEntitySyncResponse] (System.Object sender, SkillBridge.Message.MapEntitySyncResponse msg) [0x00000] in <filename unknown>:0 
2021-05-14 17:45:41,942 [ 1] FATAL Unity: <log4net.Error>Exception during StringFormat: Input string was not in a correct format. <format>{0
{1}</format><args>{FormatException: Index (zero based) must be greater than or equal to zero and less than the size of the argument list., System.String.FormatHelper (System.Text.StringBuilder result, IFormatProvider provider, System.String format, System.Object[] args)
System.Text.StringBuilder.AppendFormat (IFormatProvider provider, System.String format, System.Object[] args)
System.Text.StringBuilder.AppendFormat (System.String format, System.Object arg0, System.Object arg1)
Services.MapService.OnMapEntitySyncResponse (System.Object sender, SkillBridge.Message.MapEntitySyncResponse response)
Network.MessageDistributer`1[System.Object].RaiseEvent[MapEntitySyncResponse] (System.Object sender, SkillBridge.Message.MapEntitySyncResponse msg)
}</args></log4net.Error>
2021-05-14 17:45:42,034 [ 1] INFO  Unity: OnEntityChanged::ID :1 POS:SkillBridge.Message.NVector3, DIR:SkillBridge.Message.NVector3,SPD:300
2021-05-14 17:45:42,034 [ 1] ERROR Unity: Message handler exception:, Index (zero based) must be greater than or equal to zero and less than the size of the argument list., mscorlib,   at System.String.FormatHelper (System.Text.StringBuilder result, IFormatProvider provider, System.String format, System.Object[] args) [0x00000] in <filename unknown>:0 
  at System.Text.StringBuilder.AppendFormat (IFormatProvider provider, System.String format, System.Object[] args) [0x00000] in <filename unknown>:0 
  at System.Text.StringBuilder.AppendFormat (System.String format, System.Object arg0, System.Object arg1) [0x00000] in <filename unknown>:0 
  at Services.MapService.OnMapEntitySyncResponse (System.Object sender, SkillBridge.Message.MapEntitySyncResponse response) [0x00000] in <filename unknown>:0 
  at Network.MessageDistributer`1[System.Object].RaiseEvent[MapEntitySyncResponse] (System.Object sender, SkillBridge.Message.MapEntitySyncResponse msg) [0x00000] in <filename unknown>:0 
2021-05-14 17:45:42,035 [ 1] FATAL Unity: <log4net.Error>Exception during StringFormat: Input string was not in a correct format. <format>{0
{1}</format><args>{FormatException: Index (zero based) must be greater than or equal to zero and less than the size of the argument list., System.String.FormatHelper (System.Text.StringBuilder result, IFormatProvider provider, System.String format, System.Object[] args)
System.Text.StringBuilder.AppendFormat (IFormatProvider provider, System.String format, System.Object[] args)
System.Text.StringBuilder.AppendFormat (System.String format, System.Object arg0, System.Object arg1)
Services.MapService.OnMapEntitySyncResponse (System.Object sender, SkillBridge.Message.MapEntitySyncResponse response)
Network.MessageDistributer`1[System.Object].RaiseEvent[MapEntitySyncResponse] (System.Object sender, SkillBridge.Message.MapEntitySyncResponse msg)
}</args></log4net.Error>
2021-05-14 17:45:42,108 [ 1] INFO  Unity: OnEntityChanged::ID :1 POS:SkillBridge.Message.NVector3, DIR:SkillBridge.Message.NVector3,SPD:300
2021-05-14 17:45:42,108 [ 1] ERROR Unity: Message handler exception:, Index (zero based) must be greater than or equal to zero and less than the size of the argument list., mscorlib,   at System.String.FormatHelper (System.Text.StringBuilder result, IFormatProvider provider, System.String format, System.Object[] args) [0x00000] in <filename unknown>:0 
  at System.Text.StringBuilder.AppendFormat (IFormatProvider provider, System.String format, System.Object[] args) [0x00000] in <filename unknown>:0 
  at System.Text.StringBuilder.AppendFormat (System.String format, System.Object arg0, System.Object arg1) [0x00000] in <filename unknown>:0 
  at Services.MapService.OnMapEntitySyncResponse (System.Object sender, SkillBridge.Message.MapEntitySyncResponse response) [0x00000] in <filename unknown>:0 
  at Network.MessageDistributer`1[System.Object].RaiseEvent[MapEntitySyncResponse] (System.Object sender, SkillBridge.Message.MapEntitySyncResponse msg) [0x00000] in <filename unknown>:0 
2021-05-14 17:45:42,109 [ 1] FATAL Unity: <log4net.Error>Exception during StringFormat: Input string was not in a correct format. <format>{0
{1}</format><args>{FormatException: Index (zero based) must be greater than or equal to zero and less than the size of the argument list., System.String.FormatHelper (System.Text.StringBuilder result, IFormatProvider provider, System.String format, System.Object[] args)
System.Text.StringBuilder.AppendFormat (IFormatProvider provider, System.String format, System.Object[] args)
System.Text.StringBuilder.AppendFormat (System.String format, System.Object arg0, System.Object arg1)
Services.MapService.OnMapEntitySyncResponse (System.Object sender, SkillBridge.Message.MapEntitySyncResponse response)
Network.MessageDistributer`1[System.Object].RaiseEvent[MapEntitySyncResponse] (System.Object sender, SkillBridge.Message.MapEntitySyncResponse msg)
}</args></log4net.Error>
2021-05-14 17:45:42,150 [ 1] INFO  Unity: OnEntityChanged::ID :1 POS:SkillBridge.Message.NVector3, DIR:SkillBridge.Message.NVector3,SPD:0
2021-05-14 17:45:42,150 [ 1] ERROR Unity: Message handler exception:, Index (zero based) must be greater than or equal to zero and less than the size of the argument list., mscorlib,   at System.String.FormatHelper (System.Text.StringBuilder result, IFormatProvider provider, System.String format, System.Object[] args) [0x00000] in <filename unknown>:0 
  at System.Text.StringBuilder.AppendFormat (IFormatProvider provider, System.String format, System.Object[] args) [0x00000] in <filename unknown>:0 
  at System.Text.StringBuilder.AppendFormat (System.String format, System.Object arg0, System.Object arg1) [0x00000] in <filename unknown>:0 
  at Services.MapService.OnMapEntitySyncResponse (System.Object sender, SkillBridge.Message.MapEntitySyncResponse response) [0x00000] in <filename unknown>:0 
  at Network.MessageDistributer`1[System.Object].RaiseEvent[MapEntitySyncResponse] (System.Object sender, SkillBridge.Message.MapEntitySyncResponse msg) [0x00000] in <filename unknown>:0 
2021-05-14 17:45:42,150 [ 1] FATAL Unity: <log4net.Error>Exception during StringFormat: Input string was not in a correct format. <format>{0
{1}</format><args>{FormatException: Index (zero based) must be greater than or equal to zero and less than the size of the argument list., System.String.FormatHelper (System.Text.StringBuilder result, IFormatProvider provider, System.String format, System.Object[] args)
System.Text.StringBuilder.AppendFormat (IFormatProvider provider, System.String format, System.Object[] args)
System.Text.StringBuilder.AppendFormat (System.String format, System.Object arg0, System.Object arg1)
Services.MapService.OnMapEntitySyncResponse (System.Object sender, SkillBridge.Message.MapEntitySyncResponse response)
Network.MessageDistributer`1[System.Object].RaiseEvent[MapEntitySyncResponse] (System.Object sender, SkillBridge.Message.MapEntitySyncResponse msg)
}</args></log4net.Error>
2021-05-14 17:45:42,217 [ 1] INFO  Unity: OnEntityChanged::ID :1 POS:SkillBridge.Message.NVector3, DIR:SkillBridge.Message.NVector3,SPD:0
2021-05-14 17:45:42,217 [ 1] ERROR Unity: Message handler exception:, Index (zero based) must be greater than or equal to zero and less than the size of the argument list., mscorlib,   at System.String.FormatHelper (System.Text.StringBuilder result, IFormatProvider provider, System.String format, System.Object[] args) [0x00000] in <filename unknown>:0 
  at System.Text.StringBuilder.AppendFormat (IFormatProvider provider, System.String format, System.Object[] args) [0x00000] in <filename unknown>:0 
  at System.Text.StringBuilder.AppendFormat (System.String format, System.Object arg0, System.Object arg1) [0x00000] in <filename unknown>:0 
  at Services.MapService.OnMapEntitySyncResponse (System.Object sender, SkillBridge.Message.MapEntitySyncResponse response) [0x00000] in <filename unknown>:0 
  at Network.MessageDistributer`1[System.Object].RaiseEvent[MapEntitySyncResponse] (System.Object sender, SkillBridge.Message.MapEntitySyncResponse msg) [0x00000] in <filename unknown>:0 
2021-05-14 17:45:42,218 [ 1] FATAL Unity: <log4net.Error>Exception during StringFormat: Input string was not in a correct format. <format>{0
{1}</format><args>{FormatException: Index (zero based) must be greater than or equal to zero and less than the size of the argument list., System.String.FormatHelper (System.Text.StringBuilder result, IFormatProvider provider, System.String format, System.Object[] args)
System.Text.StringBuilder.AppendFormat (IFormatProvider provider, System.String format, System.Object[] args)
System.Text.StringBuilder.AppendFormat (System.String format, System.Object arg0, System.Object arg1)
Services.MapService.OnMapEntitySyncResponse (System.Object sender, SkillBridge.Message.MapEntitySyncResponse response)
Network.MessageDistributer`1[System.Object].RaiseEvent[MapEntitySyncResponse] (System.Object sender, SkillBridge.Message.MapEntitySyncResponse msg)
}</args></log4net.Error>
2021-05-14 17:45:42,292 [ 1] INFO  Unity: OnEntityChanged::ID :1 POS:SkillBridge.Message.NVector3, DIR:SkillBridge.Message.NVector3,SPD:0
2021-05-14 17:45:42,292 [ 1] ERROR Unity: Message handler exception:, Index (zero based) must be greater than or equal to zero and less than the size of the argument list., mscorlib,   at System.String.FormatHelper (System.Text.StringBuilder result, IFormatProvider provider, System.String format, System.Object[] args) [0x00000] in <filename unknown>:0 
  at System.Text.StringBuilder.AppendFormat (IFormatProvider provider, System.String format, System.Object[] args) [0x00000] in <filename unknown>:0 
  at System.Text.StringBuilder.AppendFormat (System.String format, System.Object arg0, System.Object arg1) [0x00000] in <filename unknown>:0 
  at Services.MapService.OnMapEntitySyncResponse (System.Object sender, SkillBridge.Message.MapEntitySyncResponse response) [0x00000] in <filename unknown>:0 
  at Network.MessageDistributer`1[System.Object].RaiseEvent[MapEntitySyncResponse] (System.Object sender, SkillBridge.Message.MapEntitySyncResponse msg) [0x00000] in <filename unknown>:0 
2021-05-14 17:45:42,292 [ 1] FATAL Unity: <log4net.Error>Exception during StringFormat: Input string was not in a correct format. <format>{0
{1}</format><args>{FormatException: Index (zero based) must be greater than or equal to zero and less than the size of the argument list., System.String.FormatHelper (System.Text.StringBuilder result, IFormatProvider provider, System.String format, System.Object[] args)
System.Text.StringBuilder.AppendFormat (IFormatProvider provider, System.String format, System.Object[] args)
System.Text.StringBuilder.AppendFormat (System.String format, System.Object arg0, System.Object arg1)
Services.MapService.OnMapEntitySyncResponse (System.Object sender, SkillBridge.Message.MapEntitySyncResponse response)
Network.MessageDistributer`1[System.Object].RaiseEvent[MapEntitySyncResponse] (System.Object sender, SkillBridge.Message.MapEntitySyncResponse msg)
}</args></log4net.Error>
2021-05-14 17:45:42,400 [ 1] INFO  Unity: OnEntityChanged::ID :1 POS:SkillBridge.Message.NVector3, DIR:SkillBridge.Message.NVector3,SPD:0
2021-05-14 17:45:42,401 [ 1] ERROR Unity: Message handler exception:, Index (zero based) must be greater than or equal to zero and less than the size of the argument list., mscorlib,   at System.String.FormatHelper (System.Text.StringBuilder result, IFormatProvider provider, System.String format, System.Object[] args) [0x00000] in <filename unknown>:0 
  at System.Text.StringBuilder.AppendFormat (IFormatProvider provider, System.String format, System.Object[] args) [0x00000] in <filename unknown>:0 
  at System.Text.StringBuilder.AppendFormat (System.String format, System.Object arg0, System.Object arg1) [0x00000] in <filename unknown>:0 
  at Services.MapService.OnMapEntitySyncResponse (System.Object sender, SkillBridge.Message.MapEntitySyncResponse response) [0x00000] in <filename unknown>:0 
  at Network.MessageDistributer`1[System.Object].RaiseEvent[MapEntitySyncResponse] (System.Object sender, SkillBridge.Message.MapEntitySyncResponse msg) [0x00000] in <filename unknown>:0 
2021-05-14 17:45:42,401 [ 1] FATAL Unity: <log4net.Error>Exception during StringFormat: Input string was not in a correct format. <format>{0
{1}</format><args>{FormatException: Index (zero based) must be greater than or equal to zero and less than the size of the argument list., System.String.FormatHelper (System.Text.StringBuilder result, IFormatProvider provider, System.String format, System.Object[] args)
System.Text.StringBuilder.AppendFormat (IFormatProvider provider, System.String format, System.Object[] args)
System.Text.StringBuilder.AppendFormat (System.String format, System.Object arg0, System.Object arg1)
Services.MapService.OnMapEntitySyncResponse (System.Object sender, SkillBridge.Message.MapEntitySyncResponse response)
Network.MessageDistributer`1[System.Object].RaiseEvent[MapEntitySyncResponse] (System.Object sender, SkillBridge.Message.MapEntitySyncResponse msg)
}</args></log4net.Error>
2021-05-14 17:45:42,451 [ 1] INFO  Unity: OnEntityChanged::ID :1 POS:SkillBridge.Message.NVector3, DIR:SkillBridge.Message.NVector3,SPD:-300
2021-05-14 17:45:42,451 [ 1] ERROR Unity: Message handler exception:, Index (zero based) must be greater than or equal to zero and less than the size of the argument list., mscorlib,   at System.String.FormatHelper (System.Text.StringBuilder result, IFormatProvider provider, System.String format, System.Object[] args) [0x00000] in <filename unknown>:0 
  at System.Text.StringBuilder.AppendFormat (IFormatProvider provider, System.String format, System.Object[] args) [0x00000] in <filename unknown>:0 
  at System.Text.StringBuilder.AppendFormat (System.String format, System.Object arg0, System.Object arg1) [0x00000] in <filename unknown>:0 
  at Services.MapService.OnMapEntitySyncResponse (System.Object sender, SkillBridge.Message.MapEntitySyncResponse response) [0x00000] in <filename unknown>:0 
  at Network.MessageDistributer`1[System.Object].RaiseEvent[MapEntitySyncResponse] (System.Object sender, SkillBridge.Message.MapEntitySyncResponse msg) [0x00000] in <filename unknown>:0 
2021-05-14 17:45:42,451 [ 1] FATAL Unity: <log4net.Error>Exception during StringFormat: Input string was not in a correct format. <format>{0
{1}</format><args>{FormatException: Index (zero based) must be greater than or equal to zero and less than the size of the argument list., System.String.FormatHelper (System.Text.StringBuilder result, IFormatProvider provider, System.String format, System.Object[] args)
System.Text.StringBuilder.AppendFormat (IFormatProvider provider, System.String format, System.Object[] args)
System.Text.StringBuilder.AppendFormat (System.String format, System.Object arg0, System.Object arg1)
Services.MapService.OnMapEntitySyncResponse (System.Object sender, SkillBridge.Message.MapEntitySyncResponse response)
Network.MessageDistributer`1[System.Object].RaiseEvent[MapEntitySyncResponse] (System.Object sender, SkillBridge.Message.MapEntitySyncResponse msg)
}</args></log4net.Error>
2021-05-14 17:45:42,500 [ 1] INFO  Unity: OnEntityChanged::ID :1 POS:SkillBridge.Message.NVector3, DIR:SkillBridge.Message.NVector3,SPD:-300
2021-05-14 17:45:42,500 [ 1] ERROR Unity: Message handler exception:, Index (zero based) must be greater than or equal to zero and less than the size of the argument list., mscorlib,   at System.String.FormatHelper (System.Text.StringBuilder result, IFormatProvider provider, System.String format, System.Object[] args) [0x00000] in <filename unknown>:0 
  at System.Text.StringBuilder.AppendFormat (IFormatProvider provider, System.String format, System.Object[] args) [0x00000] in <filename unknown>:0 
  at System.Text.StringBuilder.AppendFormat (System.String format, System.Object arg0, System.Object arg1) [0x00000] in <filename unknown>:0 
  at Services.MapService.OnMapEntitySyncResponse (System.Object sender, SkillBridge.Message.MapEntitySyncResponse response) [0x00000] in <filename unknown>:0 
  at Network.MessageDistributer`1[System.Object].RaiseEvent[MapEntitySyncResponse] (System.Object sender, SkillBridge.Message.MapEntitySyncResponse msg) [0x00000] in <filename unknown>:0 
2021-05-14 17:45:42,501 [ 1] FATAL Unity: <log4net.Error>Exception during StringFormat: Input string was not in a correct format. <format>{0
{1}</format><args>{FormatException: Index (zero based) must be greater than or equal to zero and less than the size of the argument list., System.String.FormatHelper (System.Text.StringBuilder result, IFormatProvider provider, System.String format, System.Object[] args)
System.Text.StringBuilder.AppendFormat (IFormatProvider provider, System.String format, System.Object[] args)
System.Text.StringBuilder.AppendFormat (System.String format, System.Object arg0, System.Object arg1)
Services.MapService.OnMapEntitySyncResponse (System.Object sender, SkillBridge.Message.MapEntitySyncResponse response)
Network.MessageDistributer`1[System.Object].RaiseEvent[MapEntitySyncResponse] (System.Object sender, SkillBridge.Message.MapEntitySyncResponse msg)
}</args></log4net.Error>
2021-05-14 17:45:42,575 [ 1] INFO  Unity: OnEntityChanged::ID :1 POS:SkillBridge.Message.NVector3, DIR:SkillBridge.Message.NVector3,SPD:-300
2021-05-14 17:45:42,575 [ 1] ERROR Unity: Message handler exception:, Index (zero based) must be greater than or equal to zero and less than the size of the argument list., mscorlib,   at System.String.FormatHelper (System.Text.StringBuilder result, IFormatProvider provider, System.String format, System.Object[] args) [0x00000] in <filename unknown>:0 
  at System.Text.StringBuilder.AppendFormat (IFormatProvider provider, System.String format, System.Object[] args) [0x00000] in <filename unknown>:0 
  at System.Text.StringBuilder.AppendFormat (System.String format, System.Object arg0, System.Object arg1) [0x00000] in <filename unknown>:0 
  at Services.MapService.OnMapEntitySyncResponse (System.Object sender, SkillBridge.Message.MapEntitySyncResponse response) [0x00000] in <filename unknown>:0 
  at Network.MessageDistributer`1[System.Object].RaiseEvent[MapEntitySyncResponse] (System.Object sender, SkillBridge.Message.MapEntitySyncResponse msg) [0x00000] in <filename unknown>:0 
2021-05-14 17:45:42,576 [ 1] FATAL Unity: <log4net.Error>Exception during StringFormat: Input string was not in a correct format. <format>{0
{1}</format><args>{FormatException: Index (zero based) must be greater than or equal to zero and less than the size of the argument list., System.String.FormatHelper (System.Text.StringBuilder result, IFormatProvider provider, System.String format, System.Object[] args)
System.Text.StringBuilder.AppendFormat (IFormatProvider provider, System.String format, System.Object[] args)
System.Text.StringBuilder.AppendFormat (System.String format, System.Object arg0, System.Object arg1)
Services.MapService.OnMapEntitySyncResponse (System.Object sender, SkillBridge.Message.MapEntitySyncResponse response)
Network.MessageDistributer`1[System.Object].RaiseEvent[MapEntitySyncResponse] (System.Object sender, SkillBridge.Message.MapEntitySyncResponse msg)
}</args></log4net.Error>
2021-05-14 17:45:42,692 [ 1] INFO  Unity: OnEntityChanged::ID :1 POS:SkillBridge.Message.NVector3, DIR:SkillBridge.Message.NVector3,SPD:-300
2021-05-14 17:45:42,692 [ 1] ERROR Unity: Message handler exception:, Index (zero based) must be greater than or equal to zero and less than the size of the argument list., mscorlib,   at System.String.FormatHelper (System.Text.StringBuilder result, IFormatProvider provider, System.String format, System.Object[] args) [0x00000] in <filename unknown>:0 
  at System.Text.StringBuilder.AppendFormat (IFormatProvider provider, System.String format, System.Object[] args) [0x00000] in <filename unknown>:0 
  at System.Text.StringBuilder.AppendFormat (System.String format, System.Object arg0, System.Object arg1) [0x00000] in <filename unknown>:0 
  at Services.MapService.OnMapEntitySyncResponse (System.Object sender, SkillBridge.Message.MapEntitySyncResponse response) [0x00000] in <filename unknown>:0 
  at Network.MessageDistributer`1[System.Object].RaiseEvent[MapEntitySyncResponse] (System.Object sender, SkillBridge.Message.MapEntitySyncResponse msg) [0x00000] in <filename unknown>:0 
2021-05-14 17:45:42,693 [ 1] FATAL Unity: <log4net.Error>Exception during StringFormat: Input string was not in a correct format. <format>{0
{1}</format><args>{FormatException: Index (zero based) must be greater than or equal to zero and less than the size of the argument list., System.String.FormatHelper (System.Text.StringBuilder result, IFormatProvider provider, System.String format, System.Object[] args)
System.Text.StringBuilder.AppendFormat (IFormatProvider provider, System.String format, System.Object[] args)
System.Text.StringBuilder.AppendFormat (System.String format, System.Object arg0, System.Object arg1)
Services.MapService.OnMapEntitySyncResponse (System.Object sender, SkillBridge.Message.MapEntitySyncResponse response)
Network.MessageDistributer`1[System.Object].RaiseEvent[MapEntitySyncResponse] (System.Object sender, SkillBridge.Message.MapEntitySyncResponse msg)
}</args></log4net.Error>
2021-05-14 17:45:42,866 [ 1] INFO  Unity: OnEntityChanged::ID :1 POS:SkillBridge.Message.NVector3, DIR:SkillBridge.Message.NVector3,SPD:0
2021-05-14 17:45:42,866 [ 1] ERROR Unity: Message handler exception:, Index (zero based) must be greater than or equal to zero and less than the size of the argument list., mscorlib,   at System.String.FormatHelper (System.Text.StringBuilder result, IFormatProvider provider, System.String format, System.Object[] args) [0x00000] in <filename unknown>:0 
  at System.Text.StringBuilder.AppendFormat (IFormatProvider provider, System.String format, System.Object[] args) [0x00000] in <filename unknown>:0 
  at System.Text.StringBuilder.AppendFormat (System.String format, System.Object arg0, System.Object arg1) [0x00000] in <filename unknown>:0 
  at Services.MapService.OnMapEntitySyncResponse (System.Object sender, SkillBridge.Message.MapEntitySyncResponse response) [0x00000] in <filename unknown>:0 
  at Network.MessageDistributer`1[System.Object].RaiseEvent[MapEntitySyncResponse] (System.Object sender, SkillBridge.Message.MapEntitySyncResponse msg) [0x00000] in <filename unknown>:0 
2021-05-14 17:45:42,867 [ 1] FATAL Unity: <log4net.Error>Exception during StringFormat: Input string was not in a correct format. <format>{0
{1}</format><args>{FormatException: Index (zero based) must be greater than or equal to zero and less than the size of the argument list., System.String.FormatHelper (System.Text.StringBuilder result, IFormatProvider provider, System.String format, System.Object[] args)
System.Text.StringBuilder.AppendFormat (IFormatProvider provider, System.String format, System.Object[] args)
System.Text.StringBuilder.AppendFormat (System.String format, System.Object arg0, System.Object arg1)
Services.MapService.OnMapEntitySyncResponse (System.Object sender, SkillBridge.Message.MapEntitySyncResponse response)
Network.MessageDistributer`1[System.Object].RaiseEvent[MapEntitySyncResponse] (System.Object sender, SkillBridge.Message.MapEntitySyncResponse msg)
}</args></log4net.Error>
2021-05-14 17:45:42,900 [ 1] INFO  Unity: OnEntityChanged::ID :1 POS:SkillBridge.Message.NVector3, DIR:SkillBridge.Message.NVector3,SPD:0
2021-05-14 17:45:42,900 [ 1] ERROR Unity: Message handler exception:, Index (zero based) must be greater than or equal to zero and less than the size of the argument list., mscorlib,   at System.String.FormatHelper (System.Text.StringBuilder result, IFormatProvider provider, System.String format, System.Object[] args) [0x00000] in <filename unknown>:0 
  at System.Text.StringBuilder.AppendFormat (IFormatProvider provider, System.String format, System.Object[] args) [0x00000] in <filename unknown>:0 
  at System.Text.StringBuilder.AppendFormat (System.String format, System.Object arg0, System.Object arg1) [0x00000] in <filename unknown>:0 
  at Services.MapService.OnMapEntitySyncResponse (System.Object sender, SkillBridge.Message.MapEntitySyncResponse response) [0x00000] in <filename unknown>:0 
  at Network.MessageDistributer`1[System.Object].RaiseEvent[MapEntitySyncResponse] (System.Object sender, SkillBridge.Message.MapEntitySyncResponse msg) [0x00000] in <filename unknown>:0 
2021-05-14 17:45:42,900 [ 1] FATAL Unity: <log4net.Error>Exception during StringFormat: Input string was not in a correct format. <format>{0
{1}</format><args>{FormatException: Index (zero based) must be greater than or equal to zero and less than the size of the argument list., System.String.FormatHelper (System.Text.StringBuilder result, IFormatProvider provider, System.String format, System.Object[] args)
System.Text.StringBuilder.AppendFormat (IFormatProvider provider, System.String format, System.Object[] args)
System.Text.StringBuilder.AppendFormat (System.String format, System.Object arg0, System.Object arg1)
Services.MapService.OnMapEntitySyncResponse (System.Object sender, SkillBridge.Message.MapEntitySyncResponse response)
Network.MessageDistributer`1[System.Object].RaiseEvent[MapEntitySyncResponse] (System.Object sender, SkillBridge.Message.MapEntitySyncResponse msg)
}</args></log4net.Error>
2021-05-14 17:46:29,405 [ 1] INFO  Unity: OnEntityChanged::ID :1 POS:SkillBridge.Message.NVector3, DIR:SkillBridge.Message.NVector3,SPD:300
2021-05-14 17:46:29,405 [ 1] ERROR Unity: Message handler exception:, Index (zero based) must be greater than or equal to zero and less than the size of the argument list., mscorlib,   at System.String.FormatHelper (System.Text.StringBuilder result, IFormatProvider provider, System.String format, System.Object[] args) [0x00000] in <filename unknown>:0 
  at System.Text.StringBuilder.AppendFormat (IFormatProvider provider, System.String format, System.Object[] args) [0x00000] in <filename unknown>:0 
  at System.Text.StringBuilder.AppendFormat (System.String format, System.Object arg0, System.Object arg1) [0x00000] in <filename unknown>:0 
  at Services.MapService.OnMapEntitySyncResponse (System.Object sender, SkillBridge.Message.MapEntitySyncResponse response) [0x00000] in <filename unknown>:0 
  at Network.MessageDistributer`1[System.Object].RaiseEvent[MapEntitySyncResponse] (System.Object sender, SkillBridge.Message.MapEntitySyncResponse msg) [0x00000] in <filename unknown>:0 
2021-05-14 17:46:29,405 [ 1] FATAL Unity: <log4net.Error>Exception during StringFormat: Input string was not in a correct format. <format>{0
{1}</format><args>{FormatException: Index (zero based) must be greater than or equal to zero and less than the size of the argument list., System.String.FormatHelper (System.Text.StringBuilder result, IFormatProvider provider, System.String format, System.Object[] args)
System.Text.StringBuilder.AppendFormat (IFormatProvider provider, System.String format, System.Object[] args)
System.Text.StringBuilder.AppendFormat (System.String format, System.Object arg0, System.Object arg1)
Services.MapService.OnMapEntitySyncResponse (System.Object sender, SkillBridge.Message.MapEntitySyncResponse response)
Network.MessageDistributer`1[System.Object].RaiseEvent[MapEntitySyncResponse] (System.Object sender, SkillBridge.Message.MapEntitySyncResponse msg)
}</args></log4net.Error>
2021-05-14 17:46:29,446 [ 1] INFO  Unity: OnEntityChanged::ID :1 POS:SkillBridge.Message.NVector3, DIR:SkillBridge.Message.NVector3,SPD:0
2021-05-14 17:46:29,446 [ 1] ERROR Unity: Message handler exception:, Index (zero based) must be greater than or equal to zero and less than the size of the argument list., mscorlib,   at System.String.FormatHelper (System.Text.StringBuilder result, IFormatProvider provider, System.String format, System.Object[] args) [0x00000] in <filename unknown>:0 
  at System.Text.StringBuilder.AppendFormat (IFormatProvider provider, System.String format, System.Object[] args) [0x00000] in <filename unknown>:0 
  at System.Text.StringBuilder.AppendFormat (System.String format, System.Object arg0, System.Object arg1) [0x00000] in <filename unknown>:0 
  at Services.MapService.OnMapEntitySyncResponse (System.Object sender, SkillBridge.Message.MapEntitySyncResponse response) [0x00000] in <filename unknown>:0 
  at Network.MessageDistributer`1[System.Object].RaiseEvent[MapEntitySyncResponse] (System.Object sender, SkillBridge.Message.MapEntitySyncResponse msg) [0x00000] in <filename unknown>:0 
2021-05-14 17:46:29,447 [ 1] FATAL Unity: <log4net.Error>Exception during StringFormat: Input string was not in a correct format. <format>{0
{1}</format><args>{FormatException: Index (zero based) must be greater than or equal to zero and less than the size of the argument list., System.String.FormatHelper (System.Text.StringBuilder result, IFormatProvider provider, System.String format, System.Object[] args)
System.Text.StringBuilder.AppendFormat (IFormatProvider provider, System.String format, System.Object[] args)
System.Text.StringBuilder.AppendFormat (System.String format, System.Object arg0, System.Object arg1)
Services.MapService.OnMapEntitySyncResponse (System.Object sender, SkillBridge.Message.MapEntitySyncResponse response)
Network.MessageDistributer`1[System.Object].RaiseEvent[MapEntitySyncResponse] (System.Object sender, SkillBridge.Message.MapEntitySyncResponse msg)
}</args></log4net.Error>
2021-05-14 17:46:30,138 [ 1] INFO  Unity: OnEntityChanged::ID :1 POS:SkillBridge.Message.NVector3, DIR:SkillBridge.Message.NVector3,SPD:300
2021-05-14 17:46:30,138 [ 1] ERROR Unity: Message handler exception:, Index (zero based) must be greater than or equal to zero and less than the size of the argument list., mscorlib,   at System.String.FormatHelper (System.Text.StringBuilder result, IFormatProvider provider, System.String format, System.Object[] args) [0x00000] in <filename unknown>:0 
  at System.Text.StringBuilder.AppendFormat (IFormatProvider provider, System.String format, System.Object[] args) [0x00000] in <filename unknown>:0 
  at System.Text.StringBuilder.AppendFormat (System.String format, System.Object arg0, System.Object arg1) [0x00000] in <filename unknown>:0 
  at Services.MapService.OnMapEntitySyncResponse (System.Object sender, SkillBridge.Message.MapEntitySyncResponse response) [0x00000] in <filename unknown>:0 
  at Network.MessageDistributer`1[System.Object].RaiseEvent[MapEntitySyncResponse] (System.Object sender, SkillBridge.Message.MapEntitySyncResponse msg) [0x00000] in <filename unknown>:0 
2021-05-14 17:46:30,139 [ 1] FATAL Unity: <log4net.Error>Exception during StringFormat: Input string was not in a correct format. <format>{0
{1}</format><args>{FormatException: Index (zero based) must be greater than or equal to zero and less than the size of the argument list., System.String.FormatHelper (System.Text.StringBuilder result, IFormatProvider provider, System.String format, System.Object[] args)
System.Text.StringBuilder.AppendFormat (IFormatProvider provider, System.String format, System.Object[] args)
System.Text.StringBuilder.AppendFormat (System.String format, System.Object arg0, System.Object arg1)
Services.MapService.OnMapEntitySyncResponse (System.Object sender, SkillBridge.Message.MapEntitySyncResponse response)
Network.MessageDistributer`1[System.Object].RaiseEvent[MapEntitySyncResponse] (System.Object sender, SkillBridge.Message.MapEntitySyncResponse msg)
}</args></log4net.Error>
2021-05-14 17:46:30,288 [ 1] INFO  Unity: OnEntityChanged::ID :1 POS:SkillBridge.Message.NVector3, DIR:SkillBridge.Message.NVector3,SPD:0
2021-05-14 17:46:30,288 [ 1] ERROR Unity: Message handler exception:, Index (zero based) must be greater than or equal to zero and less than the size of the argument list., mscorlib,   at System.String.FormatHelper (System.Text.StringBuilder result, IFormatProvider provider, System.String format, System.Object[] args) [0x00000] in <filename unknown>:0 
  at System.Text.StringBuilder.AppendFormat (IFormatProvider provider, System.String format, System.Object[] args) [0x00000] in <filename unknown>:0 
  at System.Text.StringBuilder.AppendFormat (System.String format, System.Object arg0, System.Object arg1) [0x00000] in <filename unknown>:0 
  at Services.MapService.OnMapEntitySyncResponse (System.Object sender, SkillBridge.Message.MapEntitySyncResponse response) [0x00000] in <filename unknown>:0 
  at Network.MessageDistributer`1[System.Object].RaiseEvent[MapEntitySyncResponse] (System.Object sender, SkillBridge.Message.MapEntitySyncResponse msg) [0x00000] in <filename unknown>:0 
2021-05-14 17:46:30,288 [ 1] FATAL Unity: <log4net.Error>Exception during StringFormat: Input string was not in a correct format. <format>{0
{1}</format><args>{FormatException: Index (zero based) must be greater than or equal to zero and less than the size of the argument list., System.String.FormatHelper (System.Text.StringBuilder result, IFormatProvider provider, System.String format, System.Object[] args)
System.Text.StringBuilder.AppendFormat (IFormatProvider provider, System.String format, System.Object[] args)
System.Text.StringBuilder.AppendFormat (System.String format, System.Object arg0, System.Object arg1)
Services.MapService.OnMapEntitySyncResponse (System.Object sender, SkillBridge.Message.MapEntitySyncResponse response)
Network.MessageDistributer`1[System.Object].RaiseEvent[MapEntitySyncResponse] (System.Object sender, SkillBridge.Message.MapEntitySyncResponse msg)
}</args></log4net.Error>
2021-05-14 17:46:30,681 [ 1] INFO  Unity: OnEntityChanged::ID :1 POS:SkillBridge.Message.NVector3, DIR:SkillBridge.Message.NVector3,SPD:0
2021-05-14 17:46:30,681 [ 1] ERROR Unity: Message handler exception:, Index (zero based) must be greater than or equal to zero and less than the size of the argument list., mscorlib,   at System.String.FormatHelper (System.Text.StringBuilder result, IFormatProvider provider, System.String format, System.Object[] args) [0x00000] in <filename unknown>:0 
  at System.Text.StringBuilder.AppendFormat (IFormatProvider provider, System.String format, System.Object[] args) [0x00000] in <filename unknown>:0 
  at System.Text.StringBuilder.AppendFormat (System.String format, System.Object arg0, System.Object arg1) [0x00000] in <filename unknown>:0 
  at Services.MapService.OnMapEntitySyncResponse (System.Object sender, SkillBridge.Message.MapEntitySyncResponse response) [0x00000] in <filename unknown>:0 
  at Network.MessageDistributer`1[System.Object].RaiseEvent[MapEntitySyncResponse] (System.Object sender, SkillBridge.Message.MapEntitySyncResponse msg) [0x00000] in <filename unknown>:0 
2021-05-14 17:46:30,681 [ 1] FATAL Unity: <log4net.Error>Exception during StringFormat: Input string was not in a correct format. <format>{0
{1}</format><args>{FormatException: Index (zero based) must be greater than or equal to zero and less than the size of the argument list., System.String.FormatHelper (System.Text.StringBuilder result, IFormatProvider provider, System.String format, System.Object[] args)
System.Text.StringBuilder.AppendFormat (IFormatProvider provider, System.String format, System.Object[] args)
System.Text.StringBuilder.AppendFormat (System.String format, System.Object arg0, System.Object arg1)
Services.MapService.OnMapEntitySyncResponse (System.Object sender, SkillBridge.Message.MapEntitySyncResponse response)
Network.MessageDistributer`1[System.Object].RaiseEvent[MapEntitySyncResponse] (System.Object sender, SkillBridge.Message.MapEntitySyncResponse msg)
}</args></log4net.Error>
2021-05-14 17:46:30,721 [ 1] INFO  Unity: OnEntityChanged::ID :1 POS:SkillBridge.Message.NVector3, DIR:SkillBridge.Message.NVector3,SPD:300
2021-05-14 17:46:30,722 [ 1] ERROR Unity: Message handler exception:, Index (zero based) must be greater than or equal to zero and less than the size of the argument list., mscorlib,   at System.String.FormatHelper (System.Text.StringBuilder result, IFormatProvider provider, System.String format, System.Object[] args) [0x00000] in <filename unknown>:0 
  at System.Text.StringBuilder.AppendFormat (IFormatProvider provider, System.String format, System.Object[] args) [0x00000] in <filename unknown>:0 
  at System.Text.StringBuilder.AppendFormat (System.String format, System.Object arg0, System.Object arg1) [0x00000] in <filename unknown>:0 
  at Services.MapService.OnMapEntitySyncResponse (System.Object sender, SkillBridge.Message.MapEntitySyncResponse response) [0x00000] in <filename unknown>:0 
  at Network.MessageDistributer`1[System.Object].RaiseEvent[MapEntitySyncResponse] (System.Object sender, SkillBridge.Message.MapEntitySyncResponse msg) [0x00000] in <filename unknown>:0 
2021-05-14 17:46:30,722 [ 1] FATAL Unity: <log4net.Error>Exception during StringFormat: Input string was not in a correct format. <format>{0
{1}</format><args>{FormatException: Index (zero based) must be greater than or equal to zero and less than the size of the argument list., System.String.FormatHelper (System.Text.StringBuilder result, IFormatProvider provider, System.String format, System.Object[] args)
System.Text.StringBuilder.AppendFormat (IFormatProvider provider, System.String format, System.Object[] args)
System.Text.StringBuilder.AppendFormat (System.String format, System.Object arg0, System.Object arg1)
Services.MapService.OnMapEntitySyncResponse (System.Object sender, SkillBridge.Message.MapEntitySyncResponse response)
Network.MessageDistributer`1[System.Object].RaiseEvent[MapEntitySyncResponse] (System.Object sender, SkillBridge.Message.MapEntitySyncResponse msg)
}</args></log4net.Error>
2021-05-14 17:46:30,754 [ 1] INFO  Unity: OnEntityChanged::ID :1 POS:SkillBridge.Message.NVector3, DIR:SkillBridge.Message.NVector3,SPD:300
2021-05-14 17:46:30,755 [ 1] ERROR Unity: Message handler exception:, Index (zero based) must be greater than or equal to zero and less than the size of the argument list., mscorlib,   at System.String.FormatHelper (System.Text.StringBuilder result, IFormatProvider provider, System.String format, System.Object[] args) [0x00000] in <filename unknown>:0 
  at System.Text.StringBuilder.AppendFormat (IFormatProvider provider, System.String format, System.Object[] args) [0x00000] in <filename unknown>:0 
  at System.Text.StringBuilder.AppendFormat (System.String format, System.Object arg0, System.Object arg1) [0x00000] in <filename unknown>:0 
  at Services.MapService.OnMapEntitySyncResponse (System.Object sender, SkillBridge.Message.MapEntitySyncResponse response) [0x00000] in <filename unknown>:0 
  at Network.MessageDistributer`1[System.Object].RaiseEvent[MapEntitySyncResponse] (System.Object sender, SkillBridge.Message.MapEntitySyncResponse msg) [0x00000] in <filename unknown>:0 
2021-05-14 17:46:30,755 [ 1] FATAL Unity: <log4net.Error>Exception during StringFormat: Input string was not in a correct format. <format>{0
{1}</format><args>{FormatException: Index (zero based) must be greater than or equal to zero and less than the size of the argument list., System.String.FormatHelper (System.Text.StringBuilder result, IFormatProvider provider, System.String format, System.Object[] args)
System.Text.StringBuilder.AppendFormat (IFormatProvider provider, System.String format, System.Object[] args)
System.Text.StringBuilder.AppendFormat (System.String format, System.Object arg0, System.Object arg1)
Services.MapService.OnMapEntitySyncResponse (System.Object sender, SkillBridge.Message.MapEntitySyncResponse response)
Network.MessageDistributer`1[System.Object].RaiseEvent[MapEntitySyncResponse] (System.Object sender, SkillBridge.Message.MapEntitySyncResponse msg)
}</args></log4net.Error>
2021-05-14 17:46:30,872 [ 1] INFO  Unity: OnEntityChanged::ID :1 POS:SkillBridge.Message.NVector3, DIR:SkillBridge.Message.NVector3,SPD:0
2021-05-14 17:46:30,872 [ 1] ERROR Unity: Message handler exception:, Index (zero based) must be greater than or equal to zero and less than the size of the argument list., mscorlib,   at System.String.FormatHelper (System.Text.StringBuilder result, IFormatProvider provider, System.String format, System.Object[] args) [0x00000] in <filename unknown>:0 
  at System.Text.StringBuilder.AppendFormat (IFormatProvider provider, System.String format, System.Object[] args) [0x00000] in <filename unknown>:0 
  at System.Text.StringBuilder.AppendFormat (System.String format, System.Object arg0, System.Object arg1) [0x00000] in <filename unknown>:0 
  at Services.MapService.OnMapEntitySyncResponse (System.Object sender, SkillBridge.Message.MapEntitySyncResponse response) [0x00000] in <filename unknown>:0 
  at Network.MessageDistributer`1[System.Object].RaiseEvent[MapEntitySyncResponse] (System.Object sender, SkillBridge.Message.MapEntitySyncResponse msg) [0x00000] in <filename unknown>:0 
2021-05-14 17:46:30,872 [ 1] FATAL Unity: <log4net.Error>Exception during StringFormat: Input string was not in a correct format. <format>{0
{1}</format><args>{FormatException: Index (zero based) must be greater than or equal to zero and less than the size of the argument list., System.String.FormatHelper (System.Text.StringBuilder result, IFormatProvider provider, System.String format, System.Object[] args)
System.Text.StringBuilder.AppendFormat (IFormatProvider provider, System.String format, System.Object[] args)
System.Text.StringBuilder.AppendFormat (System.String format, System.Object arg0, System.Object arg1)
Services.MapService.OnMapEntitySyncResponse (System.Object sender, SkillBridge.Message.MapEntitySyncResponse response)
Network.MessageDistributer`1[System.Object].RaiseEvent[MapEntitySyncResponse] (System.Object sender, SkillBridge.Message.MapEntitySyncResponse msg)
}</args></log4net.Error>
2021-05-14 17:46:31,004 [ 1] INFO  Unity: OnEntityChanged::ID :1 POS:SkillBridge.Message.NVector3, DIR:SkillBridge.Message.NVector3,SPD:0
2021-05-14 17:46:31,004 [ 1] ERROR Unity: Message handler exception:, Index (zero based) must be greater than or equal to zero and less than the size of the argument list., mscorlib,   at System.String.FormatHelper (System.Text.StringBuilder result, IFormatProvider provider, System.String format, System.Object[] args) [0x00000] in <filename unknown>:0 
  at System.Text.StringBuilder.AppendFormat (IFormatProvider provider, System.String format, System.Object[] args) [0x00000] in <filename unknown>:0 
  at System.Text.StringBuilder.AppendFormat (System.String format, System.Object arg0, System.Object arg1) [0x00000] in <filename unknown>:0 
  at Services.MapService.OnMapEntitySyncResponse (System.Object sender, SkillBridge.Message.MapEntitySyncResponse response) [0x00000] in <filename unknown>:0 
  at Network.MessageDistributer`1[System.Object].RaiseEvent[MapEntitySyncResponse] (System.Object sender, SkillBridge.Message.MapEntitySyncResponse msg) [0x00000] in <filename unknown>:0 
2021-05-14 17:46:31,005 [ 1] FATAL Unity: <log4net.Error>Exception during StringFormat: Input string was not in a correct format. <format>{0
{1}</format><args>{FormatException: Index (zero based) must be greater than or equal to zero and less than the size of the argument list., System.String.FormatHelper (System.Text.StringBuilder result, IFormatProvider provider, System.String format, System.Object[] args)
System.Text.StringBuilder.AppendFormat (IFormatProvider provider, System.String format, System.Object[] args)
System.Text.StringBuilder.AppendFormat (System.String format, System.Object arg0, System.Object arg1)
Services.MapService.OnMapEntitySyncResponse (System.Object sender, SkillBridge.Message.MapEntitySyncResponse response)
Network.MessageDistributer`1[System.Object].RaiseEvent[MapEntitySyncResponse] (System.Object sender, SkillBridge.Message.MapEntitySyncResponse msg)
}</args></log4net.Error>
2021-05-14 17:46:31,279 [ 1] INFO  Unity: OnEntityChanged::ID :1 POS:SkillBridge.Message.NVector3, DIR:SkillBridge.Message.NVector3,SPD:-300
2021-05-14 17:46:31,280 [ 1] ERROR Unity: Message handler exception:, Index (zero based) must be greater than or equal to zero and less than the size of the argument list., mscorlib,   at System.String.FormatHelper (System.Text.StringBuilder result, IFormatProvider provider, System.String format, System.Object[] args) [0x00000] in <filename unknown>:0 
  at System.Text.StringBuilder.AppendFormat (IFormatProvider provider, System.String format, System.Object[] args) [0x00000] in <filename unknown>:0 
  at System.Text.StringBuilder.AppendFormat (System.String format, System.Object arg0, System.Object arg1) [0x00000] in <filename unknown>:0 
  at Services.MapService.OnMapEntitySyncResponse (System.Object sender, SkillBridge.Message.MapEntitySyncResponse response) [0x00000] in <filename unknown>:0 
  at Network.MessageDistributer`1[System.Object].RaiseEvent[MapEntitySyncResponse] (System.Object sender, SkillBridge.Message.MapEntitySyncResponse msg) [0x00000] in <filename unknown>:0 
2021-05-14 17:46:31,280 [ 1] FATAL Unity: <log4net.Error>Exception during StringFormat: Input string was not in a correct format. <format>{0
{1}</format><args>{FormatException: Index (zero based) must be greater than or equal to zero and less than the size of the argument list., System.String.FormatHelper (System.Text.StringBuilder result, IFormatProvider provider, System.String format, System.Object[] args)
System.Text.StringBuilder.AppendFormat (IFormatProvider provider, System.String format, System.Object[] args)
System.Text.StringBuilder.AppendFormat (System.String format, System.Object arg0, System.Object arg1)
Services.MapService.OnMapEntitySyncResponse (System.Object sender, SkillBridge.Message.MapEntitySyncResponse response)
Network.MessageDistributer`1[System.Object].RaiseEvent[MapEntitySyncResponse] (System.Object sender, SkillBridge.Message.MapEntitySyncResponse msg)
}</args></log4net.Error>
2021-05-14 17:46:31,446 [ 1] INFO  Unity: OnEntityChanged::ID :1 POS:SkillBridge.Message.NVector3, DIR:SkillBridge.Message.NVector3,SPD:0
2021-05-14 17:46:31,446 [ 1] ERROR Unity: Message handler exception:, Index (zero based) must be greater than or equal to zero and less than the size of the argument list., mscorlib,   at System.String.FormatHelper (System.Text.StringBuilder result, IFormatProvider provider, System.String format, System.Object[] args) [0x00000] in <filename unknown>:0 
  at System.Text.StringBuilder.AppendFormat (IFormatProvider provider, System.String format, System.Object[] args) [0x00000] in <filename unknown>:0 
  at System.Text.StringBuilder.AppendFormat (System.String format, System.Object arg0, System.Object arg1) [0x00000] in <filename unknown>:0 
  at Services.MapService.OnMapEntitySyncResponse (System.Object sender, SkillBridge.Message.MapEntitySyncResponse response) [0x00000] in <filename unknown>:0 
  at Network.MessageDistributer`1[System.Object].RaiseEvent[MapEntitySyncResponse] (System.Object sender, SkillBridge.Message.MapEntitySyncResponse msg) [0x00000] in <filename unknown>:0 
2021-05-14 17:46:31,446 [ 1] FATAL Unity: <log4net.Error>Exception during StringFormat: Input string was not in a correct format. <format>{0
{1}</format><args>{FormatException: Index (zero based) must be greater than or equal to zero and less than the size of the argument list., System.String.FormatHelper (System.Text.StringBuilder result, IFormatProvider provider, System.String format, System.Object[] args)
System.Text.StringBuilder.AppendFormat (IFormatProvider provider, System.String format, System.Object[] args)
System.Text.StringBuilder.AppendFormat (System.String format, System.Object arg0, System.Object arg1)
Services.MapService.OnMapEntitySyncResponse (System.Object sender, SkillBridge.Message.MapEntitySyncResponse response)
Network.MessageDistributer`1[System.Object].RaiseEvent[MapEntitySyncResponse] (System.Object sender, SkillBridge.Message.MapEntitySyncResponse msg)
}</args></log4net.Error>
2021-05-14 17:46:33,145 [ 1] INFO  Unity: MoveBack
2021-05-14 17:46:33,146 [ 1] INFO  Unity: OnMapEntitySyncRequest::ID :2 POS:SkillBridge.Message.NVector3, DIR:SkillBridge.Message.NVector3,SPD:0
2021-05-14 17:46:33,245 [ 1] INFO  Unity: Stop
2021-05-14 17:46:33,245 [ 1] INFO  Unity: OnMapEntitySyncRequest::ID :2 POS:SkillBridge.Message.NVector3, DIR:SkillBridge.Message.NVector3,SPD:-300
2021-05-14 17:52:01,154 [ 1] INFO  Unity: OnDestroy NetworkManager.
2021-05-14 17:52:01,155 [ 1] WARN  Unity: CloseConnection(), errorCode: 1007

2021-05-14 17:52:01,156 [ 1] INFO  Unity: Character_12_爱爱 OnDestroy :ID:2 POS:(4902, 3796, 820) DIR:(67, 74, 0) SPD:0 
2021-05-14 17:52:01,156 [ 1] INFO  Unity: Character_3_的来啦 OnDestroy :ID:1 POS:(5195, 4135, 820) DIR:(50, -87, 0) SPD:0 
