2021-05-15 17:25:49,482 [ 1] INFO  Unity: LoadingManager start
2021-05-15 17:25:51,541 [ 1] INFO  Unity: DataManager > DataManager()
2021-05-15 17:25:59,103 [ 1] INFO  Unity: UserLoginRequest::user :321 psw:321
2021-05-15 17:25:59,105 [ 1] INFO  Unity: ConnectToServer() Start 
2021-05-15 17:25:59,108 [ 1] INFO  Unity: DoConnect
2021-05-15 17:25:59,110 [ 1] INFO  Unity: NetClient.DoConnect on 127.0.0.1:8000
2021-05-15 17:25:59,111 [ 1] INFO  Unity: Connect[0] to server 127.0.0.1:8000

2021-05-15 17:25:59,116 [ 1] INFO  Unity: LoadingMesager::OnGameServerConnect :0 reason:Success
2021-05-15 17:25:59,227 [ 1] INFO  Unity: OnUserLogin:Success [None]
2021-05-15 17:25:59,250 [ 1] INFO  Unity: LoadLevel: CharSelect
2021-05-15 17:25:59,393 [ 1] INFO  Unity: LevelLoadCompleted:1
2021-05-15 17:26:00,180 [ 1] INFO  Unity: Select Char:[12]爱爱[Wizard]
2021-05-15 17:26:00,797 [ 1] INFO  Unity: UserGameEnterRequest::characterIdx :0
2021-05-15 17:26:00,824 [ 1] INFO  Unity: OnGameEnterSuccess [进入游戏成功]
2021-05-15 17:26:00,825 [ 1] INFO  Unity: OnMapCharacterEnter:Map:1 Count:1
2021-05-15 17:26:00,826 [ 1] INFO  Unity: AddCharacter:1:爱爱 Map:1 Entity:(1:pos:(5000,4000,820),dir:(100,0,0),spd:0
2021-05-15 17:26:00,828 [ 1] INFO  Unity: 布林镇
2021-05-15 17:26:00,828 [ 1] INFO  Unity: LoadLevel: MainCity
2021-05-15 17:26:01,147 [ 1] INFO  Unity: LevelLoadCompleted:1
2021-05-15 17:26:02,796 [ 1] INFO  Unity: OnMapCharacterEnter:Map:1 Count:1
2021-05-15 17:26:02,796 [ 1] INFO  Unity: AddCharacter:2:的来啦 Map:1 Entity:(2:pos:(5000,4000,820),dir:(100,0,0),spd:0
2021-05-15 17:26:06,176 [ 1] INFO  Unity: OnEntityChanged::ID :2 POS:(5005, 4000, 820), DIR:(100, 0, 0),SPD:300
2021-05-15 17:26:06,176 [ 1] INFO  Unity: MapEntityUpdateResponse: Entity: {0}
{0}event:{1} entity:{2}
2021-05-15 17:26:06,255 [ 1] INFO  Unity: OnEntityChanged::ID :2 POS:(5035, 3999, 820), DIR:(98, -21, 0),SPD:300
2021-05-15 17:26:06,255 [ 1] INFO  Unity: MapEntityUpdateResponse: Entity: {0}
{0}event:{1} entity:{2}
2021-05-15 17:26:06,347 [ 1] INFO  Unity: OnEntityChanged::ID :2 POS:(5065, 3992, 820), DIR:(91, -41, 0),SPD:300
2021-05-15 17:26:06,347 [ 1] INFO  Unity: MapEntityUpdateResponse: Entity: {0}
{0}event:{1} entity:{2}
2021-05-15 17:26:06,455 [ 1] INFO  Unity: OnEntityChanged::ID :2 POS:(5094, 3979, 820), DIR:(81, -59, 0),SPD:300
2021-05-15 17:26:06,455 [ 1] INFO  Unity: MapEntityUpdateResponse: Entity: {0}
{0}event:{1} entity:{2}
2021-05-15 17:26:06,538 [ 1] INFO  Unity: OnEntityChanged::ID :2 POS:(5110, 3967, 820), DIR:(81, -59, 0),SPD:0
2021-05-15 17:26:06,538 [ 1] INFO  Unity: MapEntityUpdateResponse: Entity: {0}
{0}event:{1} entity:{2}
2021-05-15 17:26:06,563 [ 1] INFO  Unity: OnEntityChanged::ID :2 POS:(5110, 3967, 820), DIR:(67, -74, 0),SPD:0
2021-05-15 17:26:06,563 [ 1] INFO  Unity: MapEntityUpdateResponse: Entity: {0}
{0}event:{1} entity:{2}
2021-05-15 17:26:06,639 [ 1] INFO  Unity: OnEntityChanged::ID :2 POS:(5110, 3967, 820), DIR:(53, -85, 0),SPD:0
2021-05-15 17:26:06,639 [ 1] INFO  Unity: MapEntityUpdateResponse: Entity: {0}
{0}event:{1} entity:{2}
2021-05-15 17:26:06,688 [ 1] INFO  Unity: OnEntityChanged::ID :2 POS:(5107, 3971, 820), DIR:(53, -85, 0),SPD:-300
2021-05-15 17:26:06,688 [ 1] INFO  Unity: MapEntityUpdateResponse: Entity: {0}
{0}event:{1} entity:{2}
2021-05-15 17:26:06,731 [ 1] INFO  Unity: OnEntityChanged::ID :2 POS:(5099, 3984, 820), DIR:(34, -94, 0),SPD:-300
2021-05-15 17:26:06,731 [ 1] INFO  Unity: MapEntityUpdateResponse: Entity: {0}
{0}event:{1} entity:{2}
2021-05-15 17:26:06,829 [ 1] INFO  Unity: OnEntityChanged::ID :2 POS:(5088, 4014, 820), DIR:(14, -99, 0),SPD:-300
2021-05-15 17:26:06,829 [ 1] INFO  Unity: MapEntityUpdateResponse: Entity: {0}
{0}event:{1} entity:{2}
2021-05-15 17:26:07,630 [ 1] INFO  Unity: OnEntityChanged::ID :2 POS:(5039, 4254, 820), DIR:(34, -94, 0),SPD:-300
2021-05-15 17:26:07,630 [ 1] INFO  Unity: MapEntityUpdateResponse: Entity: {0}
{0}event:{1} entity:{2}
2021-05-15 17:26:07,721 [ 1] INFO  Unity: OnEntityChanged::ID :2 POS:(5028, 4278, 820), DIR:(50, -87, 0),SPD:-300
2021-05-15 17:26:07,721 [ 1] INFO  Unity: MapEntityUpdateResponse: Entity: {0}
{0}event:{1} entity:{2}
2021-05-15 17:26:07,755 [ 1] INFO  Unity: OnEntityChanged::ID :2 POS:(5025, 4282, 820), DIR:(50, -87, 0),SPD:0
2021-05-15 17:26:07,755 [ 1] INFO  Unity: MapEntityUpdateResponse: Entity: {0}
{0}event:{1} entity:{2}
2021-05-15 17:26:07,796 [ 1] INFO  Unity: OnEntityChanged::ID :2 POS:(5025, 4282, 820), DIR:(64, -77, 0),SPD:0
2021-05-15 17:26:07,796 [ 1] INFO  Unity: MapEntityUpdateResponse: Entity: {0}
{0}event:{1} entity:{2}
2021-05-15 17:26:07,887 [ 1] INFO  Unity: OnEntityChanged::ID :2 POS:(5025, 4282, 820), DIR:(77, -64, 0),SPD:0
2021-05-15 17:26:07,887 [ 1] INFO  Unity: MapEntityUpdateResponse: Entity: {0}
{0}event:{1} entity:{2}
2021-05-15 17:26:08,238 [ 1] INFO  Unity: OnEntityChanged::ID :2 POS:(5029, 4279, 820), DIR:(77, -64, 0),SPD:300
2021-05-15 17:26:08,238 [ 1] INFO  Unity: MapEntityUpdateResponse: Entity: {0}
{0}event:{1} entity:{2}
2021-05-15 17:26:08,405 [ 1] INFO  Unity: OnEntityChanged::ID :2 POS:(5065, 4252, 820), DIR:(77, -64, 0),SPD:0
2021-05-15 17:26:08,405 [ 1] INFO  Unity: MapEntityUpdateResponse: Entity: {0}
{0}event:{1} entity:{2}
2021-05-15 17:26:08,453 [ 1] INFO  Unity: OnEntityChanged::ID :2 POS:(5065, 4252, 820), DIR:(64, -77, 0),SPD:0
2021-05-15 17:26:08,454 [ 1] INFO  Unity: MapEntityUpdateResponse: Entity: {0}
{0}event:{1} entity:{2}
2021-05-15 17:26:08,554 [ 1] INFO  Unity: OnEntityChanged::ID :2 POS:(5065, 4252, 820), DIR:(47, -88, 0),SPD:0
2021-05-15 17:26:08,554 [ 1] INFO  Unity: MapEntityUpdateResponse: Entity: {0}
{0}event:{1} entity:{2}
2021-05-15 17:26:08,637 [ 1] INFO  Unity: OnEntityChanged::ID :2 POS:(5065, 4252, 820), DIR:(31, -95, 0),SPD:0
2021-05-15 17:26:08,637 [ 1] INFO  Unity: MapEntityUpdateResponse: Entity: {0}
{0}event:{1} entity:{2}
2021-05-15 17:26:08,720 [ 1] INFO  Unity: OnEntityChanged::ID :2 POS:(5065, 4252, 820), DIR:(14, -99, 0),SPD:0
2021-05-15 17:26:08,721 [ 1] INFO  Unity: MapEntityUpdateResponse: Entity: {0}
{0}event:{1} entity:{2}
2021-05-15 17:26:08,787 [ 1] INFO  Unity: OnEntityChanged::ID :2 POS:(5064, 4257, 820), DIR:(14, -99, 0),SPD:-300
2021-05-15 17:26:08,787 [ 1] INFO  Unity: MapEntityUpdateResponse: Entity: {0}
{0}event:{1} entity:{2}
2021-05-15 17:26:08,821 [ 1] INFO  Unity: OnEntityChanged::ID :2 POS:(5064, 4267, 820), DIR:(-3, -100, 0),SPD:-300
2021-05-15 17:26:08,821 [ 1] INFO  Unity: MapEntityUpdateResponse: Entity: {0}
{0}event:{1} entity:{2}
2021-05-15 17:26:08,887 [ 1] INFO  Unity: OnEntityChanged::ID :2 POS:(5065, 4287, 820), DIR:(-21, -98, 0),SPD:-300
2021-05-15 17:26:08,888 [ 1] INFO  Unity: MapEntityUpdateResponse: Entity: {0}
{0}event:{1} entity:{2}
2021-05-15 17:26:08,997 [ 1] INFO  Unity: OnEntityChanged::ID :2 POS:(5072, 4317, 820), DIR:(-41, -91, 0),SPD:-300
2021-05-15 17:26:08,997 [ 1] INFO  Unity: MapEntityUpdateResponse: Entity: {0}
{0}event:{1} entity:{2}
2021-05-15 17:26:09,054 [ 1] INFO  Unity: OnEntityChanged::ID :2 POS:(5078, 4332, 820), DIR:(-41, -91, 0),SPD:0
2021-05-15 17:26:09,054 [ 1] INFO  Unity: MapEntityUpdateResponse: Entity: {0}
{0}event:{1} entity:{2}
2021-05-15 17:26:09,087 [ 1] INFO  Unity: OnEntityChanged::ID :2 POS:(5078, 4332, 820), DIR:(-59, -81, 0),SPD:0
2021-05-15 17:26:09,087 [ 1] INFO  Unity: MapEntityUpdateResponse: Entity: {0}
{0}event:{1} entity:{2}
2021-05-15 17:26:09,188 [ 1] INFO  Unity: OnEntityChanged::ID :2 POS:(5078, 4332, 820), DIR:(-74, -67, 0),SPD:0
2021-05-15 17:26:09,188 [ 1] INFO  Unity: MapEntityUpdateResponse: Entity: {0}
{0}event:{1} entity:{2}
2021-05-15 17:26:09,221 [ 1] INFO  Unity: OnEntityChanged::ID :2 POS:(5074, 4329, 820), DIR:(-74, -67, 0),SPD:300
2021-05-15 17:26:09,221 [ 1] INFO  Unity: MapEntityUpdateResponse: Entity: {0}
{0}event:{1} entity:{2}
2021-05-15 17:26:09,338 [ 1] INFO  Unity: OnEntityChanged::ID :2 POS:(5050, 4311, 820), DIR:(-74, -67, 0),SPD:0
2021-05-15 17:26:09,338 [ 1] INFO  Unity: MapEntityUpdateResponse: Entity: {0}
{0}event:{1} entity:{2}
2021-05-15 17:26:09,879 [ 1] INFO  Unity: LoadLevel: CharSelect
2021-05-15 17:26:09,880 [ 1] INFO  Unity: UserGameLeaveRequest
2021-05-15 17:26:09,897 [ 1] INFO  Unity: OnMapCharacterLeave:CharID:1
2021-05-15 17:26:09,898 [ 1] INFO  Unity: 1
2021-05-15 17:26:09,898 [ 1] INFO  Unity: RemoveCharacter1
2021-05-15 17:26:09,900 [ 1] INFO  Unity: 2
2021-05-15 17:26:09,900 [ 1] INFO  Unity: RemoveCharacter2
2021-05-15 17:26:09,900 [ 1] INFO  Unity: OnGameLeaveSuccess [退出游戏成功]
2021-05-15 17:26:09,900 [ 1] INFO  Unity: Character_1_爱爱 OnDestroy :ID:1 POS:(5000, 4000, 820) DIR:(100, 0, 0) SPD:0 
2021-05-15 17:26:09,900 [ 1] INFO  Unity: Character_2_的来啦 OnDestroy :ID:2 POS:(5050, 4311, 820) DIR:(-74, -67, 0) SPD:0 
2021-05-15 17:26:09,967 [ 1] INFO  Unity: LevelLoadCompleted:1
2021-05-15 17:26:14,753 [ 1] INFO  Unity: Select Char:[12]爱爱[Wizard]
2021-05-15 17:26:15,412 [ 1] INFO  Unity: UserGameEnterRequest::characterIdx :0
2021-05-15 17:26:15,428 [ 1] INFO  Unity: OnGameEnterSuccess [进入游戏成功]
2021-05-15 17:26:15,428 [ 1] INFO  Unity: OnMapCharacterEnter:Map:1 Count:2
2021-05-15 17:26:15,428 [ 1] INFO  Unity: AddCharacter:3:爱爱 Map:1 Entity:(3:pos:(5000,4000,820),dir:(100,0,0),spd:0
2021-05-15 17:26:15,432 [ 1] INFO  Unity: AddCharacter:2:的来啦 Map:1 Entity:(2:pos:(4910,4199,820),dir:(81,59,0),spd:0
2021-05-15 17:26:15,434 [ 1] INFO  Unity: 布林镇
2021-05-15 17:26:15,434 [ 1] INFO  Unity: LoadLevel: MainCity
2021-05-15 17:26:15,726 [ 1] INFO  Unity: LevelLoadCompleted:1
2021-05-15 17:26:16,562 [ 1] INFO  Unity: SetDirection:(98, -21, 0)
2021-05-15 17:26:16,563 [ 1] INFO  Unity: OnMapEntitySyncRequest::ID :3 POS:SkillBridge.Message.NVector3, DIR:SkillBridge.Message.NVector3,SPD:0
2021-05-15 17:26:16,579 [ 1] INFO  Unity: MoveForward
2021-05-15 17:26:16,579 [ 1] INFO  Unity: OnMapEntitySyncRequest::ID :3 POS:SkillBridge.Message.NVector3, DIR:SkillBridge.Message.NVector3,SPD:0
2021-05-15 17:26:16,962 [ 1] INFO  Unity: Stop
2021-05-15 17:26:16,963 [ 1] INFO  Unity: OnMapEntitySyncRequest::ID :3 POS:SkillBridge.Message.NVector3, DIR:SkillBridge.Message.NVector3,SPD:300
2021-05-15 17:26:17,061 [ 1] INFO  Unity: SetDirection:(100, -3, 0)
2021-05-15 17:26:17,061 [ 1] INFO  Unity: OnMapEntitySyncRequest::ID :3 POS:SkillBridge.Message.NVector3, DIR:SkillBridge.Message.NVector3,SPD:0
2021-05-15 17:26:17,162 [ 1] INFO  Unity: SetDirection:(98, 17, 0)
2021-05-15 17:26:17,162 [ 1] INFO  Unity: OnMapEntitySyncRequest::ID :3 POS:SkillBridge.Message.NVector3, DIR:SkillBridge.Message.NVector3,SPD:0
2021-05-15 17:26:17,245 [ 1] INFO  Unity: SetDirection:(94, 34, 0)
2021-05-15 17:26:17,245 [ 1] INFO  Unity: OnMapEntitySyncRequest::ID :3 POS:SkillBridge.Message.NVector3, DIR:SkillBridge.Message.NVector3,SPD:0
2021-05-15 17:26:17,313 [ 1] INFO  Unity: MoveBack
2021-05-15 17:26:17,313 [ 1] INFO  Unity: OnMapEntitySyncRequest::ID :3 POS:SkillBridge.Message.NVector3, DIR:SkillBridge.Message.NVector3,SPD:0
2021-05-15 17:26:17,327 [ 1] INFO  Unity: SetDirection:(87, 50, 0)
2021-05-15 17:26:17,327 [ 1] INFO  Unity: OnMapEntitySyncRequest::ID :3 POS:SkillBridge.Message.NVector3, DIR:SkillBridge.Message.NVector3,SPD:-300
2021-05-15 17:26:17,411 [ 1] INFO  Unity: SetDirection:(77, 64, 0)
2021-05-15 17:26:17,411 [ 1] INFO  Unity: OnMapEntitySyncRequest::ID :3 POS:SkillBridge.Message.NVector3, DIR:SkillBridge.Message.NVector3,SPD:-300
2021-05-15 17:26:17,494 [ 1] INFO  Unity: SetDirection:(64, 77, 0)
2021-05-15 17:26:17,494 [ 1] INFO  Unity: OnMapEntitySyncRequest::ID :3 POS:SkillBridge.Message.NVector3, DIR:SkillBridge.Message.NVector3,SPD:-300
2021-05-15 17:26:18,245 [ 1] INFO  Unity: Stop
2021-05-15 17:26:18,245 [ 1] INFO  Unity: OnMapEntitySyncRequest::ID :3 POS:SkillBridge.Message.NVector3, DIR:SkillBridge.Message.NVector3,SPD:-300
2021-05-15 17:26:18,362 [ 1] INFO  Unity: SetDirection:(77, 64, 0)
2021-05-15 17:26:18,362 [ 1] INFO  Unity: OnMapEntitySyncRequest::ID :3 POS:SkillBridge.Message.NVector3, DIR:SkillBridge.Message.NVector3,SPD:0
2021-05-15 17:26:18,411 [ 1] INFO  Unity: MoveForward
2021-05-15 17:26:18,412 [ 1] INFO  Unity: OnMapEntitySyncRequest::ID :3 POS:SkillBridge.Message.NVector3, DIR:SkillBridge.Message.NVector3,SPD:0
2021-05-15 17:26:18,578 [ 1] INFO  Unity: Stop
2021-05-15 17:26:18,579 [ 1] INFO  Unity: OnMapEntitySyncRequest::ID :3 POS:SkillBridge.Message.NVector3, DIR:SkillBridge.Message.NVector3,SPD:300
2021-05-15 17:26:18,728 [ 1] INFO  Unity: SetDirection:(64, 77, 0)
2021-05-15 17:26:18,728 [ 1] INFO  Unity: OnMapEntitySyncRequest::ID :3 POS:SkillBridge.Message.NVector3, DIR:SkillBridge.Message.NVector3,SPD:0
2021-05-15 17:26:18,828 [ 1] INFO  Unity: SetDirection:(47, 88, 0)
2021-05-15 17:26:18,829 [ 1] INFO  Unity: OnMapEntitySyncRequest::ID :3 POS:SkillBridge.Message.NVector3, DIR:SkillBridge.Message.NVector3,SPD:0
2021-05-15 17:26:18,912 [ 1] INFO  Unity: SetDirection:(31, 95, 0)
2021-05-15 17:26:18,912 [ 1] INFO  Unity: OnMapEntitySyncRequest::ID :3 POS:SkillBridge.Message.NVector3, DIR:SkillBridge.Message.NVector3,SPD:0
2021-05-15 17:26:18,979 [ 1] INFO  Unity: MoveBack
2021-05-15 17:26:18,979 [ 1] INFO  Unity: OnMapEntitySyncRequest::ID :3 POS:SkillBridge.Message.NVector3, DIR:SkillBridge.Message.NVector3,SPD:0
2021-05-15 17:26:19,178 [ 1] INFO  Unity: Stop
2021-05-15 17:26:19,178 [ 1] INFO  Unity: OnMapEntitySyncRequest::ID :3 POS:SkillBridge.Message.NVector3, DIR:SkillBridge.Message.NVector3,SPD:-300
2021-05-15 17:26:22,454 [ 1] INFO  Unity: OnEntityChanged::ID :2 POS:(4914, 4202, 820), DIR:(81, 59, 0),SPD:300
2021-05-15 17:26:22,454 [ 1] INFO  Unity: MapEntityUpdateResponse: Entity: {0}
{0}event:{1} entity:{2}
2021-05-15 17:26:22,545 [ 1] INFO  Unity: OnEntityChanged::ID :2 POS:(4935, 4216, 820), DIR:(90, 44, 0),SPD:300
2021-05-15 17:26:22,545 [ 1] INFO  Unity: MapEntityUpdateResponse: Entity: {0}
{0}event:{1} entity:{2}
2021-05-15 17:26:22,636 [ 1] INFO  Unity: OnEntityChanged::ID :2 POS:(4960, 4225, 820), DIR:(96, 28, 0),SPD:300
2021-05-15 17:26:22,636 [ 1] INFO  Unity: MapEntityUpdateResponse: Entity: {0}
{0}event:{1} entity:{2}
2021-05-15 17:26:22,711 [ 1] INFO  Unity: OnEntityChanged::ID :2 POS:(4985, 4230, 820), DIR:(99, 10, 0),SPD:300
2021-05-15 17:26:22,711 [ 1] INFO  Unity: MapEntityUpdateResponse: Entity: {0}
{0}event:{1} entity:{2}
2021-05-15 17:26:22,812 [ 1] INFO  Unity: OnEntityChanged::ID :2 POS:(5015, 4234, 820), DIR:(99, -10, 0),SPD:300
2021-05-15 17:26:22,812 [ 1] INFO  Unity: MapEntityUpdateResponse: Entity: {0}
{0}event:{1} entity:{2}
2021-05-15 17:26:22,870 [ 1] INFO  Unity: OnEntityChanged::ID :2 POS:(5025, 4232, 820), DIR:(99, -10, 0),SPD:0
2021-05-15 17:26:22,870 [ 1] INFO  Unity: MapEntityUpdateResponse: Entity: {0}
{0}event:{1} entity:{2}
2021-05-15 17:26:22,895 [ 1] INFO  Unity: OnEntityChanged::ID :2 POS:(5025, 4232, 820), DIR:(96, -28, 0),SPD:0
2021-05-15 17:26:22,895 [ 1] INFO  Unity: MapEntityUpdateResponse: Entity: {0}
{0}event:{1} entity:{2}
2021-05-15 17:26:22,995 [ 1] INFO  Unity: OnEntityChanged::ID :2 POS:(5025, 4232, 820), DIR:(88, -47, 0),SPD:0
2021-05-15 17:26:22,995 [ 1] INFO  Unity: MapEntityUpdateResponse: Entity: {0}
{0}event:{1} entity:{2}
2021-05-15 17:26:23,087 [ 1] INFO  Unity: OnEntityChanged::ID :2 POS:(5021, 4234, 820), DIR:(88, -47, 0),SPD:-300
2021-05-15 17:26:23,087 [ 1] INFO  Unity: MapEntityUpdateResponse: Entity: {0}
{0}event:{1} entity:{2}
2021-05-15 17:26:23,103 [ 1] INFO  Unity: OnEntityChanged::ID :2 POS:(5013, 4240, 820), DIR:(77, -64, 0),SPD:-300
2021-05-15 17:26:23,104 [ 1] INFO  Unity: MapEntityUpdateResponse: Entity: {0}
{0}event:{1} entity:{2}
2021-05-15 17:26:23,178 [ 1] INFO  Unity: OnEntityChanged::ID :2 POS:(4998, 4253, 820), DIR:(64, -77, 0),SPD:-300
2021-05-15 17:26:23,178 [ 1] INFO  Unity: MapEntityUpdateResponse: Entity: {0}
{0}event:{1} entity:{2}
2021-05-15 17:26:23,288 [ 1] INFO  Unity: OnEntityChanged::ID :2 POS:(4981, 4277, 820), DIR:(47, -88, 0),SPD:-300
2021-05-15 17:26:23,288 [ 1] INFO  Unity: MapEntityUpdateResponse: Entity: {0}
{0}event:{1} entity:{2}
2021-05-15 17:26:23,370 [ 1] INFO  Unity: OnEntityChanged::ID :2 POS:(4971, 4298, 820), DIR:(31, -95, 0),SPD:-300
2021-05-15 17:26:23,371 [ 1] INFO  Unity: MapEntityUpdateResponse: Entity: {0}
{0}event:{1} entity:{2}
2021-05-15 17:26:23,395 [ 1] INFO  Unity: OnEntityChanged::ID :2 POS:(4971, 4298, 820), DIR:(31, -95, 0),SPD:0
2021-05-15 17:26:23,395 [ 1] INFO  Unity: MapEntityUpdateResponse: Entity: {0}
{0}event:{1} entity:{2}
2021-05-15 17:26:23,820 [ 1] INFO  Unity: OnMapCharacterLeave:CharID:2
2021-05-15 17:26:23,821 [ 1] INFO  Unity: RemoveCharacter2
2021-05-15 17:26:23,821 [ 1] INFO  Unity: Character_2_的来啦 OnDestroy :ID:2 POS:(4971, 4298, 820) DIR:(31, -95, 0) SPD:0 
2021-05-15 17:26:59,793 [ 1] INFO  Unity: OnMapCharacterEnter:Map:1 Count:1
2021-05-15 17:26:59,793 [ 1] INFO  Unity: AddCharacter:4:来啦 Map:1 Entity:(4:pos:(5000,4000,820),dir:(100,0,0),spd:0
2021-05-15 17:27:01,525 [ 1] INFO  Unity: OnEntityChanged::ID :4 POS:(5000, 4000, 820), DIR:(98, -21, 0),SPD:0
2021-05-15 17:27:01,527 [ 1] INFO  Unity: MapEntityUpdateResponse: Entity: {0}
{0}event:{1} entity:{2}
2021-05-15 17:27:01,625 [ 1] INFO  Unity: OnEntityChanged::ID :4 POS:(5000, 4000, 820), DIR:(91, -41, 0),SPD:0
2021-05-15 17:27:01,625 [ 1] INFO  Unity: MapEntityUpdateResponse: Entity: {0}
{0}event:{1} entity:{2}
2021-05-15 17:27:01,734 [ 1] INFO  Unity: OnEntityChanged::ID :4 POS:(5000, 4000, 820), DIR:(81, -59, 0),SPD:0
2021-05-15 17:27:01,734 [ 1] INFO  Unity: MapEntityUpdateResponse: Entity: {0}
{0}event:{1} entity:{2}
2021-05-15 17:27:01,834 [ 1] INFO  Unity: OnEntityChanged::ID :4 POS:(5000, 4000, 820), DIR:(67, -74, 0),SPD:0
2021-05-15 17:27:01,834 [ 1] INFO  Unity: MapEntityUpdateResponse: Entity: {0}
{0}event:{1} entity:{2}
2021-05-15 17:27:01,926 [ 1] INFO  Unity: OnEntityChanged::ID :4 POS:(5000, 4000, 820), DIR:(53, -85, 0),SPD:0
2021-05-15 17:27:01,926 [ 1] INFO  Unity: MapEntityUpdateResponse: Entity: {0}
{0}event:{1} entity:{2}
2021-05-15 17:27:02,017 [ 1] INFO  Unity: OnEntityChanged::ID :4 POS:(5000, 4000, 820), DIR:(34, -94, 0),SPD:0
2021-05-15 17:27:02,017 [ 1] INFO  Unity: MapEntityUpdateResponse: Entity: {0}
{0}event:{1} entity:{2}
2021-05-15 17:27:02,133 [ 1] INFO  Unity: OnEntityChanged::ID :4 POS:(5000, 4000, 820), DIR:(14, -99, 0),SPD:0
2021-05-15 17:27:02,133 [ 1] INFO  Unity: MapEntityUpdateResponse: Entity: {0}
{0}event:{1} entity:{2}
2021-05-15 17:27:02,167 [ 1] INFO  Unity: OnEntityChanged::ID :4 POS:(4997, 4015, 820), DIR:(14, -99, 0),SPD:-300
2021-05-15 17:27:02,167 [ 1] INFO  Unity: MapEntityUpdateResponse: Entity: {0}
{0}event:{1} entity:{2}
2021-05-15 17:27:02,376 [ 1] INFO  Unity: OnEntityChanged::ID :4 POS:(4985, 4075, 820), DIR:(14, -99, 0),SPD:0
2021-05-15 17:27:02,376 [ 1] INFO  Unity: MapEntityUpdateResponse: Entity: {0}
{0}event:{1} entity:{2}
2021-05-15 17:27:03,018 [ 1] INFO  Unity: OnEntityChanged::ID :4 POS:(4986, 4070, 820), DIR:(14, -99, 0),SPD:300
2021-05-15 17:27:03,018 [ 1] INFO  Unity: MapEntityUpdateResponse: Entity: {0}
{0}event:{1} entity:{2}
2021-05-15 17:27:03,424 [ 1] INFO  Unity: OnEntityChanged::ID :4 POS:(5009, 3955, 820), DIR:(14, -99, 0),SPD:0
2021-05-15 17:27:03,424 [ 1] INFO  Unity: MapEntityUpdateResponse: Entity: {0}
{0}event:{1} entity:{2}
2021-05-15 17:27:03,583 [ 1] INFO  Unity: OnEntityChanged::ID :4 POS:(5009, 3955, 820), DIR:(34, -94, 0),SPD:0
2021-05-15 17:27:03,583 [ 1] INFO  Unity: MapEntityUpdateResponse: Entity: {0}
{0}event:{1} entity:{2}
2021-05-15 17:27:03,666 [ 1] INFO  Unity: OnEntityChanged::ID :4 POS:(5009, 3955, 820), DIR:(50, -87, 0),SPD:0
2021-05-15 17:27:03,667 [ 1] INFO  Unity: MapEntityUpdateResponse: Entity: {0}
{0}event:{1} entity:{2}
2021-05-15 17:27:03,700 [ 1] INFO  Unity: OnEntityChanged::ID :4 POS:(5006, 3959, 820), DIR:(50, -87, 0),SPD:-300
2021-05-15 17:27:03,700 [ 1] INFO  Unity: MapEntityUpdateResponse: Entity: {0}
{0}event:{1} entity:{2}
2021-05-15 17:27:04,542 [ 1] INFO  Unity: OnEntityChanged::ID :4 POS:(4859, 4155, 820), DIR:(50, -87, 0),SPD:0
2021-05-15 17:27:04,542 [ 1] INFO  Unity: MapEntityUpdateResponse: Entity: {0}
{0}event:{1} entity:{2}
2021-05-15 17:27:04,633 [ 1] INFO  Unity: OnEntityChanged::ID :4 POS:(4859, 4155, 820), DIR:(31, -95, 0),SPD:0
2021-05-15 17:27:04,634 [ 1] INFO  Unity: MapEntityUpdateResponse: Entity: {0}
{0}event:{1} entity:{2}
2021-05-15 17:27:04,725 [ 1] INFO  Unity: OnEntityChanged::ID :4 POS:(4859, 4155, 820), DIR:(14, -99, 0),SPD:0
2021-05-15 17:27:04,725 [ 1] INFO  Unity: MapEntityUpdateResponse: Entity: {0}
{0}event:{1} entity:{2}
2021-05-15 17:27:04,809 [ 1] INFO  Unity: OnEntityChanged::ID :4 POS:(4859, 4155, 820), DIR:(-3, -100, 0),SPD:0
2021-05-15 17:27:04,809 [ 1] INFO  Unity: MapEntityUpdateResponse: Entity: {0}
{0}event:{1} entity:{2}
2021-05-15 17:27:04,876 [ 1] INFO  Unity: OnEntityChanged::ID :4 POS:(4859, 4150, 820), DIR:(-3, -100, 0),SPD:300
2021-05-15 17:27:04,876 [ 1] INFO  Unity: MapEntityUpdateResponse: Entity: {0}
{0}event:{1} entity:{2}
2021-05-15 17:27:04,909 [ 1] INFO  Unity: OnEntityChanged::ID :4 POS:(4857, 4140, 820), DIR:(-21, -98, 0),SPD:300
2021-05-15 17:27:04,910 [ 1] INFO  Unity: MapEntityUpdateResponse: Entity: {0}
{0}event:{1} entity:{2}
2021-05-15 17:27:04,984 [ 1] INFO  Unity: OnEntityChanged::ID :4 POS:(4851, 4115, 820), DIR:(-41, -91, 0),SPD:300
2021-05-15 17:27:04,984 [ 1] INFO  Unity: MapEntityUpdateResponse: Entity: {0}
{0}event:{1} entity:{2}
2021-05-15 17:27:05,100 [ 1] INFO  Unity: OnEntityChanged::ID :4 POS:(4838, 4086, 820), DIR:(-59, -81, 0),SPD:300
2021-05-15 17:27:05,100 [ 1] INFO  Unity: MapEntityUpdateResponse: Entity: {0}
{0}event:{1} entity:{2}
2021-05-15 17:27:05,492 [ 1] INFO  Unity: OnEntityChanged::ID :4 POS:(4767, 3989, 820), DIR:(-44, -90, 0),SPD:300
2021-05-15 17:27:05,492 [ 1] INFO  Unity: MapEntityUpdateResponse: Entity: {0}
{0}event:{1} entity:{2}
2021-05-15 17:27:05,566 [ 1] INFO  Unity: OnEntityChanged::ID :4 POS:(4758, 3964, 820), DIR:(-28, -96, 0),SPD:300
2021-05-15 17:27:05,567 [ 1] INFO  Unity: MapEntityUpdateResponse: Entity: {0}
{0}event:{1} entity:{2}
2021-05-15 17:27:05,658 [ 1] INFO  Unity: OnEntityChanged::ID :4 POS:(4753, 3939, 820), DIR:(-10, -99, 0),SPD:300
2021-05-15 17:27:05,658 [ 1] INFO  Unity: MapEntityUpdateResponse: Entity: {0}
{0}event:{1} entity:{2}
2021-05-15 17:27:05,742 [ 1] INFO  Unity: OnEntityChanged::ID :4 POS:(4749, 3919, 820), DIR:(-10, -99, 0),SPD:0
2021-05-15 17:27:05,742 [ 1] INFO  Unity: MapEntityUpdateResponse: Entity: {0}
{0}event:{1} entity:{2}
2021-05-15 17:27:05,775 [ 1] INFO  Unity: OnEntityChanged::ID :4 POS:(4749, 3919, 820), DIR:(10, -99, 0),SPD:0
2021-05-15 17:27:05,775 [ 1] INFO  Unity: MapEntityUpdateResponse: Entity: {0}
{0}event:{1} entity:{2}
2021-05-15 17:27:05,883 [ 1] INFO  Unity: OnEntityChanged::ID :4 POS:(4748, 3924, 820), DIR:(10, -99, 0),SPD:-300
2021-05-15 17:27:05,883 [ 1] INFO  Unity: MapEntityUpdateResponse: Entity: {0}
{0}event:{1} entity:{2}
2021-05-15 17:27:06,426 [ 1] INFO  Unity: OnEntityChanged::ID :4 POS:(4764, 4081, 809), DIR:(10, -99, 0),SPD:-300
2021-05-15 17:27:06,426 [ 1] INFO  Unity: MapEntityUpdateResponse: Entity: {0}
{0}event:{1} entity:{2}
2021-05-15 17:27:06,750 [ 1] INFO  Unity: OnEntityChanged::ID :4 POS:(4745, 4176, 809), DIR:(28, -96, 0),SPD:-300
2021-05-15 17:27:06,750 [ 1] INFO  Unity: MapEntityUpdateResponse: Entity: {0}
{0}event:{1} entity:{2}
2021-05-15 17:27:06,842 [ 1] INFO  Unity: OnEntityChanged::ID :4 POS:(4738, 4205, 809), DIR:(47, -88, 0),SPD:-300
2021-05-15 17:27:06,842 [ 1] INFO  Unity: MapEntityUpdateResponse: Entity: {0}
{0}event:{1} entity:{2}
2021-05-15 17:27:06,942 [ 1] INFO  Unity: OnEntityChanged::ID :4 POS:(4725, 4229, 809), DIR:(64, -77, 0),SPD:-300
2021-05-15 17:27:06,942 [ 1] INFO  Unity: MapEntityUpdateResponse: Entity: {0}
{0}event:{1} entity:{2}
2021-05-15 17:27:07,792 [ 1] INFO  Unity: OnEntityChanged::ID :4 POS:(4571, 4432, 809), DIR:(77, -64, 0),SPD:-300
2021-05-15 17:27:07,792 [ 1] INFO  Unity: MapEntityUpdateResponse: Entity: {0}
{0}event:{1} entity:{2}
2021-05-15 17:27:07,858 [ 1] INFO  Unity: OnEntityChanged::ID :4 POS:(4559, 4441, 809), DIR:(77, -64, 0),SPD:0
2021-05-15 17:27:07,858 [ 1] INFO  Unity: MapEntityUpdateResponse: Entity: {0}
{0}event:{1} entity:{2}
2021-05-15 17:27:07,900 [ 1] INFO  Unity: OnEntityChanged::ID :4 POS:(4559, 4441, 809), DIR:(88, -47, 0),SPD:0
2021-05-15 17:27:07,900 [ 1] INFO  Unity: MapEntityUpdateResponse: Entity: {0}
{0}event:{1} entity:{2}
2021-05-15 17:27:07,976 [ 1] INFO  Unity: OnEntityChanged::ID :4 POS:(4559, 4441, 809), DIR:(95, -31, 0),SPD:0
2021-05-15 17:27:07,976 [ 1] INFO  Unity: MapEntityUpdateResponse: Entity: {0}
{0}event:{1} entity:{2}
2021-05-15 17:27:08,067 [ 1] INFO  Unity: OnEntityChanged::ID :4 POS:(4559, 4441, 809), DIR:(99, -14, 0),SPD:0
2021-05-15 17:27:08,067 [ 1] INFO  Unity: MapEntityUpdateResponse: Entity: {0}
{0}event:{1} entity:{2}
2021-05-15 17:27:08,142 [ 1] INFO  Unity: OnEntityChanged::ID :4 POS:(4559, 4441, 809), DIR:(100, 3, 0),SPD:0
2021-05-15 17:27:08,142 [ 1] INFO  Unity: MapEntityUpdateResponse: Entity: {0}
{0}event:{1} entity:{2}
2021-05-15 17:27:08,241 [ 1] INFO  Unity: OnEntityChanged::ID :4 POS:(4564, 4441, 809), DIR:(100, 3, 0),SPD:300
2021-05-15 17:27:08,242 [ 1] INFO  Unity: MapEntityUpdateResponse: Entity: {0}
{0}event:{1} entity:{2}
2021-05-15 17:27:08,517 [ 1] INFO  Unity: OnEntityChanged::ID :4 POS:(4644, 4440, 809), DIR:(98, -17, 0),SPD:300
2021-05-15 17:27:08,517 [ 1] INFO  Unity: MapEntityUpdateResponse: Entity: {0}
{0}event:{1} entity:{2}
2021-05-15 17:27:08,601 [ 1] INFO  Unity: OnEntityChanged::ID :4 POS:(4669, 4434, 809), DIR:(94, -34, 0),SPD:300
2021-05-15 17:27:08,601 [ 1] INFO  Unity: MapEntityUpdateResponse: Entity: {0}
{0}event:{1} entity:{2}
2021-05-15 17:27:08,684 [ 1] INFO  Unity: OnEntityChanged::ID :4 POS:(4693, 4423, 809), DIR:(87, -50, 0),SPD:300
2021-05-15 17:27:08,684 [ 1] INFO  Unity: MapEntityUpdateResponse: Entity: {0}
{0}event:{1} entity:{2}
2021-05-15 17:27:08,766 [ 1] INFO  Unity: OnEntityChanged::ID :4 POS:(4713, 4408, 809), DIR:(77, -64, 0),SPD:300
2021-05-15 17:27:08,766 [ 1] INFO  Unity: MapEntityUpdateResponse: Entity: {0}
{0}event:{1} entity:{2}
2021-05-15 17:27:08,841 [ 1] INFO  Unity: OnEntityChanged::ID :4 POS:(4732, 4392, 809), DIR:(64, -77, 0),SPD:300
2021-05-15 17:27:08,841 [ 1] INFO  Unity: MapEntityUpdateResponse: Entity: {0}
{0}event:{1} entity:{2}
2021-05-15 17:27:08,958 [ 1] INFO  Unity: OnEntityChanged::ID :4 POS:(4751, 4364, 809), DIR:(47, -88, 0),SPD:300
2021-05-15 17:27:08,958 [ 1] INFO  Unity: MapEntityUpdateResponse: Entity: {0}
{0}event:{1} entity:{2}
2021-05-15 17:27:09,034 [ 1] INFO  Unity: OnEntityChanged::ID :4 POS:(4759, 4347, 809), DIR:(31, -95, 0),SPD:300
2021-05-15 17:27:09,034 [ 1] INFO  Unity: MapEntityUpdateResponse: Entity: {0}
{0}event:{1} entity:{2}
2021-05-15 17:27:09,117 [ 1] INFO  Unity: OnEntityChanged::ID :4 POS:(4768, 4322, 809), DIR:(14, -99, 0),SPD:300
2021-05-15 17:27:09,117 [ 1] INFO  Unity: MapEntityUpdateResponse: Entity: {0}
{0}event:{1} entity:{2}
2021-05-15 17:27:09,192 [ 1] INFO  Unity: OnEntityChanged::ID :4 POS:(4772, 4297, 809), DIR:(-3, -100, 0),SPD:300
2021-05-15 17:27:09,192 [ 1] INFO  Unity: MapEntityUpdateResponse: Entity: {0}
{0}event:{1} entity:{2}
2021-05-15 17:27:09,292 [ 1] INFO  Unity: OnEntityChanged::ID :4 POS:(4771, 4272, 809), DIR:(-21, -98, 0),SPD:300
2021-05-15 17:27:09,292 [ 1] INFO  Unity: MapEntityUpdateResponse: Entity: {0}
{0}event:{1} entity:{2}
2021-05-15 17:27:09,391 [ 1] INFO  Unity: OnEntityChanged::ID :4 POS:(4764, 4242, 809), DIR:(-41, -91, 0),SPD:300
2021-05-15 17:27:09,391 [ 1] INFO  Unity: MapEntityUpdateResponse: Entity: {0}
{0}event:{1} entity:{2}
2021-05-15 17:27:09,624 [ 1] INFO  Unity: OnEntityChanged::ID :4 POS:(4735, 4167, 809), DIR:(-24, -97, 0),SPD:300
2021-05-15 17:27:09,624 [ 1] INFO  Unity: MapEntityUpdateResponse: Entity: {0}
{0}event:{1} entity:{2}
2021-05-15 17:27:09,733 [ 1] INFO  Unity: OnEntityChanged::ID :4 POS:(4730, 4137, 809), DIR:(-3, -100, 0),SPD:300
2021-05-15 17:27:09,733 [ 1] INFO  Unity: MapEntityUpdateResponse: Entity: {0}
{0}event:{1} entity:{2}
2021-05-15 17:27:09,825 [ 1] INFO  Unity: OnEntityChanged::ID :4 POS:(4731, 4107, 809), DIR:(17, -98, 0),SPD:300
2021-05-15 17:27:09,825 [ 1] INFO  Unity: MapEntityUpdateResponse: Entity: {0}
{0}event:{1} entity:{2}
2021-05-15 17:27:09,917 [ 1] INFO  Unity: OnEntityChanged::ID :4 POS:(4737, 4082, 809), DIR:(34, -94, 0),SPD:300
2021-05-15 17:27:09,917 [ 1] INFO  Unity: MapEntityUpdateResponse: Entity: {0}
{0}event:{1} entity:{2}
2021-05-15 17:27:10,000 [ 1] INFO  Unity: OnEntityChanged::ID :4 POS:(4748, 4058, 809), DIR:(50, -87, 0),SPD:300
2021-05-15 17:27:10,000 [ 1] INFO  Unity: MapEntityUpdateResponse: Entity: {0}
{0}event:{1} entity:{2}
2021-05-15 17:27:10,075 [ 1] INFO  Unity: OnEntityChanged::ID :4 POS:(4763, 4038, 809), DIR:(64, -77, 0),SPD:300
2021-05-15 17:27:10,075 [ 1] INFO  Unity: MapEntityUpdateResponse: Entity: {0}
{0}event:{1} entity:{2}
2021-05-15 17:27:10,158 [ 1] INFO  Unity: OnEntityChanged::ID :4 POS:(4779, 4019, 809), DIR:(77, -64, 0),SPD:300
2021-05-15 17:27:10,158 [ 1] INFO  Unity: MapEntityUpdateResponse: Entity: {0}
{0}event:{1} entity:{2}
2021-05-15 17:27:10,266 [ 1] INFO  Unity: OnEntityChanged::ID :4 POS:(4803, 4002, 809), DIR:(88, -47, 0),SPD:300
2021-05-15 17:27:10,266 [ 1] INFO  Unity: MapEntityUpdateResponse: Entity: {0}
{0}event:{1} entity:{2}
2021-05-15 17:27:10,341 [ 1] INFO  Unity: OnEntityChanged::ID :4 POS:(4824, 3992, 809), DIR:(95, -31, 0),SPD:300
2021-05-15 17:27:10,341 [ 1] INFO  Unity: MapEntityUpdateResponse: Entity: {0}
{0}event:{1} entity:{2}
2021-05-15 17:27:10,424 [ 1] INFO  Unity: OnEntityChanged::ID :4 POS:(4849, 3983, 809), DIR:(99, -14, 0),SPD:300
2021-05-15 17:27:10,425 [ 1] INFO  Unity: MapEntityUpdateResponse: Entity: {0}
{0}event:{1} entity:{2}
2021-05-15 17:27:10,524 [ 1] INFO  Unity: OnEntityChanged::ID :4 POS:(4874, 3979, 809), DIR:(100, 3, 0),SPD:300
2021-05-15 17:27:10,524 [ 1] INFO  Unity: MapEntityUpdateResponse: Entity: {0}
{0}event:{1} entity:{2}
2021-05-15 17:27:10,608 [ 1] INFO  Unity: OnEntityChanged::ID :4 POS:(4894, 3979, 809), DIR:(98, 21, 0),SPD:0
2021-05-15 17:27:10,608 [ 1] INFO  Unity: MapEntityUpdateResponse: Entity: {0}
{0}event:{1} entity:{2}
2021-05-15 17:27:10,634 [ 1] INFO  Unity: OnEntityChanged::ID :4 POS:(4894, 3979, 809), DIR:(98, 21, 0),SPD:0
2021-05-15 17:27:10,634 [ 1] INFO  Unity: MapEntityUpdateResponse: Entity: {0}
{0}event:{1} entity:{2}
2021-05-15 17:27:10,784 [ 1] INFO  Unity: OnEntityChanged::ID :4 POS:(4889, 3978, 809), DIR:(98, 21, 0),SPD:-300
2021-05-15 17:27:10,784 [ 1] INFO  Unity: MapEntityUpdateResponse: Entity: {0}
{0}event:{1} entity:{2}
2021-05-15 17:27:11,158 [ 1] INFO  Unity: OnEntityChanged::ID :4 POS:(4779, 3956, 809), DIR:(98, 21, 0),SPD:0
2021-05-15 17:27:11,158 [ 1] INFO  Unity: MapEntityUpdateResponse: Entity: {0}
{0}event:{1} entity:{2}
2021-05-15 17:27:11,533 [ 1] INFO  Unity: OnEntityChanged::ID :4 POS:(4774, 3955, 809), DIR:(98, 21, 0),SPD:-300
2021-05-15 17:27:11,533 [ 1] INFO  Unity: MapEntityUpdateResponse: Entity: {0}
{0}event:{1} entity:{2}
2021-05-15 17:27:12,241 [ 1] INFO  Unity: OnEntityChanged::ID :4 POS:(4569, 3914, 809), DIR:(98, 21, 0),SPD:0
2021-05-15 17:27:12,241 [ 1] INFO  Unity: MapEntityUpdateResponse: Entity: {0}
{0}event:{1} entity:{2}
2021-05-15 17:27:12,416 [ 1] INFO  Unity: OnEntityChanged::ID :4 POS:(4569, 3914, 809), DIR:(100, 3, 0),SPD:0
2021-05-15 17:27:12,416 [ 1] INFO  Unity: MapEntityUpdateResponse: Entity: {0}
{0}event:{1} entity:{2}
2021-05-15 17:27:12,466 [ 1] INFO  Unity: OnEntityChanged::ID :4 POS:(4574, 3914, 809), DIR:(100, 3, 0),SPD:300
2021-05-15 17:27:12,466 [ 1] INFO  Unity: MapEntityUpdateResponse: Entity: {0}
{0}event:{1} entity:{2}
2021-05-15 17:27:13,499 [ 1] INFO  Unity: OnEntityChanged::ID :4 POS:(4884, 3912, 809), DIR:(98, -17, 0),SPD:300
2021-05-15 17:27:13,500 [ 1] INFO  Unity: MapEntityUpdateResponse: Entity: {0}
{0}event:{1} entity:{2}
2021-05-15 17:27:13,574 [ 1] INFO  Unity: OnEntityChanged::ID :4 POS:(4904, 3907, 809), DIR:(94, -34, 0),SPD:300
2021-05-15 17:27:13,574 [ 1] INFO  Unity: MapEntityUpdateResponse: Entity: {0}
{0}event:{1} entity:{2}
2021-05-15 17:27:13,658 [ 1] INFO  Unity: OnEntityChanged::ID :4 POS:(4928, 3896, 809), DIR:(87, -50, 0),SPD:300
2021-05-15 17:27:13,658 [ 1] INFO  Unity: MapEntityUpdateResponse: Entity: {0}
{0}event:{1} entity:{2}
2021-05-15 17:27:13,733 [ 1] INFO  Unity: OnEntityChanged::ID :4 POS:(4948, 3881, 809), DIR:(77, -64, 0),SPD:300
2021-05-15 17:27:13,734 [ 1] INFO  Unity: MapEntityUpdateResponse: Entity: {0}
{0}event:{1} entity:{2}
2021-05-15 17:27:13,825 [ 1] INFO  Unity: OnEntityChanged::ID :4 POS:(4967, 3865, 809), DIR:(64, -77, 0),SPD:300
2021-05-15 17:27:13,825 [ 1] INFO  Unity: MapEntityUpdateResponse: Entity: {0}
{0}event:{1} entity:{2}
2021-05-15 17:27:13,925 [ 1] INFO  Unity: OnEntityChanged::ID :4 POS:(4984, 3841, 809), DIR:(47, -88, 0),SPD:300
2021-05-15 17:27:13,925 [ 1] INFO  Unity: MapEntityUpdateResponse: Entity: {0}
{0}event:{1} entity:{2}
2021-05-15 17:27:14,007 [ 1] INFO  Unity: OnEntityChanged::ID :4 POS:(4990, 3829, 809), DIR:(47, -88, 0),SPD:0
2021-05-15 17:27:14,007 [ 1] INFO  Unity: MapEntityUpdateResponse: Entity: {0}
{0}event:{1} entity:{2}
2021-05-15 17:27:14,033 [ 1] INFO  Unity: OnEntityChanged::ID :4 POS:(4990, 3829, 809), DIR:(31, -95, 0),SPD:0
2021-05-15 17:27:14,033 [ 1] INFO  Unity: MapEntityUpdateResponse: Entity: {0}
{0}event:{1} entity:{2}
2021-05-15 17:27:14,091 [ 1] INFO  Unity: OnEntityChanged::ID :4 POS:(4990, 3829, 809), DIR:(14, -99, 0),SPD:0
2021-05-15 17:27:14,091 [ 1] INFO  Unity: MapEntityUpdateResponse: Entity: {0}
{0}event:{1} entity:{2}
2021-05-15 17:27:14,174 [ 1] INFO  Unity: OnEntityChanged::ID :4 POS:(4990, 3834, 809), DIR:(-3, -100, 0),SPD:-300
2021-05-15 17:27:14,174 [ 1] INFO  Unity: MapEntityUpdateResponse: Entity: {0}
{0}event:{1} entity:{2}
2021-05-15 17:27:14,208 [ 1] INFO  Unity: OnEntityChanged::ID :4 POS:(4990, 3844, 809), DIR:(-3, -100, 0),SPD:-300
2021-05-15 17:27:14,208 [ 1] INFO  Unity: MapEntityUpdateResponse: Entity: {0}
{0}event:{1} entity:{2}
2021-05-15 17:27:15,565 [ 1] INFO  Unity: OnEntityChanged::ID :4 POS:(4989, 4249, 809), DIR:(17, -98, 0),SPD:-300
2021-05-15 17:27:15,566 [ 1] INFO  Unity: MapEntityUpdateResponse: Entity: {0}
{0}event:{1} entity:{2}
2021-05-15 17:27:15,591 [ 1] INFO  Unity: OnEntityChanged::ID :4 POS:(5033, 4239, 809), DIR:(17, -98, 0),SPD:-300
2021-05-15 17:27:15,591 [ 1] INFO  Unity: MapEntityUpdateResponse: Entity: {0}
{0}event:{1} entity:{2}
2021-05-15 17:27:15,641 [ 1] INFO  Unity: OnEntityChanged::ID :4 POS:(5029, 4254, 809), DIR:(34, -94, 0),SPD:-300
2021-05-15 17:27:15,641 [ 1] INFO  Unity: MapEntityUpdateResponse: Entity: {0}
{0}event:{1} entity:{2}
2021-05-15 17:27:16,032 [ 1] INFO  Unity: OnEntityChanged::ID :4 POS:(4982, 4368, 809), DIR:(50, -87, 0),SPD:-300
2021-05-15 17:27:16,032 [ 1] INFO  Unity: MapEntityUpdateResponse: Entity: {0}
{0}event:{1} entity:{2}
2021-05-15 17:27:16,108 [ 1] INFO  Unity: OnEntityChanged::ID :4 POS:(4967, 4388, 809), DIR:(64, -77, 0),SPD:-300
2021-05-15 17:27:16,108 [ 1] INFO  Unity: MapEntityUpdateResponse: Entity: {0}
{0}event:{1} entity:{2}
2021-05-15 17:27:16,199 [ 1] INFO  Unity: OnEntityChanged::ID :4 POS:(4951, 4407, 809), DIR:(77, -64, 0),SPD:-300
2021-05-15 17:27:16,199 [ 1] INFO  Unity: MapEntityUpdateResponse: Entity: {0}
{0}event:{1} entity:{2}
2021-05-15 17:27:16,290 [ 1] INFO  Unity: OnEntityChanged::ID :4 POS:(4927, 4424, 809), DIR:(88, -47, 0),SPD:-300
2021-05-15 17:27:16,291 [ 1] INFO  Unity: MapEntityUpdateResponse: Entity: {0}
{0}event:{1} entity:{2}
2021-05-15 17:27:16,390 [ 1] INFO  Unity: OnEntityChanged::ID :4 POS:(4906, 4434, 809), DIR:(95, -31, 0),SPD:-300
2021-05-15 17:27:16,391 [ 1] INFO  Unity: MapEntityUpdateResponse: Entity: {0}
{0}event:{1} entity:{2}
2021-05-15 17:27:16,983 [ 1] INFO  Unity: OnEntityChanged::ID :4 POS:(4765, 4473, 809), DIR:(95, -31, 0),SPD:-300
2021-05-15 17:27:16,983 [ 1] INFO  Unity: MapEntityUpdateResponse: Entity: {0}
{0}event:{1} entity:{2}
2021-05-15 17:27:17,017 [ 1] INFO  Unity: OnEntityChanged::ID :4 POS:(4757, 4479, 809), DIR:(87, -50, 0),SPD:-300
2021-05-15 17:27:17,017 [ 1] INFO  Unity: MapEntityUpdateResponse: Entity: {0}
{0}event:{1} entity:{2}
2021-05-15 17:27:17,083 [ 1] INFO  Unity: OnEntityChanged::ID :4 POS:(4741, 4491, 809), DIR:(77, -64, 0),SPD:-300
2021-05-15 17:27:17,083 [ 1] INFO  Unity: MapEntityUpdateResponse: Entity: {0}
{0}event:{1} entity:{2}
2021-05-15 17:27:17,158 [ 1] INFO  Unity: OnEntityChanged::ID :4 POS:(4722, 4507, 809), DIR:(64, -77, 0),SPD:-300
2021-05-15 17:27:17,158 [ 1] INFO  Unity: MapEntityUpdateResponse: Entity: {0}
{0}event:{1} entity:{2}
2021-05-15 17:27:17,257 [ 1] INFO  Unity: OnEntityChanged::ID :4 POS:(4705, 4531, 809), DIR:(47, -88, 0),SPD:-300
2021-05-15 17:27:17,257 [ 1] INFO  Unity: MapEntityUpdateResponse: Entity: {0}
{0}event:{1} entity:{2}
2021-05-15 17:27:17,349 [ 1] INFO  Unity: OnEntityChanged::ID :4 POS:(4695, 4552, 809), DIR:(31, -95, 0),SPD:-300
2021-05-15 17:27:17,349 [ 1] INFO  Unity: MapEntityUpdateResponse: Entity: {0}
{0}event:{1} entity:{2}
2021-05-15 17:27:17,399 [ 1] INFO  Unity: OnEntityChanged::ID :4 POS:(4691, 4562, 809), DIR:(31, -95, 0),SPD:0
2021-05-15 17:27:17,399 [ 1] INFO  Unity: MapEntityUpdateResponse: Entity: {0}
{0}event:{1} entity:{2}
2021-05-15 17:27:17,441 [ 1] INFO  Unity: OnEntityChanged::ID :4 POS:(4691, 4562, 809), DIR:(14, -99, 0),SPD:0
2021-05-15 17:27:17,441 [ 1] INFO  Unity: MapEntityUpdateResponse: Entity: {0}
{0}event:{1} entity:{2}
2021-05-15 17:27:17,516 [ 1] INFO  Unity: OnEntityChanged::ID :4 POS:(4691, 4562, 809), DIR:(-3, -100, 0),SPD:0
2021-05-15 17:27:17,516 [ 1] INFO  Unity: MapEntityUpdateResponse: Entity: {0}
{0}event:{1} entity:{2}
2021-05-15 17:27:17,590 [ 1] INFO  Unity: OnEntityChanged::ID :4 POS:(4691, 4562, 809), DIR:(-21, -98, 0),SPD:0
2021-05-15 17:27:17,590 [ 1] INFO  Unity: MapEntityUpdateResponse: Entity: {0}
{0}event:{1} entity:{2}
2021-05-15 17:27:17,632 [ 1] INFO  Unity: OnEntityChanged::ID :4 POS:(4690, 4557, 809), DIR:(-21, -98, 0),SPD:300
2021-05-15 17:27:17,633 [ 1] INFO  Unity: MapEntityUpdateResponse: Entity: {0}
{0}event:{1} entity:{2}
2021-05-15 17:27:17,700 [ 1] INFO  Unity: OnEntityChanged::ID :4 POS:(4685, 4537, 809), DIR:(-41, -91, 0),SPD:300
2021-05-15 17:27:17,700 [ 1] INFO  Unity: MapEntityUpdateResponse: Entity: {0}
{0}event:{1} entity:{2}
2021-05-15 17:27:18,016 [ 1] INFO  Unity: OnEntityChanged::ID :4 POS:(4648, 4442, 809), DIR:(-24, -97, 0),SPD:300
2021-05-15 17:27:18,016 [ 1] INFO  Unity: MapEntityUpdateResponse: Entity: {0}
{0}event:{1} entity:{2}
2021-05-15 17:27:18,117 [ 1] INFO  Unity: OnEntityChanged::ID :4 POS:(4643, 4412, 809), DIR:(-3, -100, 0),SPD:300
2021-05-15 17:27:18,117 [ 1] INFO  Unity: MapEntityUpdateResponse: Entity: {0}
{0}event:{1} entity:{2}
2021-05-15 17:27:18,216 [ 1] INFO  Unity: OnEntityChanged::ID :4 POS:(4644, 4382, 809), DIR:(17, -98, 0),SPD:300
2021-05-15 17:27:18,216 [ 1] INFO  Unity: MapEntityUpdateResponse: Entity: {0}
{0}event:{1} entity:{2}
2021-05-15 17:27:18,308 [ 1] INFO  Unity: OnEntityChanged::ID :4 POS:(4650, 4357, 809), DIR:(34, -94, 0),SPD:300
2021-05-15 17:27:18,308 [ 1] INFO  Unity: MapEntityUpdateResponse: Entity: {0}
{0}event:{1} entity:{2}
2021-05-15 17:27:18,350 [ 1] INFO  Unity: OnEntityChanged::ID :4 POS:(4652, 4352, 809), DIR:(34, -94, 0),SPD:0
2021-05-15 17:27:18,350 [ 1] INFO  Unity: MapEntityUpdateResponse: Entity: {0}
{0}event:{1} entity:{2}
2021-05-15 17:27:18,865 [ 1] INFO  Unity: MoveForward
2021-05-15 17:27:18,865 [ 1] INFO  Unity: OnMapEntitySyncRequest::ID :3 POS:SkillBridge.Message.NVector3, DIR:SkillBridge.Message.NVector3,SPD:0
2021-05-15 17:27:18,899 [ 1] INFO  Unity: SetDirection:(14, 99, 0)
2021-05-15 17:27:18,899 [ 1] INFO  Unity: OnMapEntitySyncRequest::ID :3 POS:SkillBridge.Message.NVector3, DIR:SkillBridge.Message.NVector3,SPD:300
2021-05-15 17:27:19,216 [ 1] INFO  Unity: Stop
2021-05-15 17:27:19,216 [ 1] INFO  Unity: OnMapEntitySyncRequest::ID :3 POS:SkillBridge.Message.NVector3, DIR:SkillBridge.Message.NVector3,SPD:300
2021-05-15 17:27:19,332 [ 1] INFO  Unity: MoveBack
2021-05-15 17:27:19,332 [ 1] INFO  Unity: OnMapEntitySyncRequest::ID :3 POS:SkillBridge.Message.NVector3, DIR:SkillBridge.Message.NVector3,SPD:0
2021-05-15 17:27:19,548 [ 1] INFO  Unity: SetDirection:(-3, 100, 0)
2021-05-15 17:27:19,549 [ 1] INFO  Unity: OnMapEntitySyncRequest::ID :3 POS:SkillBridge.Message.NVector3, DIR:SkillBridge.Message.NVector3,SPD:-300
2021-05-15 17:27:19,632 [ 1] INFO  Unity: SetDirection:(-21, 98, 0)
2021-05-15 17:27:19,632 [ 1] INFO  Unity: OnMapEntitySyncRequest::ID :3 POS:SkillBridge.Message.NVector3, DIR:SkillBridge.Message.NVector3,SPD:-300
2021-05-15 17:27:19,732 [ 1] INFO  Unity: SetDirection:(-41, 91, 0)
2021-05-15 17:27:19,732 [ 1] INFO  Unity: OnMapEntitySyncRequest::ID :3 POS:SkillBridge.Message.NVector3, DIR:SkillBridge.Message.NVector3,SPD:-300
2021-05-15 17:27:19,966 [ 1] INFO  Unity: SetPosition:(4997, 3694, 809)
2021-05-15 17:27:19,967 [ 1] INFO  Unity: OnMapEntitySyncRequest::ID :3 POS:SkillBridge.Message.NVector3, DIR:SkillBridge.Message.NVector3,SPD:-300
2021-05-15 17:27:20,182 [ 1] INFO  Unity: Stop
2021-05-15 17:27:20,182 [ 1] INFO  Unity: OnMapEntitySyncRequest::ID :3 POS:SkillBridge.Message.NVector3, DIR:SkillBridge.Message.NVector3,SPD:-300
2021-05-15 17:27:20,215 [ 1] INFO  Unity: SetDirection:(-24, 97, 0)
2021-05-15 17:27:20,215 [ 1] INFO  Unity: OnMapEntitySyncRequest::ID :3 POS:SkillBridge.Message.NVector3, DIR:SkillBridge.Message.NVector3,SPD:0
2021-05-15 17:27:20,324 [ 1] INFO  Unity: MoveForward
2021-05-15 17:27:20,324 [ 1] INFO  Unity: OnMapEntitySyncRequest::ID :3 POS:SkillBridge.Message.NVector3, DIR:SkillBridge.Message.NVector3,SPD:0
2021-05-15 17:27:20,324 [ 1] INFO  Unity: SetDirection:(-3, 100, 0)
2021-05-15 17:27:20,324 [ 1] INFO  Unity: OnMapEntitySyncRequest::ID :3 POS:SkillBridge.Message.NVector3, DIR:SkillBridge.Message.NVector3,SPD:0
2021-05-15 17:27:20,424 [ 1] INFO  Unity: SetDirection:(17, 98, 0)
2021-05-15 17:27:20,424 [ 1] INFO  Unity: OnMapEntitySyncRequest::ID :3 POS:SkillBridge.Message.NVector3, DIR:SkillBridge.Message.NVector3,SPD:300
2021-05-15 17:27:21,041 [ 1] INFO  Unity: SetDirection:(-3, 100, 0)
2021-05-15 17:27:21,041 [ 1] INFO  Unity: OnMapEntitySyncRequest::ID :3 POS:SkillBridge.Message.NVector3, DIR:SkillBridge.Message.NVector3,SPD:300
2021-05-15 17:27:21,124 [ 1] INFO  Unity: SetDirection:(-21, 98, 0)
2021-05-15 17:27:21,124 [ 1] INFO  Unity: OnMapEntitySyncRequest::ID :3 POS:SkillBridge.Message.NVector3, DIR:SkillBridge.Message.NVector3,SPD:300
2021-05-15 17:27:21,223 [ 1] INFO  Unity: SetDirection:(-41, 91, 0)
2021-05-15 17:27:21,223 [ 1] INFO  Unity: OnMapEntitySyncRequest::ID :3 POS:SkillBridge.Message.NVector3, DIR:SkillBridge.Message.NVector3,SPD:300
2021-05-15 17:27:21,323 [ 1] INFO  Unity: SetDirection:(-59, 81, 0)
2021-05-15 17:27:21,323 [ 1] INFO  Unity: OnMapEntitySyncRequest::ID :3 POS:SkillBridge.Message.NVector3, DIR:SkillBridge.Message.NVector3,SPD:300
2021-05-15 17:27:21,424 [ 1] INFO  Unity: SetDirection:(-74, 67, 0)
2021-05-15 17:27:21,424 [ 1] INFO  Unity: OnMapEntitySyncRequest::ID :3 POS:SkillBridge.Message.NVector3, DIR:SkillBridge.Message.NVector3,SPD:300
2021-05-15 17:27:21,507 [ 1] INFO  Unity: SetDirection:(-85, 53, 0)
2021-05-15 17:27:21,507 [ 1] INFO  Unity: OnMapEntitySyncRequest::ID :3 POS:SkillBridge.Message.NVector3, DIR:SkillBridge.Message.NVector3,SPD:300
2021-05-15 17:27:21,873 [ 1] INFO  Unity: SetDirection:(-74, 67, 0)
2021-05-15 17:27:21,873 [ 1] INFO  Unity: OnMapEntitySyncRequest::ID :3 POS:SkillBridge.Message.NVector3, DIR:SkillBridge.Message.NVector3,SPD:300
2021-05-15 17:27:21,974 [ 1] INFO  Unity: SetDirection:(-59, 81, 0)
2021-05-15 17:27:21,974 [ 1] INFO  Unity: OnMapEntitySyncRequest::ID :3 POS:SkillBridge.Message.NVector3, DIR:SkillBridge.Message.NVector3,SPD:300
2021-05-15 17:27:22,056 [ 1] INFO  Unity: SetDirection:(-44, 90, 0)
2021-05-15 17:27:22,056 [ 1] INFO  Unity: OnMapEntitySyncRequest::ID :3 POS:SkillBridge.Message.NVector3, DIR:SkillBridge.Message.NVector3,SPD:300
2021-05-15 17:27:22,140 [ 1] INFO  Unity: SetDirection:(-28, 96, 0)
2021-05-15 17:27:22,140 [ 1] INFO  Unity: OnMapEntitySyncRequest::ID :3 POS:SkillBridge.Message.NVector3, DIR:SkillBridge.Message.NVector3,SPD:300
2021-05-15 17:27:22,223 [ 1] INFO  Unity: SetDirection:(-10, 99, 0)
2021-05-15 17:27:22,223 [ 1] INFO  Unity: OnMapEntitySyncRequest::ID :3 POS:SkillBridge.Message.NVector3, DIR:SkillBridge.Message.NVector3,SPD:300
2021-05-15 17:27:22,323 [ 1] INFO  Unity: SetDirection:(10, 99, 0)
2021-05-15 17:27:22,324 [ 1] INFO  Unity: OnMapEntitySyncRequest::ID :3 POS:SkillBridge.Message.NVector3, DIR:SkillBridge.Message.NVector3,SPD:300
2021-05-15 17:27:22,407 [ 1] INFO  Unity: SetDirection:(28, 96, 0)
2021-05-15 17:27:22,407 [ 1] INFO  Unity: OnMapEntitySyncRequest::ID :3 POS:SkillBridge.Message.NVector3, DIR:SkillBridge.Message.NVector3,SPD:300
2021-05-15 17:27:22,556 [ 1] INFO  Unity: SetDirection:(10, 99, 0)
2021-05-15 17:27:22,557 [ 1] INFO  Unity: OnMapEntitySyncRequest::ID :3 POS:SkillBridge.Message.NVector3, DIR:SkillBridge.Message.NVector3,SPD:300
2021-05-15 17:27:22,590 [ 1] INFO  Unity: Stop
2021-05-15 17:27:22,590 [ 1] INFO  Unity: OnMapEntitySyncRequest::ID :3 POS:SkillBridge.Message.NVector3, DIR:SkillBridge.Message.NVector3,SPD:300
2021-05-15 17:27:22,657 [ 1] INFO  Unity: SetDirection:(-10, 99, 0)
2021-05-15 17:27:22,657 [ 1] INFO  Unity: OnMapEntitySyncRequest::ID :3 POS:SkillBridge.Message.NVector3, DIR:SkillBridge.Message.NVector3,SPD:0
2021-05-15 17:27:24,185 [ 1] INFO  Unity: OnDestroy NetworkManager.
2021-05-15 17:27:24,186 [ 1] WARN  Unity: CloseConnection(), errorCode: 1007

2021-05-15 17:27:24,188 [ 1] INFO  Unity: Character_3_爱爱 OnDestroy :ID:3 POS:(4870, 4237, 809) DIR:(-10, 99, 0) SPD:0 
2021-05-15 17:27:24,188 [ 1] INFO  Unity: Character_4_来啦 OnDestroy :ID:4 POS:(4652, 4352, 809) DIR:(34, -94, 0) SPD:0 
