2021-05-18 18:11:01,958 [ 1] INFO  Unity: LoadingManager start
2021-05-18 18:11:04,616 [ 1] INFO  Unity: DataManager > DataManager()
2021-05-18 18:11:14,650 [ 1] INFO  Unity: UserLoginRequest::user :123 psw:123
2021-05-18 18:11:14,652 [ 1] INFO  Unity: ConnectToServer() Start 
2021-05-18 18:11:14,653 [ 1] INFO  Unity: DoConnect
2021-05-18 18:11:14,655 [ 1] INFO  Unity: NetClient.DoConnect on 127.0.0.1:8000
2021-05-18 18:11:14,658 [ 1] INFO  Unity: Connect[0] to server 127.0.0.1:8000

2021-05-18 18:11:14,662 [ 1] INFO  Unity: LoadingMesager::OnGameServerConnect :0 reason:Success
2021-05-18 18:11:14,795 [ 1] INFO  Unity: OnUserLogin:Success [None]
2021-05-18 18:11:14,801 [ 1] INFO  Unity: LoadLevel: CharSelect
2021-05-18 18:11:15,472 [ 1] INFO  Unity: LevelLoadCompleted:1
2021-05-18 18:11:16,295 [ 1] INFO  Unity: Select Char:[3]的来啦[Archer]
2021-05-18 18:11:16,832 [ 1] INFO  Unity: UserGameEnterRequest::characterIdx :2
2021-05-18 18:11:16,868 [ 1] INFO  Unity: OnGameEnterSuccess [进入游戏成功]
2021-05-18 18:11:16,870 [ 1] INFO  Unity: OnMapCharacterEnter:Map:1 Count:1
2021-05-18 18:11:16,873 [ 1] INFO  Unity: AddCharacter:6:的来啦 Map:1 Entity:(6:pos:(5000,4000,820),dir:(100,0,0),spd:0
2021-05-18 18:11:16,877 [ 1] INFO  Unity: 布林镇
2021-05-18 18:11:16,879 [ 1] INFO  Unity: LoadLevel: MainCity
2021-05-18 18:11:18,241 [ 1] WARN  Unity: No mesh data available for mesh Sphere001 on particle system fx_portal. Make sure Read/Write Enabled is set in the importer to work on the particle system renderer

2021-05-18 18:11:18,242 [ 1] WARN  Unity: No mesh data available for mesh Sphere001 on particle system fx_portal. Make sure Read/Write Enabled is set in the importer to work on the particle system renderer

2021-05-18 18:11:18,436 [ 1] INFO  Unity: LevelLoadCompleted:1
2021-05-18 18:11:19,712 [ 1] INFO  Unity: MoveForward
2021-05-18 18:11:19,714 [ 1] INFO  Unity: OnMapEntitySyncRequest::ID :6 POS:SkillBridge.Message.NVector3, DIR:SkillBridge.Message.NVector3,SPD:300
2021-05-18 18:11:19,753 [ 1] INFO  Unity: SetDirection:(98, -21, 0)
2021-05-18 18:11:19,755 [ 1] INFO  Unity: OnMapEntitySyncRequest::ID :6 POS:SkillBridge.Message.NVector3, DIR:SkillBridge.Message.NVector3,SPD:300
2021-05-18 18:11:19,857 [ 1] INFO  Unity: SetDirection:(91, -41, 0)
2021-05-18 18:11:19,859 [ 1] INFO  Unity: OnMapEntitySyncRequest::ID :6 POS:SkillBridge.Message.NVector3, DIR:SkillBridge.Message.NVector3,SPD:300
2021-05-18 18:11:19,957 [ 1] INFO  Unity: SetDirection:(81, -59, 0)
2021-05-18 18:11:19,959 [ 1] INFO  Unity: OnMapEntitySyncRequest::ID :6 POS:SkillBridge.Message.NVector3, DIR:SkillBridge.Message.NVector3,SPD:300
2021-05-18 18:11:20,061 [ 1] INFO  Unity: SetDirection:(67, -74, 0)
2021-05-18 18:11:20,063 [ 1] INFO  Unity: OnMapEntitySyncRequest::ID :6 POS:SkillBridge.Message.NVector3, DIR:SkillBridge.Message.NVector3,SPD:300
2021-05-18 18:11:20,141 [ 1] INFO  Unity: SetDirection:(53, -85, 0)
2021-05-18 18:11:20,143 [ 1] INFO  Unity: OnMapEntitySyncRequest::ID :6 POS:SkillBridge.Message.NVector3, DIR:SkillBridge.Message.NVector3,SPD:300
2021-05-18 18:11:20,252 [ 1] INFO  Unity: SetDirection:(34, -94, 0)
2021-05-18 18:11:20,253 [ 1] INFO  Unity: OnMapEntitySyncRequest::ID :6 POS:SkillBridge.Message.NVector3, DIR:SkillBridge.Message.NVector3,SPD:300
2021-05-18 18:11:20,339 [ 1] INFO  Unity: SetDirection:(14, -99, 0)
2021-05-18 18:11:20,340 [ 1] INFO  Unity: OnMapEntitySyncRequest::ID :6 POS:SkillBridge.Message.NVector3, DIR:SkillBridge.Message.NVector3,SPD:300
2021-05-18 18:11:20,436 [ 1] INFO  Unity: SetDirection:(-3, -100, 0)
2021-05-18 18:11:20,437 [ 1] INFO  Unity: OnMapEntitySyncRequest::ID :6 POS:SkillBridge.Message.NVector3, DIR:SkillBridge.Message.NVector3,SPD:300
2021-05-18 18:11:20,517 [ 1] INFO  Unity: SetDirection:(-21, -98, 0)
2021-05-18 18:11:20,518 [ 1] INFO  Unity: OnMapEntitySyncRequest::ID :6 POS:SkillBridge.Message.NVector3, DIR:SkillBridge.Message.NVector3,SPD:300
2021-05-18 18:11:20,598 [ 1] INFO  Unity: SetDirection:(-41, -91, 0)
2021-05-18 18:11:20,600 [ 1] INFO  Unity: OnMapEntitySyncRequest::ID :6 POS:SkillBridge.Message.NVector3, DIR:SkillBridge.Message.NVector3,SPD:300
2021-05-18 18:11:20,710 [ 1] INFO  Unity: SetDirection:(-59, -81, 0)
2021-05-18 18:11:20,711 [ 1] INFO  Unity: OnMapEntitySyncRequest::ID :6 POS:SkillBridge.Message.NVector3, DIR:SkillBridge.Message.NVector3,SPD:300
2021-05-18 18:11:20,800 [ 1] INFO  Unity: SetDirection:(-74, -67, 0)
2021-05-18 18:11:20,802 [ 1] INFO  Unity: OnMapEntitySyncRequest::ID :6 POS:SkillBridge.Message.NVector3, DIR:SkillBridge.Message.NVector3,SPD:300
2021-05-18 18:11:22,704 [ 1] INFO  Unity: SetPosition:(4688, 3378, 805)
2021-05-18 18:11:22,706 [ 1] INFO  Unity: OnMapEntitySyncRequest::ID :6 POS:SkillBridge.Message.NVector3, DIR:SkillBridge.Message.NVector3,SPD:300
2021-05-18 18:11:23,428 [ 1] INFO  Unity: SetDirection:(-59, -81, 0)
2021-05-18 18:11:23,429 [ 1] INFO  Unity: OnMapEntitySyncRequest::ID :6 POS:SkillBridge.Message.NVector3, DIR:SkillBridge.Message.NVector3,SPD:300
2021-05-18 18:11:23,506 [ 1] INFO  Unity: SetDirection:(-44, -90, 0)
2021-05-18 18:11:23,508 [ 1] INFO  Unity: OnMapEntitySyncRequest::ID :6 POS:SkillBridge.Message.NVector3, DIR:SkillBridge.Message.NVector3,SPD:300
2021-05-18 18:11:24,668 [ 1] INFO  Unity: SetDirection:(-62, -79, 0)
2021-05-18 18:11:24,669 [ 1] INFO  Unity: OnMapEntitySyncRequest::ID :6 POS:SkillBridge.Message.NVector3, DIR:SkillBridge.Message.NVector3,SPD:300
2021-05-18 18:11:24,757 [ 1] INFO  Unity: SetDirection:(-77, -64, 0)
2021-05-18 18:11:24,759 [ 1] INFO  Unity: OnMapEntitySyncRequest::ID :6 POS:SkillBridge.Message.NVector3, DIR:SkillBridge.Message.NVector3,SPD:300
2021-05-18 18:11:24,869 [ 1] INFO  Unity: SetDirection:(-88, -47, 0)
2021-05-18 18:11:24,871 [ 1] INFO  Unity: OnMapEntitySyncRequest::ID :6 POS:SkillBridge.Message.NVector3, DIR:SkillBridge.Message.NVector3,SPD:300
2021-05-18 18:11:24,947 [ 1] INFO  Unity: Stop
2021-05-18 18:11:24,949 [ 1] INFO  Unity: OnMapEntitySyncRequest::ID :6 POS:SkillBridge.Message.NVector3, DIR:SkillBridge.Message.NVector3,SPD:0
2021-05-18 18:11:24,952 [ 1] INFO  Unity: SetDirection:(-95, -31, 0)
2021-05-18 18:11:24,954 [ 1] INFO  Unity: OnMapEntitySyncRequest::ID :6 POS:SkillBridge.Message.NVector3, DIR:SkillBridge.Message.NVector3,SPD:0
2021-05-18 18:11:25,031 [ 1] INFO  Unity: SetDirection:(-99, -14, 0)
2021-05-18 18:11:25,033 [ 1] INFO  Unity: OnMapEntitySyncRequest::ID :6 POS:SkillBridge.Message.NVector3, DIR:SkillBridge.Message.NVector3,SPD:0
2021-05-18 18:11:25,123 [ 1] INFO  Unity: SetDirection:(-100, 3, 0)
2021-05-18 18:11:25,124 [ 1] INFO  Unity: OnMapEntitySyncRequest::ID :6 POS:SkillBridge.Message.NVector3, DIR:SkillBridge.Message.NVector3,SPD:0
2021-05-18 18:11:25,198 [ 1] INFO  Unity: SetDirection:(-98, 21, 0)
2021-05-18 18:11:25,200 [ 1] INFO  Unity: OnMapEntitySyncRequest::ID :6 POS:SkillBridge.Message.NVector3, DIR:SkillBridge.Message.NVector3,SPD:0
2021-05-18 18:11:25,316 [ 1] INFO  Unity: SetDirection:(-91, 41, 0)
2021-05-18 18:11:25,317 [ 1] INFO  Unity: OnMapEntitySyncRequest::ID :6 POS:SkillBridge.Message.NVector3, DIR:SkillBridge.Message.NVector3,SPD:0
2021-05-18 18:11:25,417 [ 1] INFO  Unity: MoveForward
2021-05-18 18:11:25,419 [ 1] INFO  Unity: OnMapEntitySyncRequest::ID :6 POS:SkillBridge.Message.NVector3, DIR:SkillBridge.Message.NVector3,SPD:300
2021-05-18 18:11:25,420 [ 1] INFO  Unity: SetDirection:(-81, 59, 0)
2021-05-18 18:11:25,420 [ 1] INFO  Unity: OnMapEntitySyncRequest::ID :6 POS:SkillBridge.Message.NVector3, DIR:SkillBridge.Message.NVector3,SPD:300
2021-05-18 18:11:25,490 [ 1] INFO  Unity: SetDirection:(-67, 74, 0)
2021-05-18 18:11:25,491 [ 1] INFO  Unity: OnMapEntitySyncRequest::ID :6 POS:SkillBridge.Message.NVector3, DIR:SkillBridge.Message.NVector3,SPD:300
2021-05-18 18:11:26,022 [ 1] INFO  Unity: Stop
2021-05-18 18:11:26,024 [ 1] INFO  Unity: OnMapEntitySyncRequest::ID :6 POS:SkillBridge.Message.NVector3, DIR:SkillBridge.Message.NVector3,SPD:0
2021-05-18 18:11:26,076 [ 1] INFO  Unity: MoveForward
2021-05-18 18:11:26,078 [ 1] INFO  Unity: OnMapEntitySyncRequest::ID :6 POS:SkillBridge.Message.NVector3, DIR:SkillBridge.Message.NVector3,SPD:300
2021-05-18 18:11:26,207 [ 1] INFO  Unity: Stop
2021-05-18 18:11:26,208 [ 1] INFO  Unity: OnMapEntitySyncRequest::ID :6 POS:SkillBridge.Message.NVector3, DIR:SkillBridge.Message.NVector3,SPD:0
2021-05-18 18:12:28,696 [ 1] INFO  Unity: OnDestroy NetworkManager.
2021-05-18 18:12:28,697 [ 1] WARN  Unity: CloseConnection(), errorCode: 1007
UnityEngine.Debug:LogWarning(Object)
Network.NetClient:CloseConnection(Int32) (at Assets/Scripts/Network/NetClient.cs:180)
Network.NetClient:OnDestroy() (at Assets/Scripts/Network/NetClient.cs:175)

2021-05-18 18:12:28,701 [ 1] INFO  Unity: Character_6_的来啦 OnDestroy :ID:6 POS:(4176, 3001, 805) DIR:(-67, 74, 0) SPD:0 
