2021-05-18 18:13:29,150 [ 1] INFO  Unity: LoadingManager start
2021-05-18 18:13:31,847 [ 1] INFO  Unity: DataManager > DataManager()
2021-05-18 18:13:38,642 [ 1] INFO  Unity: UserLoginRequest::user :123 psw:123
2021-05-18 18:13:38,644 [ 1] INFO  Unity: ConnectToServer() Start 
2021-05-18 18:13:38,645 [ 1] INFO  Unity: DoConnect
2021-05-18 18:13:38,648 [ 1] INFO  Unity: NetClient.DoConnect on 127.0.0.1:8000
2021-05-18 18:13:38,651 [ 1] INFO  Unity: Connect[0] to server 127.0.0.1:8000

2021-05-18 18:13:38,654 [ 1] INFO  Unity: LoadingMesager::OnGameServerConnect :0 reason:Success
2021-05-18 18:13:38,794 [ 1] INFO  Unity: OnUserLogin:Success [None]
2021-05-18 18:13:38,801 [ 1] INFO  Unity: LoadLevel: CharSelect
2021-05-18 18:13:39,470 [ 1] INFO  Unity: LevelLoadCompleted:1
2021-05-18 18:13:40,068 [ 1] INFO  Unity: Select Char:[3]的来啦[Archer]
2021-05-18 18:13:40,948 [ 1] INFO  Unity: UserGameEnterRequest::characterIdx :2
2021-05-18 18:13:40,980 [ 1] INFO  Unity: OnGameEnterSuccess [进入游戏成功]
2021-05-18 18:13:40,982 [ 1] INFO  Unity: OnMapCharacterEnter:Map:1 Count:1
2021-05-18 18:13:40,985 [ 1] INFO  Unity: AddCharacter:7:的来啦 Map:1 Entity:(7:pos:(5000,4000,820),dir:(100,0,0),spd:0
2021-05-18 18:13:40,988 [ 1] INFO  Unity: 布林镇
2021-05-18 18:13:40,990 [ 1] INFO  Unity: LoadLevel: MainCity
2021-05-18 18:13:42,194 [ 1] WARN  Unity: No mesh data available for mesh Sphere001 on particle system fx_portal. Make sure Read/Write Enabled is set in the importer to work on the particle system renderer

2021-05-18 18:13:42,194 [ 1] WARN  Unity: No mesh data available for mesh Sphere001 on particle system fx_portal. Make sure Read/Write Enabled is set in the importer to work on the particle system renderer

2021-05-18 18:13:42,459 [ 1] INFO  Unity: LevelLoadCompleted:1
2021-05-18 18:13:42,911 [ 1] INFO  Unity: MoveForward
2021-05-18 18:13:42,915 [ 1] INFO  Unity: OnMapEntitySyncRequest::ID :7 POS:SkillBridge.Message.NVector3, DIR:SkillBridge.Message.NVector3,SPD:300
2021-05-18 18:13:43,133 [ 1] INFO  Unity: Stop
2021-05-18 18:13:43,134 [ 1] INFO  Unity: OnMapEntitySyncRequest::ID :7 POS:SkillBridge.Message.NVector3, DIR:SkillBridge.Message.NVector3,SPD:0
2021-05-18 18:13:43,171 [ 1] INFO  Unity: SetDirection:(98, -21, 0)
2021-05-18 18:13:43,172 [ 1] INFO  Unity: OnMapEntitySyncRequest::ID :7 POS:SkillBridge.Message.NVector3, DIR:SkillBridge.Message.NVector3,SPD:0
2021-05-18 18:13:43,288 [ 1] INFO  Unity: SetDirection:(91, -41, 0)
2021-05-18 18:13:43,289 [ 1] INFO  Unity: OnMapEntitySyncRequest::ID :7 POS:SkillBridge.Message.NVector3, DIR:SkillBridge.Message.NVector3,SPD:0
2021-05-18 18:13:43,388 [ 1] INFO  Unity: SetDirection:(81, -59, 0)
2021-05-18 18:13:43,390 [ 1] INFO  Unity: OnMapEntitySyncRequest::ID :7 POS:SkillBridge.Message.NVector3, DIR:SkillBridge.Message.NVector3,SPD:0
2021-05-18 18:13:43,490 [ 1] INFO  Unity: SetDirection:(67, -74, 0)
2021-05-18 18:13:43,491 [ 1] INFO  Unity: OnMapEntitySyncRequest::ID :7 POS:SkillBridge.Message.NVector3, DIR:SkillBridge.Message.NVector3,SPD:0
2021-05-18 18:13:43,561 [ 1] INFO  Unity: MoveForward
2021-05-18 18:13:43,563 [ 1] INFO  Unity: OnMapEntitySyncRequest::ID :7 POS:SkillBridge.Message.NVector3, DIR:SkillBridge.Message.NVector3,SPD:300
2021-05-18 18:13:43,564 [ 1] INFO  Unity: SetDirection:(53, -85, 0)
2021-05-18 18:13:43,564 [ 1] INFO  Unity: OnMapEntitySyncRequest::ID :7 POS:SkillBridge.Message.NVector3, DIR:SkillBridge.Message.NVector3,SPD:300
2021-05-18 18:13:43,651 [ 1] INFO  Unity: SetDirection:(34, -94, 0)
2021-05-18 18:13:43,652 [ 1] INFO  Unity: OnMapEntitySyncRequest::ID :7 POS:SkillBridge.Message.NVector3, DIR:SkillBridge.Message.NVector3,SPD:300
2021-05-18 18:13:43,759 [ 1] INFO  Unity: SetDirection:(14, -99, 0)
2021-05-18 18:13:43,761 [ 1] INFO  Unity: OnMapEntitySyncRequest::ID :7 POS:SkillBridge.Message.NVector3, DIR:SkillBridge.Message.NVector3,SPD:300
2021-05-18 18:13:43,853 [ 1] INFO  Unity: SetDirection:(-3, -100, 0)
2021-05-18 18:13:43,855 [ 1] INFO  Unity: OnMapEntitySyncRequest::ID :7 POS:SkillBridge.Message.NVector3, DIR:SkillBridge.Message.NVector3,SPD:300
2021-05-18 18:13:43,933 [ 1] INFO  Unity: SetDirection:(-21, -98, 0)
2021-05-18 18:13:43,934 [ 1] INFO  Unity: OnMapEntitySyncRequest::ID :7 POS:SkillBridge.Message.NVector3, DIR:SkillBridge.Message.NVector3,SPD:300
2021-05-18 18:13:44,033 [ 1] INFO  Unity: SetDirection:(-41, -91, 0)
2021-05-18 18:13:44,035 [ 1] INFO  Unity: OnMapEntitySyncRequest::ID :7 POS:SkillBridge.Message.NVector3, DIR:SkillBridge.Message.NVector3,SPD:300
2021-05-18 18:13:44,122 [ 1] INFO  Unity: SetDirection:(-59, -81, 0)
2021-05-18 18:13:44,124 [ 1] INFO  Unity: OnMapEntitySyncRequest::ID :7 POS:SkillBridge.Message.NVector3, DIR:SkillBridge.Message.NVector3,SPD:300
2021-05-18 18:13:47,509 [ 1] INFO  Unity: SetDirection:(-74, -67, 0)
2021-05-18 18:13:47,510 [ 1] INFO  Unity: OnMapEntitySyncRequest::ID :7 POS:SkillBridge.Message.NVector3, DIR:SkillBridge.Message.NVector3,SPD:300
2021-05-18 18:13:47,610 [ 1] INFO  Unity: SetDirection:(-85, -53, 0)
2021-05-18 18:13:47,612 [ 1] INFO  Unity: OnMapEntitySyncRequest::ID :7 POS:SkillBridge.Message.NVector3, DIR:SkillBridge.Message.NVector3,SPD:300
2021-05-18 18:13:47,702 [ 1] INFO  Unity: SetDirection:(-94, -34, 0)
2021-05-18 18:13:47,704 [ 1] INFO  Unity: OnMapEntitySyncRequest::ID :7 POS:SkillBridge.Message.NVector3, DIR:SkillBridge.Message.NVector3,SPD:300
2021-05-18 18:13:47,796 [ 1] INFO  Unity: SetDirection:(-99, -14, 0)
2021-05-18 18:13:47,798 [ 1] INFO  Unity: OnMapEntitySyncRequest::ID :7 POS:SkillBridge.Message.NVector3, DIR:SkillBridge.Message.NVector3,SPD:300
2021-05-18 18:13:48,070 [ 1] INFO  Unity: SetDirection:(-100, 3, 0)
2021-05-18 18:13:48,071 [ 1] INFO  Unity: OnMapEntitySyncRequest::ID :7 POS:SkillBridge.Message.NVector3, DIR:SkillBridge.Message.NVector3,SPD:300
2021-05-18 18:13:48,162 [ 1] INFO  Unity: SetDirection:(-98, 21, 0)
2021-05-18 18:13:48,163 [ 1] INFO  Unity: OnMapEntitySyncRequest::ID :7 POS:SkillBridge.Message.NVector3, DIR:SkillBridge.Message.NVector3,SPD:300
2021-05-18 18:13:48,250 [ 1] INFO  Unity: SetDirection:(-91, 41, 0)
2021-05-18 18:13:48,253 [ 1] INFO  Unity: OnMapEntitySyncRequest::ID :7 POS:SkillBridge.Message.NVector3, DIR:SkillBridge.Message.NVector3,SPD:300
2021-05-18 18:13:48,532 [ 1] INFO  Unity: Stop
2021-05-18 18:13:48,533 [ 1] INFO  Unity: OnMapEntitySyncRequest::ID :7 POS:SkillBridge.Message.NVector3, DIR:SkillBridge.Message.NVector3,SPD:0
2021-05-18 18:15:01,105 [ 1] INFO  Unity: OnDestroy NetworkManager.
2021-05-18 18:15:01,106 [ 1] WARN  Unity: CloseConnection(), errorCode: 1007
UnityEngine.Debug:LogWarning(Object)
Network.NetClient:CloseConnection(Int32) (at Assets/Scripts/Network/NetClient.cs:180)
Network.NetClient:OnDestroy() (at Assets/Scripts/Network/NetClient.cs:175)

2021-05-18 18:15:01,109 [ 1] INFO  Unity: Character_7_的来啦 OnDestroy :ID:7 POS:(4189, 3001, 820) DIR:(-91, 41, 0) SPD:0 
