2021-05-18 18:15:30,056 [ 1] INFO  Unity: LoadingManager start
2021-05-18 18:15:32,607 [ 1] INFO  Unity: DataManager > DataManager()
2021-05-18 18:15:39,523 [ 1] INFO  Unity: UserLoginRequest::user :123 psw:123
2021-05-18 18:15:39,525 [ 1] INFO  Unity: ConnectToServer() Start 
2021-05-18 18:15:39,527 [ 1] INFO  Unity: DoConnect
2021-05-18 18:15:39,530 [ 1] INFO  Unity: NetClient.DoConnect on 127.0.0.1:8000
2021-05-18 18:15:39,533 [ 1] INFO  Unity: Connect[0] to server 127.0.0.1:8000

2021-05-18 18:15:39,536 [ 1] INFO  Unity: LoadingMesager::OnGameServerConnect :0 reason:Success
2021-05-18 18:15:39,670 [ 1] INFO  Unity: OnUserLogin:Success [None]
2021-05-18 18:15:39,676 [ 1] INFO  Unity: LoadLevel: CharSelect
2021-05-18 18:15:40,297 [ 1] INFO  Unity: LevelLoadCompleted:1
2021-05-18 18:15:41,544 [ 1] INFO  Unity: Select Char:[3]的来啦[Archer]
2021-05-18 18:15:42,221 [ 1] INFO  Unity: UserGameEnterRequest::characterIdx :2
2021-05-18 18:15:42,255 [ 1] INFO  Unity: OnGameEnterSuccess [进入游戏成功]
2021-05-18 18:15:42,256 [ 1] INFO  Unity: OnMapCharacterEnter:Map:1 Count:1
2021-05-18 18:15:42,259 [ 1] INFO  Unity: AddCharacter:8:的来啦 Map:1 Entity:(8:pos:(5000,4000,820),dir:(100,0,0),spd:0
2021-05-18 18:15:42,263 [ 1] INFO  Unity: 布林镇
2021-05-18 18:15:42,265 [ 1] INFO  Unity: LoadLevel: MainCity
2021-05-18 18:15:43,456 [ 1] WARN  Unity: No mesh data available for mesh Sphere001 on particle system fx_portal. Make sure Read/Write Enabled is set in the importer to work on the particle system renderer

2021-05-18 18:15:43,456 [ 1] WARN  Unity: No mesh data available for mesh Sphere001 on particle system fx_portal. Make sure Read/Write Enabled is set in the importer to work on the particle system renderer

2021-05-18 18:15:43,685 [ 1] INFO  Unity: LevelLoadCompleted:1
2021-05-18 18:15:44,270 [ 1] INFO  Unity: MoveForward
2021-05-18 18:15:44,272 [ 1] INFO  Unity: OnMapEntitySyncRequest::ID :8 POS:SkillBridge.Message.NVector3, DIR:SkillBridge.Message.NVector3,SPD:300
2021-05-18 18:15:44,296 [ 1] INFO  Unity: SetDirection:(98, -21, 0)
2021-05-18 18:15:44,298 [ 1] INFO  Unity: OnMapEntitySyncRequest::ID :8 POS:SkillBridge.Message.NVector3, DIR:SkillBridge.Message.NVector3,SPD:300
2021-05-18 18:15:44,392 [ 1] INFO  Unity: SetDirection:(91, -41, 0)
2021-05-18 18:15:44,393 [ 1] INFO  Unity: OnMapEntitySyncRequest::ID :8 POS:SkillBridge.Message.NVector3, DIR:SkillBridge.Message.NVector3,SPD:300
2021-05-18 18:15:44,484 [ 1] INFO  Unity: SetDirection:(81, -59, 0)
2021-05-18 18:15:44,485 [ 1] INFO  Unity: OnMapEntitySyncRequest::ID :8 POS:SkillBridge.Message.NVector3, DIR:SkillBridge.Message.NVector3,SPD:300
2021-05-18 18:15:44,591 [ 1] INFO  Unity: SetDirection:(67, -74, 0)
2021-05-18 18:15:44,592 [ 1] INFO  Unity: OnMapEntitySyncRequest::ID :8 POS:SkillBridge.Message.NVector3, DIR:SkillBridge.Message.NVector3,SPD:300
2021-05-18 18:15:44,690 [ 1] INFO  Unity: SetDirection:(53, -85, 0)
2021-05-18 18:15:44,691 [ 1] INFO  Unity: OnMapEntitySyncRequest::ID :8 POS:SkillBridge.Message.NVector3, DIR:SkillBridge.Message.NVector3,SPD:300
2021-05-18 18:15:44,766 [ 1] INFO  Unity: SetDirection:(34, -94, 0)
2021-05-18 18:15:44,768 [ 1] INFO  Unity: OnMapEntitySyncRequest::ID :8 POS:SkillBridge.Message.NVector3, DIR:SkillBridge.Message.NVector3,SPD:300
2021-05-18 18:15:44,868 [ 1] INFO  Unity: SetDirection:(14, -99, 0)
2021-05-18 18:15:44,870 [ 1] INFO  Unity: OnMapEntitySyncRequest::ID :8 POS:SkillBridge.Message.NVector3, DIR:SkillBridge.Message.NVector3,SPD:300
2021-05-18 18:15:44,963 [ 1] INFO  Unity: SetDirection:(-3, -100, 0)
2021-05-18 18:15:44,965 [ 1] INFO  Unity: OnMapEntitySyncRequest::ID :8 POS:SkillBridge.Message.NVector3, DIR:SkillBridge.Message.NVector3,SPD:300
2021-05-18 18:15:45,061 [ 1] INFO  Unity: SetDirection:(-21, -98, 0)
2021-05-18 18:15:45,062 [ 1] INFO  Unity: OnMapEntitySyncRequest::ID :8 POS:SkillBridge.Message.NVector3, DIR:SkillBridge.Message.NVector3,SPD:300
2021-05-18 18:15:45,775 [ 1] INFO  Unity: SetDirection:(-41, -91, 0)
2021-05-18 18:15:45,777 [ 1] INFO  Unity: OnMapEntitySyncRequest::ID :8 POS:SkillBridge.Message.NVector3, DIR:SkillBridge.Message.NVector3,SPD:300
2021-05-18 18:15:45,870 [ 1] INFO  Unity: SetDirection:(-59, -81, 0)
2021-05-18 18:15:45,871 [ 1] INFO  Unity: OnMapEntitySyncRequest::ID :8 POS:SkillBridge.Message.NVector3, DIR:SkillBridge.Message.NVector3,SPD:300
2021-05-18 18:15:45,943 [ 1] INFO  Unity: Stop
2021-05-18 18:15:45,945 [ 1] INFO  Unity: OnMapEntitySyncRequest::ID :8 POS:SkillBridge.Message.NVector3, DIR:SkillBridge.Message.NVector3,SPD:0
2021-05-18 18:15:45,973 [ 1] INFO  Unity: SetDirection:(-74, -67, 0)
2021-05-18 18:15:45,974 [ 1] INFO  Unity: OnMapEntitySyncRequest::ID :8 POS:SkillBridge.Message.NVector3, DIR:SkillBridge.Message.NVector3,SPD:0
2021-05-18 18:15:46,044 [ 1] INFO  Unity: SetDirection:(-85, -53, 0)
2021-05-18 18:15:46,046 [ 1] INFO  Unity: OnMapEntitySyncRequest::ID :8 POS:SkillBridge.Message.NVector3, DIR:SkillBridge.Message.NVector3,SPD:0
2021-05-18 18:15:46,133 [ 1] INFO  Unity: SetDirection:(-94, -34, 0)
2021-05-18 18:15:46,134 [ 1] INFO  Unity: OnMapEntitySyncRequest::ID :8 POS:SkillBridge.Message.NVector3, DIR:SkillBridge.Message.NVector3,SPD:0
2021-05-18 18:15:46,246 [ 1] INFO  Unity: SetDirection:(-99, -14, 0)
2021-05-18 18:15:46,248 [ 1] INFO  Unity: OnMapEntitySyncRequest::ID :8 POS:SkillBridge.Message.NVector3, DIR:SkillBridge.Message.NVector3,SPD:0
2021-05-18 18:15:46,274 [ 1] INFO  Unity: MoveForward
2021-05-18 18:15:46,275 [ 1] INFO  Unity: OnMapEntitySyncRequest::ID :8 POS:SkillBridge.Message.NVector3, DIR:SkillBridge.Message.NVector3,SPD:300
2021-05-18 18:15:46,329 [ 1] INFO  Unity: SetDirection:(-100, 3, 0)
2021-05-18 18:15:46,331 [ 1] INFO  Unity: OnMapEntitySyncRequest::ID :8 POS:SkillBridge.Message.NVector3, DIR:SkillBridge.Message.NVector3,SPD:300
2021-05-18 18:15:46,409 [ 1] INFO  Unity: SetDirection:(-98, 21, 0)
2021-05-18 18:15:46,410 [ 1] INFO  Unity: OnMapEntitySyncRequest::ID :8 POS:SkillBridge.Message.NVector3, DIR:SkillBridge.Message.NVector3,SPD:300
2021-05-18 18:15:46,506 [ 1] INFO  Unity: SetDirection:(-91, 41, 0)
2021-05-18 18:15:46,508 [ 1] INFO  Unity: OnMapEntitySyncRequest::ID :8 POS:SkillBridge.Message.NVector3, DIR:SkillBridge.Message.NVector3,SPD:300
2021-05-18 18:15:46,631 [ 1] INFO  Unity: SetDirection:(-81, 59, 0)
2021-05-18 18:15:46,632 [ 1] INFO  Unity: OnMapEntitySyncRequest::ID :8 POS:SkillBridge.Message.NVector3, DIR:SkillBridge.Message.NVector3,SPD:300
2021-05-18 18:15:46,714 [ 1] INFO  Unity: SetDirection:(-67, 74, 0)
2021-05-18 18:15:46,715 [ 1] INFO  Unity: OnMapEntitySyncRequest::ID :8 POS:SkillBridge.Message.NVector3, DIR:SkillBridge.Message.NVector3,SPD:300
2021-05-18 18:15:47,160 [ 1] INFO  Unity: SetDirection:(-53, 85, 0)
2021-05-18 18:15:47,161 [ 1] INFO  Unity: OnMapEntitySyncRequest::ID :8 POS:SkillBridge.Message.NVector3, DIR:SkillBridge.Message.NVector3,SPD:300
2021-05-18 18:15:47,265 [ 1] INFO  Unity: SetDirection:(-34, 94, 0)
2021-05-18 18:15:47,266 [ 1] INFO  Unity: OnMapEntitySyncRequest::ID :8 POS:SkillBridge.Message.NVector3, DIR:SkillBridge.Message.NVector3,SPD:300
2021-05-18 18:15:47,360 [ 1] INFO  Unity: SetDirection:(-14, 99, 0)
2021-05-18 18:15:47,361 [ 1] INFO  Unity: OnMapEntitySyncRequest::ID :8 POS:SkillBridge.Message.NVector3, DIR:SkillBridge.Message.NVector3,SPD:300
2021-05-18 18:15:49,939 [ 1] INFO  Unity: SetDirection:(-34, 94, 0)
2021-05-18 18:15:49,940 [ 1] INFO  Unity: OnMapEntitySyncRequest::ID :8 POS:SkillBridge.Message.NVector3, DIR:SkillBridge.Message.NVector3,SPD:300
2021-05-18 18:15:50,321 [ 1] INFO  Unity: SetPosition:(4678, 4646, 805)
2021-05-18 18:15:50,322 [ 1] INFO  Unity: OnMapEntitySyncRequest::ID :8 POS:SkillBridge.Message.NVector3, DIR:SkillBridge.Message.NVector3,SPD:300
2021-05-18 18:15:50,715 [ 1] INFO  Unity: SetDirection:(-50, 87, 0)
2021-05-18 18:15:50,717 [ 1] INFO  Unity: OnMapEntitySyncRequest::ID :8 POS:SkillBridge.Message.NVector3, DIR:SkillBridge.Message.NVector3,SPD:300
2021-05-18 18:15:50,806 [ 1] INFO  Unity: SetDirection:(-64, 77, 0)
2021-05-18 18:15:50,807 [ 1] INFO  Unity: OnMapEntitySyncRequest::ID :8 POS:SkillBridge.Message.NVector3, DIR:SkillBridge.Message.NVector3,SPD:300
2021-05-18 18:15:51,470 [ 1] INFO  Unity: SetDirection:(-77, 64, 0)
2021-05-18 18:15:51,472 [ 1] INFO  Unity: OnMapEntitySyncRequest::ID :8 POS:SkillBridge.Message.NVector3, DIR:SkillBridge.Message.NVector3,SPD:300
2021-05-18 18:15:51,565 [ 1] INFO  Unity: SetDirection:(-88, 47, 0)
2021-05-18 18:15:51,567 [ 1] INFO  Unity: OnMapEntitySyncRequest::ID :8 POS:SkillBridge.Message.NVector3, DIR:SkillBridge.Message.NVector3,SPD:300
2021-05-18 18:15:51,652 [ 1] INFO  Unity: SetDirection:(-95, 31, 0)
2021-05-18 18:15:51,654 [ 1] INFO  Unity: OnMapEntitySyncRequest::ID :8 POS:SkillBridge.Message.NVector3, DIR:SkillBridge.Message.NVector3,SPD:300
2021-05-18 18:15:51,685 [ 1] INFO  Unity: Stop
2021-05-18 18:15:51,687 [ 1] INFO  Unity: OnMapEntitySyncRequest::ID :8 POS:SkillBridge.Message.NVector3, DIR:SkillBridge.Message.NVector3,SPD:0
2021-05-18 18:15:51,739 [ 1] INFO  Unity: SetDirection:(-99, 14, 0)
2021-05-18 18:15:51,742 [ 1] INFO  Unity: OnMapEntitySyncRequest::ID :8 POS:SkillBridge.Message.NVector3, DIR:SkillBridge.Message.NVector3,SPD:0
2021-05-18 18:15:51,832 [ 1] INFO  Unity: MoveForward
2021-05-18 18:15:51,834 [ 1] INFO  Unity: OnMapEntitySyncRequest::ID :8 POS:SkillBridge.Message.NVector3, DIR:SkillBridge.Message.NVector3,SPD:300
2021-05-18 18:15:51,836 [ 1] INFO  Unity: SetDirection:(-100, -3, 0)
2021-05-18 18:15:51,837 [ 1] INFO  Unity: OnMapEntitySyncRequest::ID :8 POS:SkillBridge.Message.NVector3, DIR:SkillBridge.Message.NVector3,SPD:300
2021-05-18 18:15:51,894 [ 1] INFO  Unity: SetDirection:(-98, -21, 0)
2021-05-18 18:15:51,895 [ 1] INFO  Unity: OnMapEntitySyncRequest::ID :8 POS:SkillBridge.Message.NVector3, DIR:SkillBridge.Message.NVector3,SPD:300
2021-05-18 18:15:52,522 [ 1] INFO  Unity: Stop
2021-05-18 18:15:52,523 [ 1] INFO  Unity: OnMapEntitySyncRequest::ID :8 POS:SkillBridge.Message.NVector3, DIR:SkillBridge.Message.NVector3,SPD:0
2021-05-18 18:16:33,570 [ 1] INFO  Unity: OnDestroy NetworkManager.
2021-05-18 18:16:33,571 [ 1] WARN  Unity: CloseConnection(), errorCode: 1007
UnityEngine.Debug:LogWarning(Object)
Network.NetClient:CloseConnection(Int32) (at Assets/Scripts/Network/NetClient.cs:180)
Network.NetClient:OnDestroy() (at Assets/Scripts/Network/NetClient.cs:175)

2021-05-18 18:16:33,575 [ 1] INFO  Unity: Character_8_的来啦 OnDestroy :ID:8 POS:(4238, 4934, 805) DIR:(-98, -21, 0) SPD:0 
