2021-05-18 18:08:27,449 [ 1] INFO  Unity: LoadingManager start
2021-05-18 18:08:29,970 [ 1] INFO  Unity: DataManager > DataManager()
2021-05-18 18:08:36,755 [ 1] INFO  Unity: UserLoginRequest::user :123 psw:123
2021-05-18 18:08:36,757 [ 1] INFO  Unity: ConnectToServer() Start 
2021-05-18 18:08:36,758 [ 1] INFO  Unity: DoConnect
2021-05-18 18:08:36,760 [ 1] INFO  Unity: NetClient.DoConnect on 127.0.0.1:8000
2021-05-18 18:08:36,763 [ 1] INFO  Unity: Connect[0] to server 127.0.0.1:8000

2021-05-18 18:08:36,767 [ 1] INFO  Unity: LoadingMesager::OnGameServerConnect :0 reason:Success
2021-05-18 18:08:36,901 [ 1] INFO  Unity: OnUserLogin:Success [None]
2021-05-18 18:08:36,907 [ 1] INFO  Unity: LoadLevel: CharSelect
2021-05-18 18:08:37,537 [ 1] INFO  Unity: LevelLoadCompleted:1
2021-05-18 18:08:38,138 [ 1] INFO  Unity: Select Char:[3]的来啦[Archer]
2021-05-18 18:08:38,918 [ 1] INFO  Unity: UserGameEnterRequest::characterIdx :2
2021-05-18 18:08:38,953 [ 1] INFO  Unity: OnGameEnterSuccess [进入游戏成功]
2021-05-18 18:08:38,955 [ 1] INFO  Unity: OnMapCharacterEnter:Map:1 Count:1
2021-05-18 18:08:38,957 [ 1] INFO  Unity: AddCharacter:5:的来啦 Map:1 Entity:(5:pos:(5000,4000,820),dir:(100,0,0),spd:0
2021-05-18 18:08:38,960 [ 1] INFO  Unity: 布林镇
2021-05-18 18:08:38,962 [ 1] INFO  Unity: LoadLevel: MainCity
2021-05-18 18:08:40,449 [ 1] WARN  Unity: No mesh data available for mesh Sphere001 on particle system fx_portal. Make sure Read/Write Enabled is set in the importer to work on the particle system renderer

2021-05-18 18:08:40,450 [ 1] WARN  Unity: No mesh data available for mesh Sphere001 on particle system fx_portal. Make sure Read/Write Enabled is set in the importer to work on the particle system renderer

2021-05-18 18:08:40,687 [ 1] INFO  Unity: LevelLoadCompleted:1
2021-05-18 18:08:41,418 [ 1] INFO  Unity: SetDirection:(98, -21, 0)
2021-05-18 18:08:41,420 [ 1] INFO  Unity: OnMapEntitySyncRequest::ID :5 POS:SkillBridge.Message.NVector3, DIR:SkillBridge.Message.NVector3,SPD:0
2021-05-18 18:08:41,524 [ 1] INFO  Unity: SetDirection:(91, -41, 0)
2021-05-18 18:08:41,525 [ 1] INFO  Unity: OnMapEntitySyncRequest::ID :5 POS:SkillBridge.Message.NVector3, DIR:SkillBridge.Message.NVector3,SPD:0
2021-05-18 18:08:41,630 [ 1] INFO  Unity: SetDirection:(81, -59, 0)
2021-05-18 18:08:41,632 [ 1] INFO  Unity: OnMapEntitySyncRequest::ID :5 POS:SkillBridge.Message.NVector3, DIR:SkillBridge.Message.NVector3,SPD:0
2021-05-18 18:08:41,743 [ 1] INFO  Unity: SetDirection:(67, -74, 0)
2021-05-18 18:08:41,744 [ 1] INFO  Unity: OnMapEntitySyncRequest::ID :5 POS:SkillBridge.Message.NVector3, DIR:SkillBridge.Message.NVector3,SPD:0
2021-05-18 18:08:41,773 [ 1] INFO  Unity: MoveForward
2021-05-18 18:08:41,775 [ 1] INFO  Unity: OnMapEntitySyncRequest::ID :5 POS:SkillBridge.Message.NVector3, DIR:SkillBridge.Message.NVector3,SPD:300
2021-05-18 18:08:41,800 [ 1] INFO  Unity: SetDirection:(53, -85, 0)
2021-05-18 18:08:41,803 [ 1] INFO  Unity: OnMapEntitySyncRequest::ID :5 POS:SkillBridge.Message.NVector3, DIR:SkillBridge.Message.NVector3,SPD:300
2021-05-18 18:08:41,919 [ 1] INFO  Unity: SetDirection:(34, -94, 0)
2021-05-18 18:08:41,921 [ 1] INFO  Unity: OnMapEntitySyncRequest::ID :5 POS:SkillBridge.Message.NVector3, DIR:SkillBridge.Message.NVector3,SPD:300
2021-05-18 18:08:42,011 [ 1] INFO  Unity: SetDirection:(14, -99, 0)
2021-05-18 18:08:42,013 [ 1] INFO  Unity: OnMapEntitySyncRequest::ID :5 POS:SkillBridge.Message.NVector3, DIR:SkillBridge.Message.NVector3,SPD:300
2021-05-18 18:08:42,098 [ 1] INFO  Unity: SetDirection:(-3, -100, 0)
2021-05-18 18:08:42,099 [ 1] INFO  Unity: OnMapEntitySyncRequest::ID :5 POS:SkillBridge.Message.NVector3, DIR:SkillBridge.Message.NVector3,SPD:300
2021-05-18 18:08:42,170 [ 1] INFO  Unity: SetDirection:(-21, -98, 0)
2021-05-18 18:08:42,171 [ 1] INFO  Unity: OnMapEntitySyncRequest::ID :5 POS:SkillBridge.Message.NVector3, DIR:SkillBridge.Message.NVector3,SPD:300
2021-05-18 18:08:43,372 [ 1] INFO  Unity: SetDirection:(-41, -91, 0)
2021-05-18 18:08:43,374 [ 1] INFO  Unity: OnMapEntitySyncRequest::ID :5 POS:SkillBridge.Message.NVector3, DIR:SkillBridge.Message.NVector3,SPD:300
2021-05-18 18:08:43,494 [ 1] INFO  Unity: SetDirection:(-59, -81, 0)
2021-05-18 18:08:43,495 [ 1] INFO  Unity: OnMapEntitySyncRequest::ID :5 POS:SkillBridge.Message.NVector3, DIR:SkillBridge.Message.NVector3,SPD:300
2021-05-18 18:08:45,733 [ 1] INFO  Unity: SetDirection:(-74, -67, 0)
2021-05-18 18:08:45,734 [ 1] INFO  Unity: OnMapEntitySyncRequest::ID :5 POS:SkillBridge.Message.NVector3, DIR:SkillBridge.Message.NVector3,SPD:300
2021-05-18 18:08:45,794 [ 1] INFO  Unity: SetDirection:(-85, -53, 0)
2021-05-18 18:08:45,796 [ 1] INFO  Unity: OnMapEntitySyncRequest::ID :5 POS:SkillBridge.Message.NVector3, DIR:SkillBridge.Message.NVector3,SPD:300
2021-05-18 18:08:45,907 [ 1] INFO  Unity: SetDirection:(-94, -34, 0)
2021-05-18 18:08:45,908 [ 1] INFO  Unity: OnMapEntitySyncRequest::ID :5 POS:SkillBridge.Message.NVector3, DIR:SkillBridge.Message.NVector3,SPD:300
2021-05-18 18:08:46,003 [ 1] INFO  Unity: SetDirection:(-99, -14, 0)
2021-05-18 18:08:46,004 [ 1] INFO  Unity: OnMapEntitySyncRequest::ID :5 POS:SkillBridge.Message.NVector3, DIR:SkillBridge.Message.NVector3,SPD:300
2021-05-18 18:08:46,086 [ 1] INFO  Unity: SetDirection:(-100, 3, 0)
2021-05-18 18:08:46,088 [ 1] INFO  Unity: OnMapEntitySyncRequest::ID :5 POS:SkillBridge.Message.NVector3, DIR:SkillBridge.Message.NVector3,SPD:300
2021-05-18 18:08:46,443 [ 1] INFO  Unity: SetDirection:(-98, 21, 0)
2021-05-18 18:08:46,444 [ 1] INFO  Unity: OnMapEntitySyncRequest::ID :5 POS:SkillBridge.Message.NVector3, DIR:SkillBridge.Message.NVector3,SPD:300
2021-05-18 18:08:46,546 [ 1] INFO  Unity: SetDirection:(-91, 41, 0)
2021-05-18 18:08:46,547 [ 1] INFO  Unity: OnMapEntitySyncRequest::ID :5 POS:SkillBridge.Message.NVector3, DIR:SkillBridge.Message.NVector3,SPD:300
2021-05-18 18:08:46,646 [ 1] INFO  Unity: SetDirection:(-81, 59, 0)
2021-05-18 18:08:46,647 [ 1] INFO  Unity: OnMapEntitySyncRequest::ID :5 POS:SkillBridge.Message.NVector3, DIR:SkillBridge.Message.NVector3,SPD:300
2021-05-18 18:08:46,717 [ 1] INFO  Unity: Stop
2021-05-18 18:08:46,718 [ 1] INFO  Unity: OnMapEntitySyncRequest::ID :5 POS:SkillBridge.Message.NVector3, DIR:SkillBridge.Message.NVector3,SPD:0
2021-05-18 18:10:31,946 [ 1] INFO  Unity: Character_5_的来啦 OnDestroy :ID:5 POS:(4278, 2938, 820) DIR:(-81, 59, 0) SPD:0 
2021-05-18 18:10:31,948 [ 1] INFO  Unity: OnDestroy NetworkManager.
2021-05-18 18:10:31,949 [ 1] WARN  Unity: CloseConnection(), errorCode: 1007
UnityEngine.Debug:LogWarning(Object)
Network.NetClient:CloseConnection(Int32) (at Assets/Scripts/Network/NetClient.cs:180)
Network.NetClient:OnDestroy() (at Assets/Scripts/Network/NetClient.cs:175)

