2021-05-18 18:23:46,047 [ 1] INFO  Unity: LoadingManager start
2021-05-18 18:23:48,566 [ 1] INFO  Unity: DataManager > DataManager()
2021-05-18 18:23:54,852 [ 1] INFO  Unity: UserLoginRequest::user :123 psw:123
2021-05-18 18:23:54,854 [ 1] INFO  Unity: ConnectToServer() Start 
2021-05-18 18:23:54,855 [ 1] INFO  Unity: DoConnect
2021-05-18 18:23:54,858 [ 1] INFO  Unity: NetClient.DoConnect on 127.0.0.1:8000
2021-05-18 18:23:54,861 [ 1] INFO  Unity: Connect[0] to server 127.0.0.1:8000

2021-05-18 18:23:54,864 [ 1] INFO  Unity: LoadingMesager::OnGameServerConnect :0 reason:Success
2021-05-18 18:23:54,995 [ 1] INFO  Unity: OnUserLogin:Success [None]
2021-05-18 18:23:55,001 [ 1] INFO  Unity: LoadLevel: CharSelect
2021-05-18 18:23:55,700 [ 1] INFO  Unity: LevelLoadCompleted:1
2021-05-18 18:23:56,223 [ 1] INFO  Unity: Select Char:[3]的来啦[Archer]
2021-05-18 18:23:56,983 [ 1] INFO  Unity: UserGameEnterRequest::characterIdx :2
2021-05-18 18:23:57,017 [ 1] INFO  Unity: OnGameEnterSuccess [进入游戏成功]
2021-05-18 18:23:57,019 [ 1] INFO  Unity: OnMapCharacterEnter:Map:1 Count:1
2021-05-18 18:23:57,021 [ 1] INFO  Unity: AddCharacter:11:的来啦 Map:1 Entity:(11:pos:(5000,4000,820),dir:(100,0,0),spd:0
2021-05-18 18:23:57,025 [ 1] INFO  Unity: 布林镇
2021-05-18 18:23:57,027 [ 1] INFO  Unity: LoadLevel: MainCity
2021-05-18 18:23:58,280 [ 1] WARN  Unity: No mesh data available for mesh Sphere001 on particle system fx_portal. Make sure Read/Write Enabled is set in the importer to work on the particle system renderer

2021-05-18 18:23:58,344 [ 1] WARN  Unity: No mesh data available for mesh Sphere001 on particle system fx_portal. Make sure Read/Write Enabled is set in the importer to work on the particle system renderer

2021-05-18 18:23:58,542 [ 1] INFO  Unity: LevelLoadCompleted:1
2021-05-18 18:23:59,251 [ 1] INFO  Unity: MoveForward
2021-05-18 18:23:59,253 [ 1] INFO  Unity: OnMapEntitySyncRequest::ID :11 POS:SkillBridge.Message.NVector3, DIR:SkillBridge.Message.NVector3,SPD:300
2021-05-18 18:23:59,255 [ 1] INFO  Unity: SetDirection:(98, 21, 0)
2021-05-18 18:23:59,256 [ 1] INFO  Unity: OnMapEntitySyncRequest::ID :11 POS:SkillBridge.Message.NVector3, DIR:SkillBridge.Message.NVector3,SPD:300
2021-05-18 18:23:59,441 [ 1] INFO  Unity: SetDirection:(100, 3, 0)
2021-05-18 18:23:59,443 [ 1] INFO  Unity: OnMapEntitySyncRequest::ID :11 POS:SkillBridge.Message.NVector3, DIR:SkillBridge.Message.NVector3,SPD:300
2021-05-18 18:23:59,549 [ 1] INFO  Unity: SetDirection:(98, -17, 0)
2021-05-18 18:23:59,550 [ 1] INFO  Unity: OnMapEntitySyncRequest::ID :11 POS:SkillBridge.Message.NVector3, DIR:SkillBridge.Message.NVector3,SPD:300
2021-05-18 18:23:59,624 [ 1] INFO  Unity: SetDirection:(94, -34, 0)
2021-05-18 18:23:59,625 [ 1] INFO  Unity: OnMapEntitySyncRequest::ID :11 POS:SkillBridge.Message.NVector3, DIR:SkillBridge.Message.NVector3,SPD:300
2021-05-18 18:23:59,712 [ 1] INFO  Unity: SetDirection:(87, -50, 0)
2021-05-18 18:23:59,713 [ 1] INFO  Unity: OnMapEntitySyncRequest::ID :11 POS:SkillBridge.Message.NVector3, DIR:SkillBridge.Message.NVector3,SPD:300
2021-05-18 18:23:59,794 [ 1] INFO  Unity: SetDirection:(77, -64, 0)
2021-05-18 18:23:59,796 [ 1] INFO  Unity: OnMapEntitySyncRequest::ID :11 POS:SkillBridge.Message.NVector3, DIR:SkillBridge.Message.NVector3,SPD:300
2021-05-18 18:23:59,875 [ 1] INFO  Unity: SetDirection:(64, -77, 0)
2021-05-18 18:23:59,876 [ 1] INFO  Unity: OnMapEntitySyncRequest::ID :11 POS:SkillBridge.Message.NVector3, DIR:SkillBridge.Message.NVector3,SPD:300
2021-05-18 18:23:59,981 [ 1] INFO  Unity: SetDirection:(47, -88, 0)
2021-05-18 18:23:59,982 [ 1] INFO  Unity: OnMapEntitySyncRequest::ID :11 POS:SkillBridge.Message.NVector3, DIR:SkillBridge.Message.NVector3,SPD:300
2021-05-18 18:24:00,066 [ 1] INFO  Unity: SetDirection:(31, -95, 0)
2021-05-18 18:24:00,068 [ 1] INFO  Unity: OnMapEntitySyncRequest::ID :11 POS:SkillBridge.Message.NVector3, DIR:SkillBridge.Message.NVector3,SPD:300
2021-05-18 18:24:00,141 [ 1] INFO  Unity: SetDirection:(14, -99, 0)
2021-05-18 18:24:00,143 [ 1] INFO  Unity: OnMapEntitySyncRequest::ID :11 POS:SkillBridge.Message.NVector3, DIR:SkillBridge.Message.NVector3,SPD:300
2021-05-18 18:24:00,238 [ 1] INFO  Unity: SetDirection:(-3, -100, 0)
2021-05-18 18:24:00,239 [ 1] INFO  Unity: OnMapEntitySyncRequest::ID :11 POS:SkillBridge.Message.NVector3, DIR:SkillBridge.Message.NVector3,SPD:300
2021-05-18 18:24:00,304 [ 1] INFO  Unity: SetDirection:(-21, -98, 0)
2021-05-18 18:24:00,306 [ 1] INFO  Unity: OnMapEntitySyncRequest::ID :11 POS:SkillBridge.Message.NVector3, DIR:SkillBridge.Message.NVector3,SPD:300
2021-05-18 18:24:00,398 [ 1] INFO  Unity: SetDirection:(-41, -91, 0)
2021-05-18 18:24:00,399 [ 1] INFO  Unity: OnMapEntitySyncRequest::ID :11 POS:SkillBridge.Message.NVector3, DIR:SkillBridge.Message.NVector3,SPD:300
2021-05-18 18:24:00,523 [ 1] INFO  Unity: SetDirection:(-59, -81, 0)
2021-05-18 18:24:00,525 [ 1] INFO  Unity: OnMapEntitySyncRequest::ID :11 POS:SkillBridge.Message.NVector3, DIR:SkillBridge.Message.NVector3,SPD:300
2021-05-18 18:24:03,032 [ 1] INFO  Unity: SetDirection:(-74, -67, 0)
2021-05-18 18:24:03,034 [ 1] INFO  Unity: OnMapEntitySyncRequest::ID :11 POS:SkillBridge.Message.NVector3, DIR:SkillBridge.Message.NVector3,SPD:300
2021-05-18 18:24:03,605 [ 1] INFO  Unity: SetDirection:(-85, -53, 0)
2021-05-18 18:24:03,607 [ 1] INFO  Unity: OnMapEntitySyncRequest::ID :11 POS:SkillBridge.Message.NVector3, DIR:SkillBridge.Message.NVector3,SPD:300
2021-05-18 18:24:03,707 [ 1] INFO  Unity: SetDirection:(-94, -34, 0)
2021-05-18 18:24:03,709 [ 1] INFO  Unity: OnMapEntitySyncRequest::ID :11 POS:SkillBridge.Message.NVector3, DIR:SkillBridge.Message.NVector3,SPD:300
2021-05-18 18:24:03,799 [ 1] INFO  Unity: SetDirection:(-99, -14, 0)
2021-05-18 18:24:03,800 [ 1] INFO  Unity: OnMapEntitySyncRequest::ID :11 POS:SkillBridge.Message.NVector3, DIR:SkillBridge.Message.NVector3,SPD:300
2021-05-18 18:24:03,875 [ 1] INFO  Unity: SetDirection:(-100, 3, 0)
2021-05-18 18:24:03,878 [ 1] INFO  Unity: OnMapEntitySyncRequest::ID :11 POS:SkillBridge.Message.NVector3, DIR:SkillBridge.Message.NVector3,SPD:300
2021-05-18 18:24:04,347 [ 1] INFO  Unity: Stop
2021-05-18 18:24:04,349 [ 1] INFO  Unity: OnMapEntitySyncRequest::ID :11 POS:SkillBridge.Message.NVector3, DIR:SkillBridge.Message.NVector3,SPD:0
2021-05-18 18:24:04,461 [ 1] INFO  Unity: SetDirection:(-98, 21, 0)
2021-05-18 18:24:04,463 [ 1] INFO  Unity: OnMapEntitySyncRequest::ID :11 POS:SkillBridge.Message.NVector3, DIR:SkillBridge.Message.NVector3,SPD:0
2021-05-18 18:24:08,468 [ 1] INFO  Unity: SetDirection:(-100, 3, 0)
2021-05-18 18:24:08,470 [ 1] INFO  Unity: OnMapEntitySyncRequest::ID :11 POS:SkillBridge.Message.NVector3, DIR:SkillBridge.Message.NVector3,SPD:0
2021-05-18 18:24:08,575 [ 1] INFO  Unity: SetDirection:(-98, -17, 0)
2021-05-18 18:24:08,576 [ 1] INFO  Unity: OnMapEntitySyncRequest::ID :11 POS:SkillBridge.Message.NVector3, DIR:SkillBridge.Message.NVector3,SPD:0
2021-05-18 18:24:08,660 [ 1] INFO  Unity: SetDirection:(-94, -34, 0)
2021-05-18 18:24:08,661 [ 1] INFO  Unity: OnMapEntitySyncRequest::ID :11 POS:SkillBridge.Message.NVector3, DIR:SkillBridge.Message.NVector3,SPD:0
2021-05-18 18:24:08,696 [ 1] INFO  Unity: MoveForward
2021-05-18 18:24:08,698 [ 1] INFO  Unity: OnMapEntitySyncRequest::ID :11 POS:SkillBridge.Message.NVector3, DIR:SkillBridge.Message.NVector3,SPD:300
2021-05-18 18:24:08,852 [ 1] INFO  Unity: Stop
2021-05-18 18:24:08,854 [ 1] INFO  Unity: OnMapEntitySyncRequest::ID :11 POS:SkillBridge.Message.NVector3, DIR:SkillBridge.Message.NVector3,SPD:0
2021-05-18 18:24:10,641 [ 1] INFO  Unity: MoveForward
2021-05-18 18:24:10,643 [ 1] INFO  Unity: OnMapEntitySyncRequest::ID :11 POS:SkillBridge.Message.NVector3, DIR:SkillBridge.Message.NVector3,SPD:300
2021-05-18 18:24:11,440 [ 1] INFO  Unity: SetDirection:(-99, -14, 0)
2021-05-18 18:24:11,443 [ 1] INFO  Unity: OnMapEntitySyncRequest::ID :11 POS:SkillBridge.Message.NVector3, DIR:SkillBridge.Message.NVector3,SPD:300
2021-05-18 18:24:11,516 [ 1] INFO  Unity: SetDirection:(-100, 3, 0)
2021-05-18 18:24:11,518 [ 1] INFO  Unity: OnMapEntitySyncRequest::ID :11 POS:SkillBridge.Message.NVector3, DIR:SkillBridge.Message.NVector3,SPD:300
2021-05-18 18:24:11,541 [ 1] INFO  Unity: Stop
2021-05-18 18:24:11,542 [ 1] INFO  Unity: OnMapEntitySyncRequest::ID :11 POS:SkillBridge.Message.NVector3, DIR:SkillBridge.Message.NVector3,SPD:0
2021-05-18 18:24:11,590 [ 1] INFO  Unity: SetDirection:(-98, 21, 0)
2021-05-18 18:24:11,592 [ 1] INFO  Unity: OnMapEntitySyncRequest::ID :11 POS:SkillBridge.Message.NVector3, DIR:SkillBridge.Message.NVector3,SPD:0
2021-05-18 18:24:11,701 [ 1] INFO  Unity: SetDirection:(-91, 41, 0)
2021-05-18 18:24:11,702 [ 1] INFO  Unity: OnMapEntitySyncRequest::ID :11 POS:SkillBridge.Message.NVector3, DIR:SkillBridge.Message.NVector3,SPD:0
2021-05-18 18:24:11,787 [ 1] INFO  Unity: SetDirection:(-81, 59, 0)
2021-05-18 18:24:11,789 [ 1] INFO  Unity: OnMapEntitySyncRequest::ID :11 POS:SkillBridge.Message.NVector3, DIR:SkillBridge.Message.NVector3,SPD:0
2021-05-18 18:24:11,901 [ 1] INFO  Unity: SetDirection:(-67, 74, 0)
2021-05-18 18:24:11,903 [ 1] INFO  Unity: OnMapEntitySyncRequest::ID :11 POS:SkillBridge.Message.NVector3, DIR:SkillBridge.Message.NVector3,SPD:0
2021-05-18 18:24:11,986 [ 1] INFO  Unity: SetDirection:(-53, 85, 0)
2021-05-18 18:24:11,988 [ 1] INFO  Unity: OnMapEntitySyncRequest::ID :11 POS:SkillBridge.Message.NVector3, DIR:SkillBridge.Message.NVector3,SPD:0
2021-05-18 18:24:13,678 [ 1] INFO  Unity: MoveForward
2021-05-18 18:24:13,680 [ 1] INFO  Unity: OnMapEntitySyncRequest::ID :11 POS:SkillBridge.Message.NVector3, DIR:SkillBridge.Message.NVector3,SPD:300
2021-05-18 18:24:13,875 [ 1] INFO  Unity: SetPosition:(4088, 2995, 805)
2021-05-18 18:24:13,876 [ 1] INFO  Unity: OnMapEntitySyncRequest::ID :11 POS:SkillBridge.Message.NVector3, DIR:SkillBridge.Message.NVector3,SPD:300
2021-05-18 18:24:13,931 [ 1] INFO  Unity: Stop
2021-05-18 18:24:13,933 [ 1] INFO  Unity: OnMapEntitySyncRequest::ID :11 POS:SkillBridge.Message.NVector3, DIR:SkillBridge.Message.NVector3,SPD:0
2021-05-18 18:25:22,133 [ 1] INFO  Unity: OnDestroy NetworkManager.
2021-05-18 18:25:22,135 [ 1] WARN  Unity: CloseConnection(), errorCode: 1007
UnityEngine.Debug:LogWarning(Object)
Network.NetClient:CloseConnection(Int32) (at Assets/Scripts/Network/NetClient.cs:180)
Network.NetClient:OnDestroy() (at Assets/Scripts/Network/NetClient.cs:175)

2021-05-18 18:25:22,137 [ 1] INFO  Unity: Character_11_的来啦 OnDestroy :ID:11 POS:(4082, 3003, 805) DIR:(-53, 85, 0) SPD:0 
