2021-05-18 18:06:42,080 [ 1] INFO  Unity: LoadingManager start
2021-05-18 18:06:44,594 [ 1] INFO  Unity: DataManager > DataManager()
2021-05-18 18:06:51,535 [ 1] INFO  Unity: UserLoginRequest::user :123 psw:123
2021-05-18 18:06:51,537 [ 1] INFO  Unity: ConnectToServer() Start 
2021-05-18 18:06:51,539 [ 1] INFO  Unity: DoConnect
2021-05-18 18:06:51,541 [ 1] INFO  Unity: NetClient.DoConnect on 127.0.0.1:8000
2021-05-18 18:06:51,544 [ 1] INFO  Unity: Connect[0] to server 127.0.0.1:8000

2021-05-18 18:06:51,547 [ 1] INFO  Unity: LoadingMesager::OnGameServerConnect :0 reason:Success
2021-05-18 18:06:51,688 [ 1] INFO  Unity: OnUserLogin:Success [None]
2021-05-18 18:06:51,704 [ 1] INFO  Unity: LoadLevel: CharSelect
2021-05-18 18:06:52,396 [ 1] INFO  Unity: LevelLoadCompleted:1
2021-05-18 18:06:53,175 [ 1] INFO  Unity: Select Char:[3]的来啦[Archer]
2021-05-18 18:06:53,718 [ 1] INFO  Unity: UserGameEnterRequest::characterIdx :2
2021-05-18 18:06:53,750 [ 1] INFO  Unity: OnGameEnterSuccess [进入游戏成功]
2021-05-18 18:06:53,751 [ 1] INFO  Unity: OnMapCharacterEnter:Map:1 Count:1
2021-05-18 18:06:53,754 [ 1] INFO  Unity: AddCharacter:4:的来啦 Map:1 Entity:(4:pos:(5000,4000,820),dir:(100,0,0),spd:0
2021-05-18 18:06:53,757 [ 1] INFO  Unity: 布林镇
2021-05-18 18:06:53,759 [ 1] INFO  Unity: LoadLevel: MainCity
2021-05-18 18:06:54,993 [ 1] WARN  Unity: No mesh data available for mesh Sphere001 on particle system fx_portal. Make sure Read/Write Enabled is set in the importer to work on the particle system renderer

2021-05-18 18:06:54,994 [ 1] WARN  Unity: No mesh data available for mesh Sphere001 on particle system fx_portal. Make sure Read/Write Enabled is set in the importer to work on the particle system renderer

2021-05-18 18:06:55,213 [ 1] INFO  Unity: LevelLoadCompleted:1
2021-05-18 18:06:55,941 [ 1] INFO  Unity: MoveForward
2021-05-18 18:06:55,943 [ 1] INFO  Unity: OnMapEntitySyncRequest::ID :4 POS:SkillBridge.Message.NVector3, DIR:SkillBridge.Message.NVector3,SPD:300
2021-05-18 18:06:55,978 [ 1] INFO  Unity: SetDirection:(98, -21, 0)
2021-05-18 18:06:55,980 [ 1] INFO  Unity: OnMapEntitySyncRequest::ID :4 POS:SkillBridge.Message.NVector3, DIR:SkillBridge.Message.NVector3,SPD:300
2021-05-18 18:06:56,085 [ 1] INFO  Unity: SetDirection:(91, -41, 0)
2021-05-18 18:06:56,087 [ 1] INFO  Unity: OnMapEntitySyncRequest::ID :4 POS:SkillBridge.Message.NVector3, DIR:SkillBridge.Message.NVector3,SPD:300
2021-05-18 18:06:56,183 [ 1] INFO  Unity: SetDirection:(81, -59, 0)
2021-05-18 18:06:56,184 [ 1] INFO  Unity: OnMapEntitySyncRequest::ID :4 POS:SkillBridge.Message.NVector3, DIR:SkillBridge.Message.NVector3,SPD:300
2021-05-18 18:06:56,282 [ 1] INFO  Unity: SetDirection:(67, -74, 0)
2021-05-18 18:06:56,283 [ 1] INFO  Unity: OnMapEntitySyncRequest::ID :4 POS:SkillBridge.Message.NVector3, DIR:SkillBridge.Message.NVector3,SPD:300
2021-05-18 18:06:56,371 [ 1] INFO  Unity: SetDirection:(53, -85, 0)
2021-05-18 18:06:56,373 [ 1] INFO  Unity: OnMapEntitySyncRequest::ID :4 POS:SkillBridge.Message.NVector3, DIR:SkillBridge.Message.NVector3,SPD:300
2021-05-18 18:06:56,478 [ 1] INFO  Unity: SetDirection:(34, -94, 0)
2021-05-18 18:06:56,480 [ 1] INFO  Unity: OnMapEntitySyncRequest::ID :4 POS:SkillBridge.Message.NVector3, DIR:SkillBridge.Message.NVector3,SPD:300
2021-05-18 18:06:56,578 [ 1] INFO  Unity: SetDirection:(14, -99, 0)
2021-05-18 18:06:56,580 [ 1] INFO  Unity: OnMapEntitySyncRequest::ID :4 POS:SkillBridge.Message.NVector3, DIR:SkillBridge.Message.NVector3,SPD:300
2021-05-18 18:06:56,658 [ 1] INFO  Unity: SetDirection:(-3, -100, 0)
2021-05-18 18:06:56,660 [ 1] INFO  Unity: OnMapEntitySyncRequest::ID :4 POS:SkillBridge.Message.NVector3, DIR:SkillBridge.Message.NVector3,SPD:300
2021-05-18 18:06:56,742 [ 1] INFO  Unity: SetDirection:(-21, -98, 0)
2021-05-18 18:06:56,743 [ 1] INFO  Unity: OnMapEntitySyncRequest::ID :4 POS:SkillBridge.Message.NVector3, DIR:SkillBridge.Message.NVector3,SPD:300
2021-05-18 18:06:56,843 [ 1] INFO  Unity: SetDirection:(-41, -91, 0)
2021-05-18 18:06:56,845 [ 1] INFO  Unity: OnMapEntitySyncRequest::ID :4 POS:SkillBridge.Message.NVector3, DIR:SkillBridge.Message.NVector3,SPD:300
2021-05-18 18:06:56,949 [ 1] INFO  Unity: SetDirection:(-59, -81, 0)
2021-05-18 18:06:56,951 [ 1] INFO  Unity: OnMapEntitySyncRequest::ID :4 POS:SkillBridge.Message.NVector3, DIR:SkillBridge.Message.NVector3,SPD:300
2021-05-18 18:06:58,591 [ 1] INFO  Unity: SetDirection:(-74, -67, 0)
2021-05-18 18:06:58,593 [ 1] INFO  Unity: OnMapEntitySyncRequest::ID :4 POS:SkillBridge.Message.NVector3, DIR:SkillBridge.Message.NVector3,SPD:300
2021-05-18 18:06:58,676 [ 1] INFO  Unity: SetDirection:(-85, -53, 0)
2021-05-18 18:06:58,678 [ 1] INFO  Unity: OnMapEntitySyncRequest::ID :4 POS:SkillBridge.Message.NVector3, DIR:SkillBridge.Message.NVector3,SPD:300
2021-05-18 18:07:00,712 [ 1] INFO  Unity: SetPosition:(4298, 3042, 805)
2021-05-18 18:07:00,714 [ 1] INFO  Unity: OnMapEntitySyncRequest::ID :4 POS:SkillBridge.Message.NVector3, DIR:SkillBridge.Message.NVector3,SPD:300
2021-05-18 18:07:00,857 [ 1] INFO  Unity: SetDirection:(-94, -34, 0)
2021-05-18 18:07:00,859 [ 1] INFO  Unity: OnMapEntitySyncRequest::ID :4 POS:SkillBridge.Message.NVector3, DIR:SkillBridge.Message.NVector3,SPD:300
2021-05-18 18:07:00,941 [ 1] INFO  Unity: SetDirection:(-99, -14, 0)
2021-05-18 18:07:00,943 [ 1] INFO  Unity: OnMapEntitySyncRequest::ID :4 POS:SkillBridge.Message.NVector3, DIR:SkillBridge.Message.NVector3,SPD:300
2021-05-18 18:07:01,021 [ 1] INFO  Unity: SetDirection:(-100, 3, 0)
2021-05-18 18:07:01,023 [ 1] INFO  Unity: OnMapEntitySyncRequest::ID :4 POS:SkillBridge.Message.NVector3, DIR:SkillBridge.Message.NVector3,SPD:300
2021-05-18 18:07:01,121 [ 1] INFO  Unity: Stop
2021-05-18 18:07:01,123 [ 1] INFO  Unity: OnMapEntitySyncRequest::ID :4 POS:SkillBridge.Message.NVector3, DIR:SkillBridge.Message.NVector3,SPD:0
2021-05-18 18:07:01,123 [ 1] INFO  Unity: SetDirection:(-98, 21, 0)
2021-05-18 18:07:01,124 [ 1] INFO  Unity: OnMapEntitySyncRequest::ID :4 POS:SkillBridge.Message.NVector3, DIR:SkillBridge.Message.NVector3,SPD:0
2021-05-18 18:07:01,217 [ 1] INFO  Unity: SetDirection:(-91, 41, 0)
2021-05-18 18:07:01,219 [ 1] INFO  Unity: OnMapEntitySyncRequest::ID :4 POS:SkillBridge.Message.NVector3, DIR:SkillBridge.Message.NVector3,SPD:0
2021-05-18 18:07:02,308 [ 1] INFO  Unity: MoveBack
2021-05-18 18:07:02,310 [ 1] INFO  Unity: OnMapEntitySyncRequest::ID :4 POS:SkillBridge.Message.NVector3, DIR:SkillBridge.Message.NVector3,SPD:-300
2021-05-18 18:07:02,528 [ 1] INFO  Unity: Stop
2021-05-18 18:07:02,529 [ 1] INFO  Unity: OnMapEntitySyncRequest::ID :4 POS:SkillBridge.Message.NVector3, DIR:SkillBridge.Message.NVector3,SPD:0
2021-05-18 18:07:24,855 [ 1] INFO  Unity: OnDestroy NetworkManager.
2021-05-18 18:07:24,857 [ 1] WARN  Unity: CloseConnection(), errorCode: 1007
UnityEngine.Debug:LogWarning(Object)
Network.NetClient:CloseConnection(Int32) (at Assets/Scripts/Network/NetClient.cs:180)
Network.NetClient:OnDestroy() (at Assets/Scripts/Network/NetClient.cs:175)

2021-05-18 18:07:24,860 [ 1] INFO  Unity: Character_4_的来啦 OnDestroy :ID:4 POS:(4260, 2976, 805) DIR:(-91, 41, 0) SPD:0 
