2021-05-18 18:18:10,307 [ 1] INFO  Unity: LoadingManager start
2021-05-18 18:18:12,630 [ 1] INFO  Unity: DataManager > DataManager()
2021-05-18 18:18:24,178 [ 1] INFO  Unity: UserLoginRequest::user :123 psw:123
2021-05-18 18:18:24,186 [ 1] INFO  Unity: ConnectToServer() Start 
2021-05-18 18:18:24,188 [ 1] INFO  Unity: DoConnect
2021-05-18 18:18:24,191 [ 1] INFO  Unity: NetClient.DoConnect on 127.0.0.1:8000
2021-05-18 18:18:24,194 [ 1] INFO  Unity: Connect[0] to server 127.0.0.1:8000

2021-05-18 18:18:24,202 [ 1] INFO  Unity: LoadingMesager::OnGameServerConnect :0 reason:Success
2021-05-18 18:18:24,534 [ 1] INFO  Unity: OnUserLogin:Success [None]
2021-05-18 18:18:24,551 [ 1] INFO  Unity: LoadLevel: CharSelect
2021-05-18 18:18:25,385 [ 1] INFO  Unity: LevelLoadCompleted:1
2021-05-18 18:18:26,134 [ 1] INFO  Unity: Select Char:[3]的来啦[Archer]
2021-05-18 18:18:26,886 [ 1] INFO  Unity: UserGameEnterRequest::characterIdx :2
2021-05-18 18:18:26,928 [ 1] INFO  Unity: OnGameEnterSuccess [进入游戏成功]
2021-05-18 18:18:26,929 [ 1] INFO  Unity: OnMapCharacterEnter:Map:1 Count:1
2021-05-18 18:18:26,936 [ 1] INFO  Unity: AddCharacter:9:的来啦 Map:1 Entity:(9:pos:(5000,4000,820),dir:(100,0,0),spd:0
2021-05-18 18:18:26,945 [ 1] INFO  Unity: 布林镇
2021-05-18 18:18:26,946 [ 1] INFO  Unity: LoadLevel: MainCity
2021-05-18 18:18:28,333 [ 1] WARN  Unity: No mesh data available for mesh Sphere001 on particle system fx_portal. Make sure Read/Write Enabled is set in the importer to work on the particle system renderer

2021-05-18 18:18:28,360 [ 1] WARN  Unity: No mesh data available for mesh Sphere001 on particle system fx_portal. Make sure Read/Write Enabled is set in the importer to work on the particle system renderer

2021-05-18 18:18:28,620 [ 1] INFO  Unity: LevelLoadCompleted:1
2021-05-18 18:18:49,367 [ 1] INFO  Unity: MoveForward
2021-05-18 18:18:49,372 [ 1] INFO  Unity: OnMapEntitySyncRequest::ID :9 POS:SkillBridge.Message.NVector3, DIR:SkillBridge.Message.NVector3,SPD:300
2021-05-18 18:18:49,410 [ 1] INFO  Unity: SetDirection:(98, -21, 0)
2021-05-18 18:18:49,411 [ 1] INFO  Unity: OnMapEntitySyncRequest::ID :9 POS:SkillBridge.Message.NVector3, DIR:SkillBridge.Message.NVector3,SPD:300
2021-05-18 18:18:49,486 [ 1] INFO  Unity: SetDirection:(91, -41, 0)
2021-05-18 18:18:49,487 [ 1] INFO  Unity: OnMapEntitySyncRequest::ID :9 POS:SkillBridge.Message.NVector3, DIR:SkillBridge.Message.NVector3,SPD:300
2021-05-18 18:18:49,592 [ 1] INFO  Unity: SetDirection:(81, -59, 0)
2021-05-18 18:18:49,594 [ 1] INFO  Unity: OnMapEntitySyncRequest::ID :9 POS:SkillBridge.Message.NVector3, DIR:SkillBridge.Message.NVector3,SPD:300
2021-05-18 18:18:49,674 [ 1] INFO  Unity: SetDirection:(67, -74, 0)
2021-05-18 18:18:49,676 [ 1] INFO  Unity: OnMapEntitySyncRequest::ID :9 POS:SkillBridge.Message.NVector3, DIR:SkillBridge.Message.NVector3,SPD:300
2021-05-18 18:18:49,759 [ 1] INFO  Unity: SetDirection:(53, -85, 0)
2021-05-18 18:18:49,761 [ 1] INFO  Unity: OnMapEntitySyncRequest::ID :9 POS:SkillBridge.Message.NVector3, DIR:SkillBridge.Message.NVector3,SPD:300
2021-05-18 18:18:49,863 [ 1] INFO  Unity: SetDirection:(34, -94, 0)
2021-05-18 18:18:49,864 [ 1] INFO  Unity: OnMapEntitySyncRequest::ID :9 POS:SkillBridge.Message.NVector3, DIR:SkillBridge.Message.NVector3,SPD:300
2021-05-18 18:18:49,984 [ 1] INFO  Unity: SetDirection:(14, -99, 0)
2021-05-18 18:18:49,985 [ 1] INFO  Unity: OnMapEntitySyncRequest::ID :9 POS:SkillBridge.Message.NVector3, DIR:SkillBridge.Message.NVector3,SPD:300
2021-05-18 18:18:50,069 [ 1] INFO  Unity: SetDirection:(-3, -100, 0)
2021-05-18 18:18:50,071 [ 1] INFO  Unity: OnMapEntitySyncRequest::ID :9 POS:SkillBridge.Message.NVector3, DIR:SkillBridge.Message.NVector3,SPD:300
2021-05-18 18:18:50,125 [ 1] INFO  Unity: SetDirection:(-21, -98, 0)
2021-05-18 18:18:50,127 [ 1] INFO  Unity: OnMapEntitySyncRequest::ID :9 POS:SkillBridge.Message.NVector3, DIR:SkillBridge.Message.NVector3,SPD:300
2021-05-18 18:18:50,232 [ 1] INFO  Unity: SetDirection:(-41, -91, 0)
2021-05-18 18:18:50,234 [ 1] INFO  Unity: OnMapEntitySyncRequest::ID :9 POS:SkillBridge.Message.NVector3, DIR:SkillBridge.Message.NVector3,SPD:300
2021-05-18 18:18:50,327 [ 1] INFO  Unity: SetDirection:(-59, -81, 0)
2021-05-18 18:18:50,328 [ 1] INFO  Unity: OnMapEntitySyncRequest::ID :9 POS:SkillBridge.Message.NVector3, DIR:SkillBridge.Message.NVector3,SPD:300
2021-05-18 18:18:50,669 [ 1] INFO  Unity: SetDirection:(-74, -67, 0)
2021-05-18 18:18:50,670 [ 1] INFO  Unity: OnMapEntitySyncRequest::ID :9 POS:SkillBridge.Message.NVector3, DIR:SkillBridge.Message.NVector3,SPD:300
2021-05-18 18:18:50,744 [ 1] INFO  Unity: SetDirection:(-85, -53, 0)
2021-05-18 18:18:50,746 [ 1] INFO  Unity: OnMapEntitySyncRequest::ID :9 POS:SkillBridge.Message.NVector3, DIR:SkillBridge.Message.NVector3,SPD:300
2021-05-18 18:18:50,796 [ 1] INFO  Unity: Stop
2021-05-18 18:18:50,798 [ 1] INFO  Unity: OnMapEntitySyncRequest::ID :9 POS:SkillBridge.Message.NVector3, DIR:SkillBridge.Message.NVector3,SPD:0
2021-05-18 18:18:50,857 [ 1] INFO  Unity: SetDirection:(-94, -34, 0)
2021-05-18 18:18:50,858 [ 1] INFO  Unity: OnMapEntitySyncRequest::ID :9 POS:SkillBridge.Message.NVector3, DIR:SkillBridge.Message.NVector3,SPD:0
2021-05-18 18:18:50,942 [ 1] INFO  Unity: SetDirection:(-99, -14, 0)
2021-05-18 18:18:50,944 [ 1] INFO  Unity: OnMapEntitySyncRequest::ID :9 POS:SkillBridge.Message.NVector3, DIR:SkillBridge.Message.NVector3,SPD:0
2021-05-18 18:18:51,020 [ 1] INFO  Unity: MoveForward
2021-05-18 18:18:51,022 [ 1] INFO  Unity: OnMapEntitySyncRequest::ID :9 POS:SkillBridge.Message.NVector3, DIR:SkillBridge.Message.NVector3,SPD:300
2021-05-18 18:18:51,050 [ 1] INFO  Unity: SetDirection:(-100, 3, 0)
2021-05-18 18:18:51,051 [ 1] INFO  Unity: OnMapEntitySyncRequest::ID :9 POS:SkillBridge.Message.NVector3, DIR:SkillBridge.Message.NVector3,SPD:300
2021-05-18 18:18:51,119 [ 1] INFO  Unity: SetDirection:(-98, 21, 0)
2021-05-18 18:18:51,120 [ 1] INFO  Unity: OnMapEntitySyncRequest::ID :9 POS:SkillBridge.Message.NVector3, DIR:SkillBridge.Message.NVector3,SPD:300
2021-05-18 18:18:51,229 [ 1] INFO  Unity: SetDirection:(-91, 41, 0)
2021-05-18 18:18:51,231 [ 1] INFO  Unity: OnMapEntitySyncRequest::ID :9 POS:SkillBridge.Message.NVector3, DIR:SkillBridge.Message.NVector3,SPD:300
2021-05-18 18:18:51,315 [ 1] INFO  Unity: SetDirection:(-81, 59, 0)
2021-05-18 18:18:51,316 [ 1] INFO  Unity: OnMapEntitySyncRequest::ID :9 POS:SkillBridge.Message.NVector3, DIR:SkillBridge.Message.NVector3,SPD:300
2021-05-18 18:18:51,422 [ 1] INFO  Unity: SetDirection:(-67, 74, 0)
2021-05-18 18:18:51,424 [ 1] INFO  Unity: OnMapEntitySyncRequest::ID :9 POS:SkillBridge.Message.NVector3, DIR:SkillBridge.Message.NVector3,SPD:300
2021-05-18 18:18:51,783 [ 1] INFO  Unity: SetDirection:(-53, 85, 0)
2021-05-18 18:18:51,785 [ 1] INFO  Unity: OnMapEntitySyncRequest::ID :9 POS:SkillBridge.Message.NVector3, DIR:SkillBridge.Message.NVector3,SPD:300
2021-05-18 18:18:51,881 [ 1] INFO  Unity: SetDirection:(-34, 94, 0)
2021-05-18 18:18:51,882 [ 1] INFO  Unity: OnMapEntitySyncRequest::ID :9 POS:SkillBridge.Message.NVector3, DIR:SkillBridge.Message.NVector3,SPD:300
2021-05-18 18:18:52,292 [ 1] INFO  Unity: SetDirection:(-14, 99, 0)
2021-05-18 18:18:52,294 [ 1] INFO  Unity: OnMapEntitySyncRequest::ID :9 POS:SkillBridge.Message.NVector3, DIR:SkillBridge.Message.NVector3,SPD:300
2021-05-18 18:18:54,596 [ 1] INFO  Unity: SetPosition:(4685, 4622, 805)
2021-05-18 18:18:54,597 [ 1] INFO  Unity: OnMapEntitySyncRequest::ID :9 POS:SkillBridge.Message.NVector3, DIR:SkillBridge.Message.NVector3,SPD:300
2021-05-18 18:18:54,950 [ 1] INFO  Unity: SetDirection:(-34, 94, 0)
2021-05-18 18:18:54,952 [ 1] INFO  Unity: OnMapEntitySyncRequest::ID :9 POS:SkillBridge.Message.NVector3, DIR:SkillBridge.Message.NVector3,SPD:300
2021-05-18 18:18:55,028 [ 1] INFO  Unity: SetDirection:(-50, 87, 0)
2021-05-18 18:18:55,029 [ 1] INFO  Unity: OnMapEntitySyncRequest::ID :9 POS:SkillBridge.Message.NVector3, DIR:SkillBridge.Message.NVector3,SPD:300
2021-05-18 18:18:55,108 [ 1] INFO  Unity: SetDirection:(-64, 77, 0)
2021-05-18 18:18:55,109 [ 1] INFO  Unity: OnMapEntitySyncRequest::ID :9 POS:SkillBridge.Message.NVector3, DIR:SkillBridge.Message.NVector3,SPD:300
2021-05-18 18:18:55,825 [ 1] INFO  Unity: SetDirection:(-77, 64, 0)
2021-05-18 18:18:55,826 [ 1] INFO  Unity: OnMapEntitySyncRequest::ID :9 POS:SkillBridge.Message.NVector3, DIR:SkillBridge.Message.NVector3,SPD:300
2021-05-18 18:18:55,923 [ 1] INFO  Unity: SetDirection:(-88, 47, 0)
2021-05-18 18:18:55,925 [ 1] INFO  Unity: OnMapEntitySyncRequest::ID :9 POS:SkillBridge.Message.NVector3, DIR:SkillBridge.Message.NVector3,SPD:300
2021-05-18 18:18:55,988 [ 1] INFO  Unity: SetDirection:(-95, 31, 0)
2021-05-18 18:18:55,990 [ 1] INFO  Unity: OnMapEntitySyncRequest::ID :9 POS:SkillBridge.Message.NVector3, DIR:SkillBridge.Message.NVector3,SPD:300
2021-05-18 18:18:56,071 [ 1] INFO  Unity: SetDirection:(-99, 14, 0)
2021-05-18 18:18:56,073 [ 1] INFO  Unity: OnMapEntitySyncRequest::ID :9 POS:SkillBridge.Message.NVector3, DIR:SkillBridge.Message.NVector3,SPD:300
2021-05-18 18:18:56,162 [ 1] INFO  Unity: SetDirection:(-100, -3, 0)
2021-05-18 18:18:56,164 [ 1] INFO  Unity: OnMapEntitySyncRequest::ID :9 POS:SkillBridge.Message.NVector3, DIR:SkillBridge.Message.NVector3,SPD:300
2021-05-18 18:18:56,305 [ 1] INFO  Unity: Stop
2021-05-18 18:18:56,307 [ 1] INFO  Unity: OnMapEntitySyncRequest::ID :9 POS:SkillBridge.Message.NVector3, DIR:SkillBridge.Message.NVector3,SPD:0
2021-05-18 18:21:29,513 [ 1] INFO  Unity: OnDestroy NetworkManager.
2021-05-18 18:21:29,516 [ 1] WARN  Unity: CloseConnection(), errorCode: 1007
UnityEngine.Debug:LogWarning(Object)
Network.NetClient:CloseConnection(Int32) (at Assets/Scripts/Network/NetClient.cs:180)
Network.NetClient:OnDestroy() (at Assets/Scripts/Network/NetClient.cs:175)

2021-05-18 18:21:29,521 [ 1] INFO  Unity: Character_9_的来啦 OnDestroy :ID:9 POS:(4380, 4978, 805) DIR:(-100, -3, 0) SPD:0 
