2021-05-18 18:26:13,127 [ 1] INFO  Unity: LoadingManager start
2021-05-18 18:26:15,798 [ 1] INFO  Unity: DataManager > DataManager()
2021-05-18 18:26:22,343 [ 1] INFO  Unity: UserLoginRequest::user :123 psw:123
2021-05-18 18:26:22,345 [ 1] INFO  Unity: ConnectToServer() Start 
2021-05-18 18:26:22,347 [ 1] INFO  Unity: DoConnect
2021-05-18 18:26:22,349 [ 1] INFO  Unity: NetClient.DoConnect on 127.0.0.1:8000
2021-05-18 18:26:22,352 [ 1] INFO  Unity: Connect[0] to server 127.0.0.1:8000

2021-05-18 18:26:22,356 [ 1] INFO  Unity: LoadingMesager::OnGameServerConnect :0 reason:Success
2021-05-18 18:26:22,501 [ 1] INFO  Unity: OnUserLogin:Success [None]
2021-05-18 18:26:22,508 [ 1] INFO  Unity: LoadLevel: CharSelect
2021-05-18 18:26:23,159 [ 1] INFO  Unity: LevelLoadCompleted:1
2021-05-18 18:26:23,889 [ 1] INFO  Unity: Select Char:[3]的来啦[Archer]
2021-05-18 18:26:24,364 [ 1] INFO  Unity: UserGameEnterRequest::characterIdx :2
2021-05-18 18:26:24,398 [ 1] INFO  Unity: OnGameEnterSuccess [进入游戏成功]
2021-05-18 18:26:24,399 [ 1] INFO  Unity: OnMapCharacterEnter:Map:1 Count:1
2021-05-18 18:26:24,402 [ 1] INFO  Unity: AddCharacter:12:的来啦 Map:1 Entity:(12:pos:(5000,4000,820),dir:(100,0,0),spd:0
2021-05-18 18:26:24,406 [ 1] INFO  Unity: 布林镇
2021-05-18 18:26:24,407 [ 1] INFO  Unity: LoadLevel: MainCity
2021-05-18 18:26:25,596 [ 1] WARN  Unity: No mesh data available for mesh Sphere001 on particle system fx_portal. Make sure Read/Write Enabled is set in the importer to work on the particle system renderer

2021-05-18 18:26:25,653 [ 1] WARN  Unity: No mesh data available for mesh Sphere001 on particle system fx_portal. Make sure Read/Write Enabled is set in the importer to work on the particle system renderer

2021-05-18 18:26:25,855 [ 1] INFO  Unity: LevelLoadCompleted:1
2021-05-18 18:26:26,468 [ 1] INFO  Unity: MoveForward
2021-05-18 18:26:26,470 [ 1] INFO  Unity: OnMapEntitySyncRequest::ID :12 POS:SkillBridge.Message.NVector3, DIR:SkillBridge.Message.NVector3,SPD:300
2021-05-18 18:26:26,500 [ 1] INFO  Unity: SetDirection:(98, -21, 0)
2021-05-18 18:26:26,502 [ 1] INFO  Unity: OnMapEntitySyncRequest::ID :12 POS:SkillBridge.Message.NVector3, DIR:SkillBridge.Message.NVector3,SPD:300
2021-05-18 18:26:26,600 [ 1] INFO  Unity: SetDirection:(91, -41, 0)
2021-05-18 18:26:26,601 [ 1] INFO  Unity: OnMapEntitySyncRequest::ID :12 POS:SkillBridge.Message.NVector3, DIR:SkillBridge.Message.NVector3,SPD:300
2021-05-18 18:26:26,770 [ 1] INFO  Unity: SetDirection:(81, -59, 0)
2021-05-18 18:26:26,772 [ 1] INFO  Unity: OnMapEntitySyncRequest::ID :12 POS:SkillBridge.Message.NVector3, DIR:SkillBridge.Message.NVector3,SPD:300
2021-05-18 18:26:26,881 [ 1] INFO  Unity: SetDirection:(67, -74, 0)
2021-05-18 18:26:26,883 [ 1] INFO  Unity: OnMapEntitySyncRequest::ID :12 POS:SkillBridge.Message.NVector3, DIR:SkillBridge.Message.NVector3,SPD:300
2021-05-18 18:26:26,915 [ 1] INFO  Unity: Stop
2021-05-18 18:26:26,917 [ 1] INFO  Unity: OnMapEntitySyncRequest::ID :12 POS:SkillBridge.Message.NVector3, DIR:SkillBridge.Message.NVector3,SPD:0
2021-05-18 18:26:26,973 [ 1] INFO  Unity: SetDirection:(53, -85, 0)
2021-05-18 18:26:26,974 [ 1] INFO  Unity: OnMapEntitySyncRequest::ID :12 POS:SkillBridge.Message.NVector3, DIR:SkillBridge.Message.NVector3,SPD:0
2021-05-18 18:26:27,059 [ 1] INFO  Unity: SetDirection:(34, -94, 0)
2021-05-18 18:26:27,060 [ 1] INFO  Unity: OnMapEntitySyncRequest::ID :12 POS:SkillBridge.Message.NVector3, DIR:SkillBridge.Message.NVector3,SPD:0
2021-05-18 18:26:27,114 [ 1] INFO  Unity: MoveForward
2021-05-18 18:26:27,116 [ 1] INFO  Unity: OnMapEntitySyncRequest::ID :12 POS:SkillBridge.Message.NVector3, DIR:SkillBridge.Message.NVector3,SPD:300
2021-05-18 18:26:27,168 [ 1] INFO  Unity: SetDirection:(14, -99, 0)
2021-05-18 18:26:27,169 [ 1] INFO  Unity: OnMapEntitySyncRequest::ID :12 POS:SkillBridge.Message.NVector3, DIR:SkillBridge.Message.NVector3,SPD:300
2021-05-18 18:26:27,242 [ 1] INFO  Unity: SetDirection:(-3, -100, 0)
2021-05-18 18:26:27,243 [ 1] INFO  Unity: OnMapEntitySyncRequest::ID :12 POS:SkillBridge.Message.NVector3, DIR:SkillBridge.Message.NVector3,SPD:300
2021-05-18 18:26:27,315 [ 1] INFO  Unity: SetDirection:(-21, -98, 0)
2021-05-18 18:26:27,316 [ 1] INFO  Unity: OnMapEntitySyncRequest::ID :12 POS:SkillBridge.Message.NVector3, DIR:SkillBridge.Message.NVector3,SPD:300
2021-05-18 18:26:27,435 [ 1] INFO  Unity: SetDirection:(-41, -91, 0)
2021-05-18 18:26:27,436 [ 1] INFO  Unity: OnMapEntitySyncRequest::ID :12 POS:SkillBridge.Message.NVector3, DIR:SkillBridge.Message.NVector3,SPD:300
2021-05-18 18:26:27,531 [ 1] INFO  Unity: SetDirection:(-59, -81, 0)
2021-05-18 18:26:27,532 [ 1] INFO  Unity: OnMapEntitySyncRequest::ID :12 POS:SkillBridge.Message.NVector3, DIR:SkillBridge.Message.NVector3,SPD:300
2021-05-18 18:26:27,620 [ 1] INFO  Unity: SetDirection:(-74, -67, 0)
2021-05-18 18:26:27,621 [ 1] INFO  Unity: OnMapEntitySyncRequest::ID :12 POS:SkillBridge.Message.NVector3, DIR:SkillBridge.Message.NVector3,SPD:300
2021-05-18 18:26:29,532 [ 1] INFO  Unity: SetPosition:(4673, 3419, 805)
2021-05-18 18:26:29,534 [ 1] INFO  Unity: OnMapEntitySyncRequest::ID :12 POS:SkillBridge.Message.NVector3, DIR:SkillBridge.Message.NVector3,SPD:300
2021-05-18 18:26:29,961 [ 1] INFO  Unity: SetDirection:(-59, -81, 0)
2021-05-18 18:26:29,963 [ 1] INFO  Unity: OnMapEntitySyncRequest::ID :12 POS:SkillBridge.Message.NVector3, DIR:SkillBridge.Message.NVector3,SPD:300
2021-05-18 18:26:30,054 [ 1] INFO  Unity: SetDirection:(-44, -90, 0)
2021-05-18 18:26:30,056 [ 1] INFO  Unity: OnMapEntitySyncRequest::ID :12 POS:SkillBridge.Message.NVector3, DIR:SkillBridge.Message.NVector3,SPD:300
2021-05-18 18:26:30,857 [ 1] INFO  Unity: SetDirection:(-62, -79, 0)
2021-05-18 18:26:30,859 [ 1] INFO  Unity: OnMapEntitySyncRequest::ID :12 POS:SkillBridge.Message.NVector3, DIR:SkillBridge.Message.NVector3,SPD:300
2021-05-18 18:26:30,961 [ 1] INFO  Unity: SetDirection:(-77, -64, 0)
2021-05-18 18:26:30,963 [ 1] INFO  Unity: OnMapEntitySyncRequest::ID :12 POS:SkillBridge.Message.NVector3, DIR:SkillBridge.Message.NVector3,SPD:300
2021-05-18 18:26:31,065 [ 1] INFO  Unity: SetDirection:(-88, -47, 0)
2021-05-18 18:26:31,067 [ 1] INFO  Unity: OnMapEntitySyncRequest::ID :12 POS:SkillBridge.Message.NVector3, DIR:SkillBridge.Message.NVector3,SPD:300
2021-05-18 18:26:31,149 [ 1] INFO  Unity: SetDirection:(-95, -31, 0)
2021-05-18 18:26:31,151 [ 1] INFO  Unity: OnMapEntitySyncRequest::ID :12 POS:SkillBridge.Message.NVector3, DIR:SkillBridge.Message.NVector3,SPD:300
2021-05-18 18:26:31,224 [ 1] INFO  Unity: SetDirection:(-99, -14, 0)
2021-05-18 18:26:31,226 [ 1] INFO  Unity: OnMapEntitySyncRequest::ID :12 POS:SkillBridge.Message.NVector3, DIR:SkillBridge.Message.NVector3,SPD:300
2021-05-18 18:26:31,309 [ 1] INFO  Unity: SetDirection:(-100, 3, 0)
2021-05-18 18:26:31,311 [ 1] INFO  Unity: OnMapEntitySyncRequest::ID :12 POS:SkillBridge.Message.NVector3, DIR:SkillBridge.Message.NVector3,SPD:300
2021-05-18 18:26:31,808 [ 1] INFO  Unity: Stop
2021-05-18 18:26:31,810 [ 1] INFO  Unity: OnMapEntitySyncRequest::ID :12 POS:SkillBridge.Message.NVector3, DIR:SkillBridge.Message.NVector3,SPD:0
2021-05-18 18:26:32,292 [ 1] INFO  Unity: SetDirection:(-98, 21, 0)
2021-05-18 18:26:32,293 [ 1] INFO  Unity: OnMapEntitySyncRequest::ID :12 POS:SkillBridge.Message.NVector3, DIR:SkillBridge.Message.NVector3,SPD:0
2021-05-18 18:26:32,397 [ 1] INFO  Unity: SetDirection:(-91, 41, 0)
2021-05-18 18:26:32,399 [ 1] INFO  Unity: OnMapEntitySyncRequest::ID :12 POS:SkillBridge.Message.NVector3, DIR:SkillBridge.Message.NVector3,SPD:0
2021-05-18 18:26:33,406 [ 1] INFO  Unity: SetDirection:(-81, 59, 0)
2021-05-18 18:26:33,407 [ 1] INFO  Unity: OnMapEntitySyncRequest::ID :12 POS:SkillBridge.Message.NVector3, DIR:SkillBridge.Message.NVector3,SPD:0
2021-05-18 18:26:43,478 [ 1] INFO  Unity: SetDirection:(-90, 44, 0)
2021-05-18 18:26:43,479 [ 1] INFO  Unity: OnMapEntitySyncRequest::ID :12 POS:SkillBridge.Message.NVector3, DIR:SkillBridge.Message.NVector3,SPD:0
2021-05-18 18:26:43,548 [ 1] INFO  Unity: SetDirection:(-96, 28, 0)
2021-05-18 18:26:43,549 [ 1] INFO  Unity: OnMapEntitySyncRequest::ID :12 POS:SkillBridge.Message.NVector3, DIR:SkillBridge.Message.NVector3,SPD:0
2021-05-18 18:26:43,638 [ 1] INFO  Unity: SetDirection:(-99, 10, 0)
2021-05-18 18:26:43,640 [ 1] INFO  Unity: OnMapEntitySyncRequest::ID :12 POS:SkillBridge.Message.NVector3, DIR:SkillBridge.Message.NVector3,SPD:0
2021-05-18 18:26:43,733 [ 1] INFO  Unity: SetDirection:(-99, -10, 0)
2021-05-18 18:26:43,735 [ 1] INFO  Unity: OnMapEntitySyncRequest::ID :12 POS:SkillBridge.Message.NVector3, DIR:SkillBridge.Message.NVector3,SPD:0
2021-05-18 18:26:43,786 [ 1] INFO  Unity: MoveForward
2021-05-18 18:26:43,787 [ 1] INFO  Unity: OnMapEntitySyncRequest::ID :12 POS:SkillBridge.Message.NVector3, DIR:SkillBridge.Message.NVector3,SPD:300
2021-05-18 18:26:43,836 [ 1] INFO  Unity: SetDirection:(-96, -28, 0)
2021-05-18 18:26:43,837 [ 1] INFO  Unity: OnMapEntitySyncRequest::ID :12 POS:SkillBridge.Message.NVector3, DIR:SkillBridge.Message.NVector3,SPD:300
2021-05-18 18:26:43,918 [ 1] INFO  Unity: SetDirection:(-88, -47, 0)
2021-05-18 18:26:43,919 [ 1] INFO  Unity: OnMapEntitySyncRequest::ID :12 POS:SkillBridge.Message.NVector3, DIR:SkillBridge.Message.NVector3,SPD:300
2021-05-18 18:26:44,028 [ 1] INFO  Unity: SetDirection:(-77, -64, 0)
2021-05-18 18:26:44,029 [ 1] INFO  Unity: OnMapEntitySyncRequest::ID :12 POS:SkillBridge.Message.NVector3, DIR:SkillBridge.Message.NVector3,SPD:300
2021-05-18 18:26:44,230 [ 1] INFO  Unity: Stop
2021-05-18 18:26:44,231 [ 1] INFO  Unity: OnMapEntitySyncRequest::ID :12 POS:SkillBridge.Message.NVector3, DIR:SkillBridge.Message.NVector3,SPD:0
2021-05-18 18:26:44,286 [ 1] INFO  Unity: SetDirection:(-88, -47, 0)
2021-05-18 18:26:44,288 [ 1] INFO  Unity: OnMapEntitySyncRequest::ID :12 POS:SkillBridge.Message.NVector3, DIR:SkillBridge.Message.NVector3,SPD:0
2021-05-18 18:26:44,371 [ 1] INFO  Unity: SetDirection:(-95, -31, 0)
2021-05-18 18:26:44,372 [ 1] INFO  Unity: OnMapEntitySyncRequest::ID :12 POS:SkillBridge.Message.NVector3, DIR:SkillBridge.Message.NVector3,SPD:0
2021-05-18 18:26:44,433 [ 1] INFO  Unity: SetDirection:(-99, -14, 0)
2021-05-18 18:26:44,435 [ 1] INFO  Unity: OnMapEntitySyncRequest::ID :12 POS:SkillBridge.Message.NVector3, DIR:SkillBridge.Message.NVector3,SPD:0
2021-05-18 18:26:44,533 [ 1] INFO  Unity: SetDirection:(-100, 3, 0)
2021-05-18 18:26:44,535 [ 1] INFO  Unity: OnMapEntitySyncRequest::ID :12 POS:SkillBridge.Message.NVector3, DIR:SkillBridge.Message.NVector3,SPD:0
2021-05-18 18:26:44,609 [ 1] INFO  Unity: SetDirection:(-98, 21, 0)
2021-05-18 18:26:44,611 [ 1] INFO  Unity: OnMapEntitySyncRequest::ID :12 POS:SkillBridge.Message.NVector3, DIR:SkillBridge.Message.NVector3,SPD:0
2021-05-18 18:26:44,721 [ 1] INFO  Unity: SetDirection:(-91, 41, 0)
2021-05-18 18:26:44,722 [ 1] INFO  Unity: OnMapEntitySyncRequest::ID :12 POS:SkillBridge.Message.NVector3, DIR:SkillBridge.Message.NVector3,SPD:0
2021-05-18 18:26:44,807 [ 1] INFO  Unity: SetDirection:(-81, 59, 0)
2021-05-18 18:26:44,808 [ 1] INFO  Unity: OnMapEntitySyncRequest::ID :12 POS:SkillBridge.Message.NVector3, DIR:SkillBridge.Message.NVector3,SPD:0
2021-05-18 18:27:16,725 [ 1] INFO  Unity: MoveForward
2021-05-18 18:27:16,726 [ 1] INFO  Unity: OnMapEntitySyncRequest::ID :12 POS:SkillBridge.Message.NVector3, DIR:SkillBridge.Message.NVector3,SPD:300
2021-05-18 18:27:17,392 [ 1] INFO  Unity: SetDirection:(-67, 74, 0)
2021-05-18 18:27:17,394 [ 1] INFO  Unity: OnMapEntitySyncRequest::ID :12 POS:SkillBridge.Message.NVector3, DIR:SkillBridge.Message.NVector3,SPD:300
2021-05-18 18:27:17,464 [ 1] INFO  Unity: SetDirection:(-53, 85, 0)
2021-05-18 18:27:17,465 [ 1] INFO  Unity: OnMapEntitySyncRequest::ID :12 POS:SkillBridge.Message.NVector3, DIR:SkillBridge.Message.NVector3,SPD:300
2021-05-18 18:27:18,985 [ 1] INFO  Unity: SetDirection:(-34, 94, 0)
2021-05-18 18:27:18,986 [ 1] INFO  Unity: OnMapEntitySyncRequest::ID :12 POS:SkillBridge.Message.NVector3, DIR:SkillBridge.Message.NVector3,SPD:300
2021-05-18 18:27:19,085 [ 1] INFO  Unity: SetDirection:(-14, 99, 0)
2021-05-18 18:27:19,087 [ 1] INFO  Unity: OnMapEntitySyncRequest::ID :12 POS:SkillBridge.Message.NVector3, DIR:SkillBridge.Message.NVector3,SPD:300
2021-05-18 18:27:19,176 [ 1] INFO  Unity: SetDirection:(3, 100, 0)
2021-05-18 18:27:19,178 [ 1] INFO  Unity: OnMapEntitySyncRequest::ID :12 POS:SkillBridge.Message.NVector3, DIR:SkillBridge.Message.NVector3,SPD:300
2021-05-18 18:27:19,269 [ 1] INFO  Unity: SetDirection:(21, 98, 0)
2021-05-18 18:27:19,270 [ 1] INFO  Unity: OnMapEntitySyncRequest::ID :12 POS:SkillBridge.Message.NVector3, DIR:SkillBridge.Message.NVector3,SPD:300
2021-05-18 18:27:19,313 [ 1] INFO  Unity: Stop
2021-05-18 18:27:19,314 [ 1] INFO  Unity: OnMapEntitySyncRequest::ID :12 POS:SkillBridge.Message.NVector3, DIR:SkillBridge.Message.NVector3,SPD:0
2021-05-18 18:27:19,355 [ 1] INFO  Unity: SetDirection:(41, 91, 0)
2021-05-18 18:27:19,356 [ 1] INFO  Unity: OnMapEntitySyncRequest::ID :12 POS:SkillBridge.Message.NVector3, DIR:SkillBridge.Message.NVector3,SPD:0
2021-05-18 18:27:19,463 [ 1] INFO  Unity: SetDirection:(59, 81, 0)
2021-05-18 18:27:19,467 [ 1] INFO  Unity: OnMapEntitySyncRequest::ID :12 POS:SkillBridge.Message.NVector3, DIR:SkillBridge.Message.NVector3,SPD:0
2021-05-18 18:27:19,555 [ 1] INFO  Unity: SetDirection:(74, 67, 0)
2021-05-18 18:27:19,556 [ 1] INFO  Unity: OnMapEntitySyncRequest::ID :12 POS:SkillBridge.Message.NVector3, DIR:SkillBridge.Message.NVector3,SPD:0
2021-05-18 18:27:19,651 [ 1] INFO  Unity: SetDirection:(85, 53, 0)
2021-05-18 18:27:19,652 [ 1] INFO  Unity: OnMapEntitySyncRequest::ID :12 POS:SkillBridge.Message.NVector3, DIR:SkillBridge.Message.NVector3,SPD:0
2021-05-18 18:27:19,737 [ 1] INFO  Unity: SetDirection:(94, 34, 0)
2021-05-18 18:27:19,738 [ 1] INFO  Unity: OnMapEntitySyncRequest::ID :12 POS:SkillBridge.Message.NVector3, DIR:SkillBridge.Message.NVector3,SPD:0
2021-05-18 18:27:20,834 [ 1] INFO  Unity: SetDirection:(99, 14, 0)
2021-05-18 18:27:20,835 [ 1] INFO  Unity: OnMapEntitySyncRequest::ID :12 POS:SkillBridge.Message.NVector3, DIR:SkillBridge.Message.NVector3,SPD:0
2021-05-18 18:27:20,915 [ 1] INFO  Unity: SetDirection:(100, -3, 0)
2021-05-18 18:27:20,917 [ 1] INFO  Unity: OnMapEntitySyncRequest::ID :12 POS:SkillBridge.Message.NVector3, DIR:SkillBridge.Message.NVector3,SPD:0
2021-05-18 18:27:20,992 [ 1] INFO  Unity: SetDirection:(98, -21, 0)
2021-05-18 18:27:20,993 [ 1] INFO  Unity: OnMapEntitySyncRequest::ID :12 POS:SkillBridge.Message.NVector3, DIR:SkillBridge.Message.NVector3,SPD:0
2021-05-18 18:27:21,094 [ 1] INFO  Unity: SetDirection:(91, -41, 0)
2021-05-18 18:27:21,096 [ 1] INFO  Unity: OnMapEntitySyncRequest::ID :12 POS:SkillBridge.Message.NVector3, DIR:SkillBridge.Message.NVector3,SPD:0
2021-05-18 18:27:21,202 [ 1] INFO  Unity: SetDirection:(81, -59, 0)
2021-05-18 18:27:21,203 [ 1] INFO  Unity: OnMapEntitySyncRequest::ID :12 POS:SkillBridge.Message.NVector3, DIR:SkillBridge.Message.NVector3,SPD:0
2021-05-18 18:27:21,310 [ 1] INFO  Unity: MoveForward
2021-05-18 18:27:21,312 [ 1] INFO  Unity: OnMapEntitySyncRequest::ID :12 POS:SkillBridge.Message.NVector3, DIR:SkillBridge.Message.NVector3,SPD:300
2021-05-18 18:27:21,313 [ 1] INFO  Unity: SetDirection:(67, -74, 0)
2021-05-18 18:27:21,314 [ 1] INFO  Unity: OnMapEntitySyncRequest::ID :12 POS:SkillBridge.Message.NVector3, DIR:SkillBridge.Message.NVector3,SPD:300
2021-05-18 18:27:21,391 [ 1] INFO  Unity: SetDirection:(53, -85, 0)
2021-05-18 18:27:21,393 [ 1] INFO  Unity: OnMapEntitySyncRequest::ID :12 POS:SkillBridge.Message.NVector3, DIR:SkillBridge.Message.NVector3,SPD:300
2021-05-18 18:27:21,484 [ 1] INFO  Unity: SetDirection:(34, -94, 0)
2021-05-18 18:27:21,485 [ 1] INFO  Unity: OnMapEntitySyncRequest::ID :12 POS:SkillBridge.Message.NVector3, DIR:SkillBridge.Message.NVector3,SPD:300
2021-05-18 18:27:21,582 [ 1] INFO  Unity: SetDirection:(14, -99, 0)
2021-05-18 18:27:21,584 [ 1] INFO  Unity: OnMapEntitySyncRequest::ID :12 POS:SkillBridge.Message.NVector3, DIR:SkillBridge.Message.NVector3,SPD:300
2021-05-18 18:27:21,792 [ 1] INFO  Unity: Stop
2021-05-18 18:27:21,793 [ 1] INFO  Unity: OnMapEntitySyncRequest::ID :12 POS:SkillBridge.Message.NVector3, DIR:SkillBridge.Message.NVector3,SPD:0
2021-05-18 18:27:22,191 [ 1] INFO  Unity: MoveForward
2021-05-18 18:27:22,193 [ 1] INFO  Unity: OnMapEntitySyncRequest::ID :12 POS:SkillBridge.Message.NVector3, DIR:SkillBridge.Message.NVector3,SPD:300
2021-05-18 18:27:23,418 [ 1] INFO  Unity: SetDirection:(34, -94, 0)
2021-05-18 18:27:23,423 [ 1] INFO  Unity: OnMapEntitySyncRequest::ID :12 POS:SkillBridge.Message.NVector3, DIR:SkillBridge.Message.NVector3,SPD:300
2021-05-18 18:27:23,516 [ 1] INFO  Unity: SetDirection:(50, -87, 0)
2021-05-18 18:27:23,518 [ 1] INFO  Unity: OnMapEntitySyncRequest::ID :12 POS:SkillBridge.Message.NVector3, DIR:SkillBridge.Message.NVector3,SPD:300
2021-05-18 18:27:23,584 [ 1] INFO  Unity: SetDirection:(64, -77, 0)
2021-05-18 18:27:23,586 [ 1] INFO  Unity: OnMapEntitySyncRequest::ID :12 POS:SkillBridge.Message.NVector3, DIR:SkillBridge.Message.NVector3,SPD:300
2021-05-18 18:27:23,662 [ 1] INFO  Unity: SetDirection:(77, -64, 0)
2021-05-18 18:27:23,664 [ 1] INFO  Unity: OnMapEntitySyncRequest::ID :12 POS:SkillBridge.Message.NVector3, DIR:SkillBridge.Message.NVector3,SPD:300
2021-05-18 18:27:23,763 [ 1] INFO  Unity: SetDirection:(88, -47, 0)
2021-05-18 18:27:23,764 [ 1] INFO  Unity: OnMapEntitySyncRequest::ID :12 POS:SkillBridge.Message.NVector3, DIR:SkillBridge.Message.NVector3,SPD:300
2021-05-18 18:27:24,243 [ 1] INFO  Unity: SetDirection:(95, -31, 0)
2021-05-18 18:27:24,244 [ 1] INFO  Unity: OnMapEntitySyncRequest::ID :12 POS:SkillBridge.Message.NVector3, DIR:SkillBridge.Message.NVector3,SPD:300
2021-05-18 18:27:24,313 [ 1] INFO  Unity: SetDirection:(99, -14, 0)
2021-05-18 18:27:24,314 [ 1] INFO  Unity: OnMapEntitySyncRequest::ID :12 POS:SkillBridge.Message.NVector3, DIR:SkillBridge.Message.NVector3,SPD:300
2021-05-18 18:27:24,414 [ 1] INFO  Unity: SetDirection:(100, 3, 0)
2021-05-18 18:27:24,416 [ 1] INFO  Unity: OnMapEntitySyncRequest::ID :12 POS:SkillBridge.Message.NVector3, DIR:SkillBridge.Message.NVector3,SPD:300
2021-05-18 18:27:24,478 [ 1] INFO  Unity: SetDirection:(98, 21, 0)
2021-05-18 18:27:24,479 [ 1] INFO  Unity: OnMapEntitySyncRequest::ID :12 POS:SkillBridge.Message.NVector3, DIR:SkillBridge.Message.NVector3,SPD:300
2021-05-18 18:27:24,591 [ 1] INFO  Unity: Stop
2021-05-18 18:27:24,593 [ 1] INFO  Unity: OnMapEntitySyncRequest::ID :12 POS:SkillBridge.Message.NVector3, DIR:SkillBridge.Message.NVector3,SPD:0
2021-05-18 18:27:25,050 [ 1] INFO  Unity: MoveForward
2021-05-18 18:27:25,052 [ 1] INFO  Unity: OnMapEntitySyncRequest::ID :12 POS:SkillBridge.Message.NVector3, DIR:SkillBridge.Message.NVector3,SPD:300
2021-05-18 18:27:25,080 [ 1] INFO  Unity: SetDirection:(91, 41, 0)
2021-05-18 18:27:25,082 [ 1] INFO  Unity: OnMapEntitySyncRequest::ID :12 POS:SkillBridge.Message.NVector3, DIR:SkillBridge.Message.NVector3,SPD:300
2021-05-18 18:27:25,197 [ 1] INFO  Unity: Stop
2021-05-18 18:27:25,198 [ 1] INFO  Unity: OnMapEntitySyncRequest::ID :12 POS:SkillBridge.Message.NVector3, DIR:SkillBridge.Message.NVector3,SPD:0
2021-05-18 18:27:26,603 [ 1] INFO  Unity: MoveBack
2021-05-18 18:27:26,604 [ 1] INFO  Unity: OnMapEntitySyncRequest::ID :12 POS:SkillBridge.Message.NVector3, DIR:SkillBridge.Message.NVector3,SPD:-300
2021-05-18 18:27:27,087 [ 1] INFO  Unity: SetDirection:(81, 59, 0)
2021-05-18 18:27:27,089 [ 1] INFO  Unity: OnMapEntitySyncRequest::ID :12 POS:SkillBridge.Message.NVector3, DIR:SkillBridge.Message.NVector3,SPD:-300
2021-05-18 18:27:27,186 [ 1] INFO  Unity: SetDirection:(67, 74, 0)
2021-05-18 18:27:27,188 [ 1] INFO  Unity: OnMapEntitySyncRequest::ID :12 POS:SkillBridge.Message.NVector3, DIR:SkillBridge.Message.NVector3,SPD:-300
2021-05-18 18:27:27,261 [ 1] INFO  Unity: SetDirection:(53, 85, 0)
2021-05-18 18:27:27,263 [ 1] INFO  Unity: OnMapEntitySyncRequest::ID :12 POS:SkillBridge.Message.NVector3, DIR:SkillBridge.Message.NVector3,SPD:-300
2021-05-18 18:27:27,370 [ 1] INFO  Unity: SetDirection:(34, 94, 0)
2021-05-18 18:27:27,372 [ 1] INFO  Unity: OnMapEntitySyncRequest::ID :12 POS:SkillBridge.Message.NVector3, DIR:SkillBridge.Message.NVector3,SPD:-300
2021-05-18 18:27:27,463 [ 1] INFO  Unity: SetDirection:(14, 99, 0)
2021-05-18 18:27:27,464 [ 1] INFO  Unity: OnMapEntitySyncRequest::ID :12 POS:SkillBridge.Message.NVector3, DIR:SkillBridge.Message.NVector3,SPD:-300
2021-05-18 18:27:27,558 [ 1] INFO  Unity: SetDirection:(-3, 100, 0)
2021-05-18 18:27:27,560 [ 1] INFO  Unity: OnMapEntitySyncRequest::ID :12 POS:SkillBridge.Message.NVector3, DIR:SkillBridge.Message.NVector3,SPD:-300
2021-05-18 18:27:27,583 [ 1] INFO  Unity: Stop
2021-05-18 18:27:27,584 [ 1] INFO  Unity: OnMapEntitySyncRequest::ID :12 POS:SkillBridge.Message.NVector3, DIR:SkillBridge.Message.NVector3,SPD:0
2021-05-18 18:27:27,706 [ 1] INFO  Unity: MoveBack
2021-05-18 18:27:27,707 [ 1] INFO  Unity: OnMapEntitySyncRequest::ID :12 POS:SkillBridge.Message.NVector3, DIR:SkillBridge.Message.NVector3,SPD:-300
2021-05-18 18:27:27,849 [ 1] INFO  Unity: SetPosition:(3890, 2719, 805)
2021-05-18 18:27:27,850 [ 1] INFO  Unity: OnMapEntitySyncRequest::ID :12 POS:SkillBridge.Message.NVector3, DIR:SkillBridge.Message.NVector3,SPD:-300
2021-05-18 18:27:28,225 [ 1] INFO  Unity: SetDirection:(-21, 98, 0)
2021-05-18 18:27:28,226 [ 1] INFO  Unity: OnMapEntitySyncRequest::ID :12 POS:SkillBridge.Message.NVector3, DIR:SkillBridge.Message.NVector3,SPD:-300
2021-05-18 18:27:28,276 [ 1] INFO  Unity: Stop
2021-05-18 18:27:28,277 [ 1] INFO  Unity: OnMapEntitySyncRequest::ID :12 POS:SkillBridge.Message.NVector3, DIR:SkillBridge.Message.NVector3,SPD:0
2021-05-18 18:27:28,304 [ 1] INFO  Unity: SetDirection:(-41, 91, 0)
2021-05-18 18:27:28,306 [ 1] INFO  Unity: OnMapEntitySyncRequest::ID :12 POS:SkillBridge.Message.NVector3, DIR:SkillBridge.Message.NVector3,SPD:0
2021-05-18 18:27:32,235 [ 1] INFO  Unity: MoveForward
2021-05-18 18:27:32,237 [ 1] INFO  Unity: OnMapEntitySyncRequest::ID :12 POS:SkillBridge.Message.NVector3, DIR:SkillBridge.Message.NVector3,SPD:300
2021-05-18 18:27:34,390 [ 1] INFO  Unity: SetPosition:(3628, 3199, 805)
2021-05-18 18:27:34,390 [ 1] INFO  Unity: OnMapEntitySyncRequest::ID :12 POS:SkillBridge.Message.NVector3, DIR:SkillBridge.Message.NVector3,SPD:300
2021-05-18 18:27:34,748 [ 1] INFO  Unity: SetDirection:(-24, 97, 0)
2021-05-18 18:27:34,750 [ 1] INFO  Unity: OnMapEntitySyncRequest::ID :12 POS:SkillBridge.Message.NVector3, DIR:SkillBridge.Message.NVector3,SPD:300
2021-05-18 18:27:34,845 [ 1] INFO  Unity: SetDirection:(-3, 100, 0)
2021-05-18 18:27:34,847 [ 1] INFO  Unity: OnMapEntitySyncRequest::ID :12 POS:SkillBridge.Message.NVector3, DIR:SkillBridge.Message.NVector3,SPD:300
2021-05-18 18:27:34,952 [ 1] INFO  Unity: SetDirection:(17, 98, 0)
2021-05-18 18:27:34,953 [ 1] INFO  Unity: OnMapEntitySyncRequest::ID :12 POS:SkillBridge.Message.NVector3, DIR:SkillBridge.Message.NVector3,SPD:300
2021-05-18 18:27:35,027 [ 1] INFO  Unity: SetDirection:(34, 94, 0)
2021-05-18 18:27:35,028 [ 1] INFO  Unity: OnMapEntitySyncRequest::ID :12 POS:SkillBridge.Message.NVector3, DIR:SkillBridge.Message.NVector3,SPD:300
2021-05-18 18:27:35,098 [ 1] INFO  Unity: SetDirection:(50, 87, 0)
2021-05-18 18:27:35,100 [ 1] INFO  Unity: OnMapEntitySyncRequest::ID :12 POS:SkillBridge.Message.NVector3, DIR:SkillBridge.Message.NVector3,SPD:300
2021-05-18 18:27:35,196 [ 1] INFO  Unity: SetDirection:(64, 77, 0)
2021-05-18 18:27:35,198 [ 1] INFO  Unity: OnMapEntitySyncRequest::ID :12 POS:SkillBridge.Message.NVector3, DIR:SkillBridge.Message.NVector3,SPD:300
2021-05-18 18:27:35,267 [ 1] INFO  Unity: SetDirection:(77, 64, 0)
2021-05-18 18:27:35,269 [ 1] INFO  Unity: OnMapEntitySyncRequest::ID :12 POS:SkillBridge.Message.NVector3, DIR:SkillBridge.Message.NVector3,SPD:300
2021-05-18 18:27:35,306 [ 1] INFO  Unity: Stop
2021-05-18 18:27:35,308 [ 1] INFO  Unity: OnMapEntitySyncRequest::ID :12 POS:SkillBridge.Message.NVector3, DIR:SkillBridge.Message.NVector3,SPD:0
2021-05-18 18:27:35,386 [ 1] INFO  Unity: SetDirection:(88, 47, 0)
2021-05-18 18:27:35,388 [ 1] INFO  Unity: OnMapEntitySyncRequest::ID :12 POS:SkillBridge.Message.NVector3, DIR:SkillBridge.Message.NVector3,SPD:0
2021-05-18 18:27:35,459 [ 1] INFO  Unity: SetDirection:(95, 31, 0)
2021-05-18 18:27:35,461 [ 1] INFO  Unity: OnMapEntitySyncRequest::ID :12 POS:SkillBridge.Message.NVector3, DIR:SkillBridge.Message.NVector3,SPD:0
2021-05-18 18:27:35,562 [ 1] INFO  Unity: MoveBack
2021-05-18 18:27:35,563 [ 1] INFO  Unity: OnMapEntitySyncRequest::ID :12 POS:SkillBridge.Message.NVector3, DIR:SkillBridge.Message.NVector3,SPD:-300
2021-05-18 18:27:35,564 [ 1] INFO  Unity: SetDirection:(99, 14, 0)
2021-05-18 18:27:35,565 [ 1] INFO  Unity: OnMapEntitySyncRequest::ID :12 POS:SkillBridge.Message.NVector3, DIR:SkillBridge.Message.NVector3,SPD:-300
2021-05-18 18:27:36,394 [ 1] INFO  Unity: Stop
2021-05-18 18:27:36,396 [ 1] INFO  Unity: OnMapEntitySyncRequest::ID :12 POS:SkillBridge.Message.NVector3, DIR:SkillBridge.Message.NVector3,SPD:0
2021-05-18 18:27:37,575 [ 1] INFO  Unity: MoveForward
2021-05-18 18:27:37,577 [ 1] INFO  Unity: OnMapEntitySyncRequest::ID :12 POS:SkillBridge.Message.NVector3, DIR:SkillBridge.Message.NVector3,SPD:300
2021-05-18 18:27:37,610 [ 1] INFO  Unity: SetDirection:(94, 34, 0)
2021-05-18 18:27:37,611 [ 1] INFO  Unity: OnMapEntitySyncRequest::ID :12 POS:SkillBridge.Message.NVector3, DIR:SkillBridge.Message.NVector3,SPD:300
2021-05-18 18:27:37,690 [ 1] INFO  Unity: SetDirection:(87, 50, 0)
2021-05-18 18:27:37,692 [ 1] INFO  Unity: OnMapEntitySyncRequest::ID :12 POS:SkillBridge.Message.NVector3, DIR:SkillBridge.Message.NVector3,SPD:300
2021-05-18 18:27:37,760 [ 1] INFO  Unity: SetDirection:(77, 64, 0)
2021-05-18 18:27:37,761 [ 1] INFO  Unity: OnMapEntitySyncRequest::ID :12 POS:SkillBridge.Message.NVector3, DIR:SkillBridge.Message.NVector3,SPD:300
2021-05-18 18:27:37,847 [ 1] INFO  Unity: SetDirection:(64, 77, 0)
2021-05-18 18:27:37,848 [ 1] INFO  Unity: OnMapEntitySyncRequest::ID :12 POS:SkillBridge.Message.NVector3, DIR:SkillBridge.Message.NVector3,SPD:300
2021-05-18 18:27:37,947 [ 1] INFO  Unity: SetDirection:(47, 88, 0)
2021-05-18 18:27:37,949 [ 1] INFO  Unity: OnMapEntitySyncRequest::ID :12 POS:SkillBridge.Message.NVector3, DIR:SkillBridge.Message.NVector3,SPD:300
2021-05-18 18:27:38,922 [ 1] INFO  Unity: SetDirection:(31, 95, 0)
2021-05-18 18:27:38,924 [ 1] INFO  Unity: OnMapEntitySyncRequest::ID :12 POS:SkillBridge.Message.NVector3, DIR:SkillBridge.Message.NVector3,SPD:300
2021-05-18 18:27:38,994 [ 1] INFO  Unity: Stop
2021-05-18 18:27:38,996 [ 1] INFO  Unity: OnMapEntitySyncRequest::ID :12 POS:SkillBridge.Message.NVector3, DIR:SkillBridge.Message.NVector3,SPD:0
2021-05-18 18:27:39,025 [ 1] INFO  Unity: SetDirection:(14, 99, 0)
2021-05-18 18:27:39,026 [ 1] INFO  Unity: OnMapEntitySyncRequest::ID :12 POS:SkillBridge.Message.NVector3, DIR:SkillBridge.Message.NVector3,SPD:0
2021-05-18 18:27:39,101 [ 1] INFO  Unity: SetDirection:(-3, 100, 0)
2021-05-18 18:27:39,102 [ 1] INFO  Unity: OnMapEntitySyncRequest::ID :12 POS:SkillBridge.Message.NVector3, DIR:SkillBridge.Message.NVector3,SPD:0
2021-05-18 18:27:39,194 [ 1] INFO  Unity: SetDirection:(-21, 98, 0)
2021-05-18 18:27:39,196 [ 1] INFO  Unity: OnMapEntitySyncRequest::ID :12 POS:SkillBridge.Message.NVector3, DIR:SkillBridge.Message.NVector3,SPD:0
2021-05-18 18:27:39,229 [ 1] INFO  Unity: MoveBack
2021-05-18 18:27:39,230 [ 1] INFO  Unity: OnMapEntitySyncRequest::ID :12 POS:SkillBridge.Message.NVector3, DIR:SkillBridge.Message.NVector3,SPD:-300
2021-05-18 18:27:39,484 [ 1] INFO  Unity: SetDirection:(-3, 100, 0)
2021-05-18 18:27:39,486 [ 1] INFO  Unity: OnMapEntitySyncRequest::ID :12 POS:SkillBridge.Message.NVector3, DIR:SkillBridge.Message.NVector3,SPD:-300
2021-05-18 18:27:39,510 [ 1] INFO  Unity: Stop
2021-05-18 18:27:39,511 [ 1] INFO  Unity: OnMapEntitySyncRequest::ID :12 POS:SkillBridge.Message.NVector3, DIR:SkillBridge.Message.NVector3,SPD:0
2021-05-18 18:27:39,573 [ 1] INFO  Unity: SetDirection:(17, 98, 0)
2021-05-18 18:27:39,575 [ 1] INFO  Unity: OnMapEntitySyncRequest::ID :12 POS:SkillBridge.Message.NVector3, DIR:SkillBridge.Message.NVector3,SPD:0
2021-05-18 18:27:39,667 [ 1] INFO  Unity: SetDirection:(34, 94, 0)
2021-05-18 18:27:39,668 [ 1] INFO  Unity: OnMapEntitySyncRequest::ID :12 POS:SkillBridge.Message.NVector3, DIR:SkillBridge.Message.NVector3,SPD:0
2021-05-18 18:27:39,749 [ 1] INFO  Unity: SetDirection:(50, 87, 0)
2021-05-18 18:27:39,750 [ 1] INFO  Unity: OnMapEntitySyncRequest::ID :12 POS:SkillBridge.Message.NVector3, DIR:SkillBridge.Message.NVector3,SPD:0
2021-05-18 18:27:39,829 [ 1] INFO  Unity: SetDirection:(64, 77, 0)
2021-05-18 18:27:39,832 [ 1] INFO  Unity: OnMapEntitySyncRequest::ID :12 POS:SkillBridge.Message.NVector3, DIR:SkillBridge.Message.NVector3,SPD:0
2021-05-18 18:27:39,926 [ 1] INFO  Unity: SetDirection:(77, 64, 0)
2021-05-18 18:27:39,927 [ 1] INFO  Unity: OnMapEntitySyncRequest::ID :12 POS:SkillBridge.Message.NVector3, DIR:SkillBridge.Message.NVector3,SPD:0
2021-05-18 18:27:40,011 [ 1] INFO  Unity: SetDirection:(88, 47, 0)
2021-05-18 18:27:40,012 [ 1] INFO  Unity: OnMapEntitySyncRequest::ID :12 POS:SkillBridge.Message.NVector3, DIR:SkillBridge.Message.NVector3,SPD:0
2021-05-18 18:27:41,340 [ 1] INFO  Unity: SetDirection:(95, 31, 0)
2021-05-18 18:27:41,342 [ 1] INFO  Unity: OnMapEntitySyncRequest::ID :12 POS:SkillBridge.Message.NVector3, DIR:SkillBridge.Message.NVector3,SPD:0
2021-05-18 18:27:41,439 [ 1] INFO  Unity: SetDirection:(99, 14, 0)
2021-05-18 18:27:41,440 [ 1] INFO  Unity: OnMapEntitySyncRequest::ID :12 POS:SkillBridge.Message.NVector3, DIR:SkillBridge.Message.NVector3,SPD:0
2021-05-18 18:27:43,508 [ 1] INFO  Unity: MoveBack
2021-05-18 18:27:43,509 [ 1] INFO  Unity: OnMapEntitySyncRequest::ID :12 POS:SkillBridge.Message.NVector3, DIR:SkillBridge.Message.NVector3,SPD:-300
2021-05-18 18:27:43,751 [ 1] INFO  Unity: SetDirection:(94, 34, 0)
2021-05-18 18:27:43,753 [ 1] INFO  Unity: OnMapEntitySyncRequest::ID :12 POS:SkillBridge.Message.NVector3, DIR:SkillBridge.Message.NVector3,SPD:-300
2021-05-18 18:27:43,755 [ 1] INFO  Unity: SetPosition:(3572, 3658, 805)
2021-05-18 18:27:43,756 [ 1] INFO  Unity: OnMapEntitySyncRequest::ID :12 POS:SkillBridge.Message.NVector3, DIR:SkillBridge.Message.NVector3,SPD:-300
2021-05-18 18:27:43,802 [ 1] INFO  Unity: Stop
2021-05-18 18:27:43,803 [ 1] INFO  Unity: OnMapEntitySyncRequest::ID :12 POS:SkillBridge.Message.NVector3, DIR:SkillBridge.Message.NVector3,SPD:0
2021-05-18 18:27:44,121 [ 1] INFO  Unity: SetDirection:(87, 50, 0)
2021-05-18 18:27:44,122 [ 1] INFO  Unity: OnMapEntitySyncRequest::ID :12 POS:SkillBridge.Message.NVector3, DIR:SkillBridge.Message.NVector3,SPD:0
2021-05-18 18:27:44,223 [ 1] INFO  Unity: MoveForward
2021-05-18 18:27:44,224 [ 1] INFO  Unity: OnMapEntitySyncRequest::ID :12 POS:SkillBridge.Message.NVector3, DIR:SkillBridge.Message.NVector3,SPD:300
2021-05-18 18:27:44,226 [ 1] INFO  Unity: SetDirection:(77, 64, 0)
2021-05-18 18:27:44,228 [ 1] INFO  Unity: OnMapEntitySyncRequest::ID :12 POS:SkillBridge.Message.NVector3, DIR:SkillBridge.Message.NVector3,SPD:300
2021-05-18 18:27:44,286 [ 1] INFO  Unity: SetDirection:(64, 77, 0)
2021-05-18 18:27:44,287 [ 1] INFO  Unity: OnMapEntitySyncRequest::ID :12 POS:SkillBridge.Message.NVector3, DIR:SkillBridge.Message.NVector3,SPD:300
2021-05-18 18:27:44,391 [ 1] INFO  Unity: SetDirection:(47, 88, 0)
2021-05-18 18:27:44,392 [ 1] INFO  Unity: OnMapEntitySyncRequest::ID :12 POS:SkillBridge.Message.NVector3, DIR:SkillBridge.Message.NVector3,SPD:300
2021-05-18 18:27:44,483 [ 1] INFO  Unity: SetDirection:(31, 95, 0)
2021-05-18 18:27:44,484 [ 1] INFO  Unity: OnMapEntitySyncRequest::ID :12 POS:SkillBridge.Message.NVector3, DIR:SkillBridge.Message.NVector3,SPD:300
2021-05-18 18:27:45,309 [ 1] INFO  Unity: SetDirection:(14, 99, 0)
2021-05-18 18:27:45,311 [ 1] INFO  Unity: OnMapEntitySyncRequest::ID :12 POS:SkillBridge.Message.NVector3, DIR:SkillBridge.Message.NVector3,SPD:300
2021-05-18 18:27:45,374 [ 1] INFO  Unity: SetDirection:(-3, 100, 0)
2021-05-18 18:27:45,376 [ 1] INFO  Unity: OnMapEntitySyncRequest::ID :12 POS:SkillBridge.Message.NVector3, DIR:SkillBridge.Message.NVector3,SPD:300
2021-05-18 18:27:46,672 [ 1] INFO  Unity: SetDirection:(17, 98, 0)
2021-05-18 18:27:46,674 [ 1] INFO  Unity: OnMapEntitySyncRequest::ID :12 POS:SkillBridge.Message.NVector3, DIR:SkillBridge.Message.NVector3,SPD:300
2021-05-18 18:27:46,756 [ 1] INFO  Unity: SetDirection:(34, 94, 0)
2021-05-18 18:27:46,757 [ 1] INFO  Unity: OnMapEntitySyncRequest::ID :12 POS:SkillBridge.Message.NVector3, DIR:SkillBridge.Message.NVector3,SPD:300
2021-05-18 18:27:46,822 [ 1] INFO  Unity: SetDirection:(50, 87, 0)
2021-05-18 18:27:46,823 [ 1] INFO  Unity: OnMapEntitySyncRequest::ID :12 POS:SkillBridge.Message.NVector3, DIR:SkillBridge.Message.NVector3,SPD:300
2021-05-18 18:27:47,431 [ 1] INFO  Unity: SetPosition:(3793, 4569, 805)
2021-05-18 18:27:47,433 [ 1] INFO  Unity: OnMapEntitySyncRequest::ID :12 POS:SkillBridge.Message.NVector3, DIR:SkillBridge.Message.NVector3,SPD:300
2021-05-18 18:27:48,161 [ 1] INFO  Unity: SetDirection:(64, 77, 0)
2021-05-18 18:27:48,162 [ 1] INFO  Unity: OnMapEntitySyncRequest::ID :12 POS:SkillBridge.Message.NVector3, DIR:SkillBridge.Message.NVector3,SPD:300
2021-05-18 18:27:48,252 [ 1] INFO  Unity: SetDirection:(77, 64, 0)
2021-05-18 18:27:48,253 [ 1] INFO  Unity: OnMapEntitySyncRequest::ID :12 POS:SkillBridge.Message.NVector3, DIR:SkillBridge.Message.NVector3,SPD:300
2021-05-18 18:27:48,839 [ 1] INFO  Unity: Stop
2021-05-18 18:27:48,841 [ 1] INFO  Unity: OnMapEntitySyncRequest::ID :12 POS:SkillBridge.Message.NVector3, DIR:SkillBridge.Message.NVector3,SPD:0
2021-05-18 18:27:58,402 [ 1] INFO  Unity: MoveBack
2021-05-18 18:27:58,404 [ 1] INFO  Unity: OnMapEntitySyncRequest::ID :12 POS:SkillBridge.Message.NVector3, DIR:SkillBridge.Message.NVector3,SPD:-300
2021-05-18 18:27:58,482 [ 1] INFO  Unity: SetDirection:(64, 77, 0)
2021-05-18 18:27:58,484 [ 1] INFO  Unity: OnMapEntitySyncRequest::ID :12 POS:SkillBridge.Message.NVector3, DIR:SkillBridge.Message.NVector3,SPD:-300
2021-05-18 18:27:58,586 [ 1] INFO  Unity: SetDirection:(47, 88, 0)
2021-05-18 18:27:58,588 [ 1] INFO  Unity: OnMapEntitySyncRequest::ID :12 POS:SkillBridge.Message.NVector3, DIR:SkillBridge.Message.NVector3,SPD:-300
2021-05-18 18:27:58,688 [ 1] INFO  Unity: SetDirection:(31, 95, 0)
2021-05-18 18:27:58,689 [ 1] INFO  Unity: OnMapEntitySyncRequest::ID :12 POS:SkillBridge.Message.NVector3, DIR:SkillBridge.Message.NVector3,SPD:-300
2021-05-18 18:27:59,069 [ 1] INFO  Unity: Stop
2021-05-18 18:27:59,071 [ 1] INFO  Unity: OnMapEntitySyncRequest::ID :12 POS:SkillBridge.Message.NVector3, DIR:SkillBridge.Message.NVector3,SPD:0
2021-05-18 18:27:59,071 [ 1] INFO  Unity: SetDirection:(14, 99, 0)
2021-05-18 18:27:59,072 [ 1] INFO  Unity: OnMapEntitySyncRequest::ID :12 POS:SkillBridge.Message.NVector3, DIR:SkillBridge.Message.NVector3,SPD:0
2021-05-18 18:27:59,153 [ 1] INFO  Unity: SetDirection:(-3, 100, 0)
2021-05-18 18:27:59,155 [ 1] INFO  Unity: OnMapEntitySyncRequest::ID :12 POS:SkillBridge.Message.NVector3, DIR:SkillBridge.Message.NVector3,SPD:0
2021-05-18 18:27:59,250 [ 1] INFO  Unity: SetDirection:(-21, 98, 0)
2021-05-18 18:27:59,251 [ 1] INFO  Unity: OnMapEntitySyncRequest::ID :12 POS:SkillBridge.Message.NVector3, DIR:SkillBridge.Message.NVector3,SPD:0
2021-05-18 18:27:59,349 [ 1] INFO  Unity: MoveForward
2021-05-18 18:27:59,351 [ 1] INFO  Unity: OnMapEntitySyncRequest::ID :12 POS:SkillBridge.Message.NVector3, DIR:SkillBridge.Message.NVector3,SPD:300
2021-05-18 18:27:59,351 [ 1] INFO  Unity: SetDirection:(-41, 91, 0)
2021-05-18 18:27:59,352 [ 1] INFO  Unity: OnMapEntitySyncRequest::ID :12 POS:SkillBridge.Message.NVector3, DIR:SkillBridge.Message.NVector3,SPD:300
2021-05-18 18:28:00,180 [ 1] INFO  Unity: SetDirection:(-24, 97, 0)
2021-05-18 18:28:00,182 [ 1] INFO  Unity: OnMapEntitySyncRequest::ID :12 POS:SkillBridge.Message.NVector3, DIR:SkillBridge.Message.NVector3,SPD:300
2021-05-18 18:28:00,287 [ 1] INFO  Unity: SetDirection:(-3, 100, 0)
2021-05-18 18:28:00,288 [ 1] INFO  Unity: OnMapEntitySyncRequest::ID :12 POS:SkillBridge.Message.NVector3, DIR:SkillBridge.Message.NVector3,SPD:300
2021-05-18 18:28:00,367 [ 1] INFO  Unity: SetDirection:(17, 98, 0)
2021-05-18 18:28:00,368 [ 1] INFO  Unity: OnMapEntitySyncRequest::ID :12 POS:SkillBridge.Message.NVector3, DIR:SkillBridge.Message.NVector3,SPD:300
2021-05-18 18:28:00,469 [ 1] INFO  Unity: SetDirection:(34, 94, 0)
2021-05-18 18:28:00,471 [ 1] INFO  Unity: OnMapEntitySyncRequest::ID :12 POS:SkillBridge.Message.NVector3, DIR:SkillBridge.Message.NVector3,SPD:300
2021-05-18 18:28:00,536 [ 1] INFO  Unity: SetDirection:(50, 87, 0)
2021-05-18 18:28:00,538 [ 1] INFO  Unity: OnMapEntitySyncRequest::ID :12 POS:SkillBridge.Message.NVector3, DIR:SkillBridge.Message.NVector3,SPD:300
2021-05-18 18:28:00,628 [ 1] INFO  Unity: SetDirection:(64, 77, 0)
2021-05-18 18:28:00,630 [ 1] INFO  Unity: OnMapEntitySyncRequest::ID :12 POS:SkillBridge.Message.NVector3, DIR:SkillBridge.Message.NVector3,SPD:300
2021-05-18 18:28:00,714 [ 1] INFO  Unity: SetDirection:(77, 64, 0)
2021-05-18 18:28:00,715 [ 1] INFO  Unity: OnMapEntitySyncRequest::ID :12 POS:SkillBridge.Message.NVector3, DIR:SkillBridge.Message.NVector3,SPD:300
2021-05-18 18:28:00,802 [ 1] INFO  Unity: SetDirection:(88, 47, 0)
2021-05-18 18:28:00,803 [ 1] INFO  Unity: OnMapEntitySyncRequest::ID :12 POS:SkillBridge.Message.NVector3, DIR:SkillBridge.Message.NVector3,SPD:300
2021-05-18 18:28:00,916 [ 1] INFO  Unity: SetDirection:(95, 31, 0)
2021-05-18 18:28:00,917 [ 1] INFO  Unity: OnMapEntitySyncRequest::ID :12 POS:SkillBridge.Message.NVector3, DIR:SkillBridge.Message.NVector3,SPD:300
2021-05-18 18:28:00,993 [ 1] INFO  Unity: SetDirection:(99, 14, 0)
2021-05-18 18:28:00,994 [ 1] INFO  Unity: OnMapEntitySyncRequest::ID :12 POS:SkillBridge.Message.NVector3, DIR:SkillBridge.Message.NVector3,SPD:300
2021-05-18 18:28:01,027 [ 1] INFO  Unity: Stop
2021-05-18 18:28:01,028 [ 1] INFO  Unity: OnMapEntitySyncRequest::ID :12 POS:SkillBridge.Message.NVector3, DIR:SkillBridge.Message.NVector3,SPD:0
2021-05-18 18:28:01,051 [ 1] INFO  Unity: SetDirection:(100, -3, 0)
2021-05-18 18:28:01,053 [ 1] INFO  Unity: OnMapEntitySyncRequest::ID :12 POS:SkillBridge.Message.NVector3, DIR:SkillBridge.Message.NVector3,SPD:0
2021-05-18 18:28:01,154 [ 1] INFO  Unity: SetDirection:(98, -21, 0)
2021-05-18 18:28:01,155 [ 1] INFO  Unity: OnMapEntitySyncRequest::ID :12 POS:SkillBridge.Message.NVector3, DIR:SkillBridge.Message.NVector3,SPD:0
2021-05-18 18:28:01,860 [ 1] INFO  Unity: SetDirection:(100, -3, 0)
2021-05-18 18:28:01,862 [ 1] INFO  Unity: OnMapEntitySyncRequest::ID :12 POS:SkillBridge.Message.NVector3, DIR:SkillBridge.Message.NVector3,SPD:0
2021-05-18 18:28:01,957 [ 1] INFO  Unity: SetDirection:(98, 17, 0)
2021-05-18 18:28:01,959 [ 1] INFO  Unity: OnMapEntitySyncRequest::ID :12 POS:SkillBridge.Message.NVector3, DIR:SkillBridge.Message.NVector3,SPD:0
2021-05-18 18:28:02,053 [ 1] INFO  Unity: SetDirection:(94, 34, 0)
2021-05-18 18:28:02,054 [ 1] INFO  Unity: OnMapEntitySyncRequest::ID :12 POS:SkillBridge.Message.NVector3, DIR:SkillBridge.Message.NVector3,SPD:0
2021-05-18 18:28:02,151 [ 1] INFO  Unity: SetDirection:(87, 50, 0)
2021-05-18 18:28:02,152 [ 1] INFO  Unity: OnMapEntitySyncRequest::ID :12 POS:SkillBridge.Message.NVector3, DIR:SkillBridge.Message.NVector3,SPD:0
2021-05-18 18:28:02,187 [ 1] INFO  Unity: MoveForward
2021-05-18 18:28:02,190 [ 1] INFO  Unity: OnMapEntitySyncRequest::ID :12 POS:SkillBridge.Message.NVector3, DIR:SkillBridge.Message.NVector3,SPD:300
2021-05-18 18:28:02,224 [ 1] INFO  Unity: SetDirection:(77, 64, 0)
2021-05-18 18:28:02,225 [ 1] INFO  Unity: OnMapEntitySyncRequest::ID :12 POS:SkillBridge.Message.NVector3, DIR:SkillBridge.Message.NVector3,SPD:300
2021-05-18 18:28:02,291 [ 1] INFO  Unity: SetDirection:(64, 77, 0)
2021-05-18 18:28:02,292 [ 1] INFO  Unity: OnMapEntitySyncRequest::ID :12 POS:SkillBridge.Message.NVector3, DIR:SkillBridge.Message.NVector3,SPD:300
2021-05-18 18:28:02,389 [ 1] INFO  Unity: SetDirection:(47, 88, 0)
2021-05-18 18:28:02,390 [ 1] INFO  Unity: OnMapEntitySyncRequest::ID :12 POS:SkillBridge.Message.NVector3, DIR:SkillBridge.Message.NVector3,SPD:300
2021-05-18 18:28:02,488 [ 1] INFO  Unity: SetDirection:(31, 95, 0)
2021-05-18 18:28:02,490 [ 1] INFO  Unity: OnMapEntitySyncRequest::ID :12 POS:SkillBridge.Message.NVector3, DIR:SkillBridge.Message.NVector3,SPD:300
2021-05-18 18:28:02,559 [ 1] INFO  Unity: SetDirection:(14, 99, 0)
2021-05-18 18:28:02,561 [ 1] INFO  Unity: OnMapEntitySyncRequest::ID :12 POS:SkillBridge.Message.NVector3, DIR:SkillBridge.Message.NVector3,SPD:300
2021-05-18 18:28:02,649 [ 1] INFO  Unity: SetDirection:(-3, 100, 0)
2021-05-18 18:28:02,651 [ 1] INFO  Unity: OnMapEntitySyncRequest::ID :12 POS:SkillBridge.Message.NVector3, DIR:SkillBridge.Message.NVector3,SPD:300
2021-05-18 18:28:02,743 [ 1] INFO  Unity: SetDirection:(-21, 98, 0)
2021-05-18 18:28:02,745 [ 1] INFO  Unity: OnMapEntitySyncRequest::ID :12 POS:SkillBridge.Message.NVector3, DIR:SkillBridge.Message.NVector3,SPD:300
2021-05-18 18:28:02,848 [ 1] INFO  Unity: SetDirection:(-41, 91, 0)
2021-05-18 18:28:02,850 [ 1] INFO  Unity: OnMapEntitySyncRequest::ID :12 POS:SkillBridge.Message.NVector3, DIR:SkillBridge.Message.NVector3,SPD:300
2021-05-18 18:28:02,925 [ 1] INFO  Unity: SetDirection:(-59, 81, 0)
2021-05-18 18:28:02,926 [ 1] INFO  Unity: OnMapEntitySyncRequest::ID :12 POS:SkillBridge.Message.NVector3, DIR:SkillBridge.Message.NVector3,SPD:300
2021-05-18 18:28:04,069 [ 1] INFO  Unity: Stop
2021-05-18 18:28:04,071 [ 1] INFO  Unity: OnMapEntitySyncRequest::ID :12 POS:SkillBridge.Message.NVector3, DIR:SkillBridge.Message.NVector3,SPD:0
2021-05-18 18:28:08,758 [ 1] INFO  Unity: SetDirection:(-44, 90, 0)
2021-05-18 18:28:08,760 [ 1] INFO  Unity: OnMapEntitySyncRequest::ID :12 POS:SkillBridge.Message.NVector3, DIR:SkillBridge.Message.NVector3,SPD:0
2021-05-18 18:28:13,634 [ 1] INFO  Unity: OnDestroy NetworkManager.
2021-05-18 18:28:13,636 [ 1] WARN  Unity: CloseConnection(), errorCode: 1007
UnityEngine.Debug:LogWarning(Object)
Network.NetClient:CloseConnection(Int32) (at Assets/Scripts/Network/NetClient.cs:180)
Network.NetClient:OnDestroy() (at Assets/Scripts/Network/NetClient.cs:175)

2021-05-18 18:28:13,641 [ 1] INFO  Unity: Character_12_的来啦 OnDestroy :ID:12 POS:(3850, 5604, 805) DIR:(-44, 90, 0) SPD:0 
