2021-05-18 18:22:30,660 [ 1] INFO  Unity: LoadingManager start
2021-05-18 18:22:33,369 [ 1] INFO  Unity: DataManager > DataManager()
2021-05-18 18:22:39,213 [ 1] INFO  Unity: UserLoginRequest::user :123 psw:123
2021-05-18 18:22:39,216 [ 1] INFO  Unity: ConnectToServer() Start 
2021-05-18 18:22:39,217 [ 1] INFO  Unity: DoConnect
2021-05-18 18:22:39,220 [ 1] INFO  Unity: NetClient.DoConnect on 127.0.0.1:8000
2021-05-18 18:22:39,223 [ 1] INFO  Unity: Connect[0] to server 127.0.0.1:8000

2021-05-18 18:22:39,227 [ 1] INFO  Unity: LoadingMesager::OnGameServerConnect :0 reason:Success
2021-05-18 18:22:39,380 [ 1] INFO  Unity: OnUserLogin:Success [None]
2021-05-18 18:22:39,388 [ 1] INFO  Unity: LoadLevel: CharSelect
2021-05-18 18:22:40,063 [ 1] INFO  Unity: LevelLoadCompleted:1
2021-05-18 18:22:40,603 [ 1] INFO  Unity: Select Char:[3]的来啦[Archer]
2021-05-18 18:22:41,099 [ 1] INFO  Unity: UserGameEnterRequest::characterIdx :2
2021-05-18 18:22:41,132 [ 1] INFO  Unity: OnGameEnterSuccess [进入游戏成功]
2021-05-18 18:22:41,134 [ 1] INFO  Unity: OnMapCharacterEnter:Map:1 Count:1
2021-05-18 18:22:41,137 [ 1] INFO  Unity: AddCharacter:10:的来啦 Map:1 Entity:(10:pos:(5000,4000,820),dir:(100,0,0),spd:0
2021-05-18 18:22:41,140 [ 1] INFO  Unity: 布林镇
2021-05-18 18:22:41,142 [ 1] INFO  Unity: LoadLevel: MainCity
2021-05-18 18:22:42,392 [ 1] WARN  Unity: No mesh data available for mesh Sphere001 on particle system fx_portal. Make sure Read/Write Enabled is set in the importer to work on the particle system renderer

2021-05-18 18:22:42,393 [ 1] WARN  Unity: No mesh data available for mesh Sphere001 on particle system fx_portal. Make sure Read/Write Enabled is set in the importer to work on the particle system renderer

2021-05-18 18:22:42,640 [ 1] INFO  Unity: LevelLoadCompleted:1
2021-05-18 18:22:43,026 [ 1] INFO  Unity: MoveForward
2021-05-18 18:22:43,028 [ 1] INFO  Unity: OnMapEntitySyncRequest::ID :10 POS:SkillBridge.Message.NVector3, DIR:SkillBridge.Message.NVector3,SPD:300
2021-05-18 18:22:43,093 [ 1] INFO  Unity: SetDirection:(98, -21, 0)
2021-05-18 18:22:43,095 [ 1] INFO  Unity: OnMapEntitySyncRequest::ID :10 POS:SkillBridge.Message.NVector3, DIR:SkillBridge.Message.NVector3,SPD:300
2021-05-18 18:22:43,196 [ 1] INFO  Unity: SetDirection:(91, -41, 0)
2021-05-18 18:22:43,199 [ 1] INFO  Unity: OnMapEntitySyncRequest::ID :10 POS:SkillBridge.Message.NVector3, DIR:SkillBridge.Message.NVector3,SPD:300
2021-05-18 18:22:43,292 [ 1] INFO  Unity: SetDirection:(81, -59, 0)
2021-05-18 18:22:43,295 [ 1] INFO  Unity: OnMapEntitySyncRequest::ID :10 POS:SkillBridge.Message.NVector3, DIR:SkillBridge.Message.NVector3,SPD:300
2021-05-18 18:22:43,399 [ 1] INFO  Unity: SetDirection:(67, -74, 0)
2021-05-18 18:22:43,401 [ 1] INFO  Unity: OnMapEntitySyncRequest::ID :10 POS:SkillBridge.Message.NVector3, DIR:SkillBridge.Message.NVector3,SPD:300
2021-05-18 18:22:43,432 [ 1] INFO  Unity: Stop
2021-05-18 18:22:43,433 [ 1] INFO  Unity: OnMapEntitySyncRequest::ID :10 POS:SkillBridge.Message.NVector3, DIR:SkillBridge.Message.NVector3,SPD:0
2021-05-18 18:22:43,492 [ 1] INFO  Unity: SetDirection:(53, -85, 0)
2021-05-18 18:22:43,493 [ 1] INFO  Unity: OnMapEntitySyncRequest::ID :10 POS:SkillBridge.Message.NVector3, DIR:SkillBridge.Message.NVector3,SPD:0
2021-05-18 18:22:43,573 [ 1] INFO  Unity: SetDirection:(34, -94, 0)
2021-05-18 18:22:43,575 [ 1] INFO  Unity: OnMapEntitySyncRequest::ID :10 POS:SkillBridge.Message.NVector3, DIR:SkillBridge.Message.NVector3,SPD:0
2021-05-18 18:22:43,689 [ 1] INFO  Unity: SetDirection:(14, -99, 0)
2021-05-18 18:22:43,690 [ 1] INFO  Unity: OnMapEntitySyncRequest::ID :10 POS:SkillBridge.Message.NVector3, DIR:SkillBridge.Message.NVector3,SPD:0
2021-05-18 18:22:43,760 [ 1] INFO  Unity: SetDirection:(-3, -100, 0)
2021-05-18 18:22:43,762 [ 1] INFO  Unity: OnMapEntitySyncRequest::ID :10 POS:SkillBridge.Message.NVector3, DIR:SkillBridge.Message.NVector3,SPD:0
2021-05-18 18:22:43,846 [ 1] INFO  Unity: SetDirection:(-21, -98, 0)
2021-05-18 18:22:43,848 [ 1] INFO  Unity: OnMapEntitySyncRequest::ID :10 POS:SkillBridge.Message.NVector3, DIR:SkillBridge.Message.NVector3,SPD:0
2021-05-18 18:22:43,960 [ 1] INFO  Unity: SetDirection:(-41, -91, 0)
2021-05-18 18:22:43,962 [ 1] INFO  Unity: OnMapEntitySyncRequest::ID :10 POS:SkillBridge.Message.NVector3, DIR:SkillBridge.Message.NVector3,SPD:0
2021-05-18 18:22:44,055 [ 1] INFO  Unity: SetDirection:(-59, -81, 0)
2021-05-18 18:22:44,057 [ 1] INFO  Unity: OnMapEntitySyncRequest::ID :10 POS:SkillBridge.Message.NVector3, DIR:SkillBridge.Message.NVector3,SPD:0
2021-05-18 18:22:44,145 [ 1] INFO  Unity: SetDirection:(-74, -67, 0)
2021-05-18 18:22:44,146 [ 1] INFO  Unity: OnMapEntitySyncRequest::ID :10 POS:SkillBridge.Message.NVector3, DIR:SkillBridge.Message.NVector3,SPD:0
2021-05-18 18:22:44,257 [ 1] INFO  Unity: SetDirection:(-85, -53, 0)
2021-05-18 18:22:44,258 [ 1] INFO  Unity: OnMapEntitySyncRequest::ID :10 POS:SkillBridge.Message.NVector3, DIR:SkillBridge.Message.NVector3,SPD:0
2021-05-18 18:22:44,290 [ 1] INFO  Unity: MoveForward
2021-05-18 18:22:44,291 [ 1] INFO  Unity: OnMapEntitySyncRequest::ID :10 POS:SkillBridge.Message.NVector3, DIR:SkillBridge.Message.NVector3,SPD:300
2021-05-18 18:22:44,331 [ 1] INFO  Unity: SetDirection:(-94, -34, 0)
2021-05-18 18:22:44,333 [ 1] INFO  Unity: OnMapEntitySyncRequest::ID :10 POS:SkillBridge.Message.NVector3, DIR:SkillBridge.Message.NVector3,SPD:300
2021-05-18 18:22:44,435 [ 1] INFO  Unity: SetDirection:(-99, -14, 0)
2021-05-18 18:22:44,436 [ 1] INFO  Unity: OnMapEntitySyncRequest::ID :10 POS:SkillBridge.Message.NVector3, DIR:SkillBridge.Message.NVector3,SPD:300
2021-05-18 18:22:44,524 [ 1] INFO  Unity: SetDirection:(-100, 3, 0)
2021-05-18 18:22:44,525 [ 1] INFO  Unity: OnMapEntitySyncRequest::ID :10 POS:SkillBridge.Message.NVector3, DIR:SkillBridge.Message.NVector3,SPD:300
2021-05-18 18:22:44,606 [ 1] INFO  Unity: SetDirection:(-98, 21, 0)
2021-05-18 18:22:44,607 [ 1] INFO  Unity: OnMapEntitySyncRequest::ID :10 POS:SkillBridge.Message.NVector3, DIR:SkillBridge.Message.NVector3,SPD:300
2021-05-18 18:22:44,717 [ 1] INFO  Unity: SetDirection:(-91, 41, 0)
2021-05-18 18:22:44,718 [ 1] INFO  Unity: OnMapEntitySyncRequest::ID :10 POS:SkillBridge.Message.NVector3, DIR:SkillBridge.Message.NVector3,SPD:300
2021-05-18 18:22:44,816 [ 1] INFO  Unity: SetDirection:(-81, 59, 0)
2021-05-18 18:22:44,817 [ 1] INFO  Unity: OnMapEntitySyncRequest::ID :10 POS:SkillBridge.Message.NVector3, DIR:SkillBridge.Message.NVector3,SPD:300
2021-05-18 18:22:45,196 [ 1] INFO  Unity: SetDirection:(-67, 74, 0)
2021-05-18 18:22:45,197 [ 1] INFO  Unity: OnMapEntitySyncRequest::ID :10 POS:SkillBridge.Message.NVector3, DIR:SkillBridge.Message.NVector3,SPD:300
2021-05-18 18:22:45,262 [ 1] INFO  Unity: SetDirection:(-53, 85, 0)
2021-05-18 18:22:45,263 [ 1] INFO  Unity: OnMapEntitySyncRequest::ID :10 POS:SkillBridge.Message.NVector3, DIR:SkillBridge.Message.NVector3,SPD:300
2021-05-18 18:22:45,365 [ 1] INFO  Unity: SetDirection:(-34, 94, 0)
2021-05-18 18:22:45,368 [ 1] INFO  Unity: OnMapEntitySyncRequest::ID :10 POS:SkillBridge.Message.NVector3, DIR:SkillBridge.Message.NVector3,SPD:300
2021-05-18 18:22:47,310 [ 1] INFO  Unity: SetPosition:(4636, 4617, 805)
2021-05-18 18:22:47,312 [ 1] INFO  Unity: OnMapEntitySyncRequest::ID :10 POS:SkillBridge.Message.NVector3, DIR:SkillBridge.Message.NVector3,SPD:300
2021-05-18 18:22:48,148 [ 1] INFO  Unity: SetDirection:(-50, 87, 0)
2021-05-18 18:22:48,149 [ 1] INFO  Unity: OnMapEntitySyncRequest::ID :10 POS:SkillBridge.Message.NVector3, DIR:SkillBridge.Message.NVector3,SPD:300
2021-05-18 18:22:48,228 [ 1] INFO  Unity: SetDirection:(-64, 77, 0)
2021-05-18 18:22:48,229 [ 1] INFO  Unity: OnMapEntitySyncRequest::ID :10 POS:SkillBridge.Message.NVector3, DIR:SkillBridge.Message.NVector3,SPD:300
2021-05-18 18:22:48,301 [ 1] INFO  Unity: SetDirection:(-77, 64, 0)
2021-05-18 18:22:48,302 [ 1] INFO  Unity: OnMapEntitySyncRequest::ID :10 POS:SkillBridge.Message.NVector3, DIR:SkillBridge.Message.NVector3,SPD:300
2021-05-18 18:22:48,775 [ 1] INFO  Unity: SetDirection:(-88, 47, 0)
2021-05-18 18:22:48,777 [ 1] INFO  Unity: OnMapEntitySyncRequest::ID :10 POS:SkillBridge.Message.NVector3, DIR:SkillBridge.Message.NVector3,SPD:300
2021-05-18 18:22:48,848 [ 1] INFO  Unity: SetDirection:(-95, 31, 0)
2021-05-18 18:22:48,849 [ 1] INFO  Unity: OnMapEntitySyncRequest::ID :10 POS:SkillBridge.Message.NVector3, DIR:SkillBridge.Message.NVector3,SPD:300
2021-05-18 18:22:48,898 [ 1] INFO  Unity: Stop
2021-05-18 18:22:48,899 [ 1] INFO  Unity: OnMapEntitySyncRequest::ID :10 POS:SkillBridge.Message.NVector3, DIR:SkillBridge.Message.NVector3,SPD:0
2021-05-18 18:22:48,957 [ 1] INFO  Unity: SetDirection:(-99, 14, 0)
2021-05-18 18:22:48,958 [ 1] INFO  Unity: OnMapEntitySyncRequest::ID :10 POS:SkillBridge.Message.NVector3, DIR:SkillBridge.Message.NVector3,SPD:0
2021-05-18 18:22:49,039 [ 1] INFO  Unity: SetDirection:(-100, -3, 0)
2021-05-18 18:22:49,040 [ 1] INFO  Unity: OnMapEntitySyncRequest::ID :10 POS:SkillBridge.Message.NVector3, DIR:SkillBridge.Message.NVector3,SPD:0
2021-05-18 18:22:49,111 [ 1] INFO  Unity: SetDirection:(-98, -21, 0)
2021-05-18 18:22:49,112 [ 1] INFO  Unity: OnMapEntitySyncRequest::ID :10 POS:SkillBridge.Message.NVector3, DIR:SkillBridge.Message.NVector3,SPD:0
2021-05-18 18:23:17,467 [ 1] INFO  Unity: OnDestroy NetworkManager.
2021-05-18 18:23:17,468 [ 1] WARN  Unity: CloseConnection(), errorCode: 1007
UnityEngine.Debug:LogWarning(Object)
Network.NetClient:CloseConnection(Int32) (at Assets/Scripts/Network/NetClient.cs:180)
Network.NetClient:OnDestroy() (at Assets/Scripts/Network/NetClient.cs:175)

2021-05-18 18:23:17,470 [ 1] INFO  Unity: Character_10_的来啦 OnDestroy :ID:10 POS:(4366, 5000, 805) DIR:(-98, -21, 0) SPD:0 
